Division,WeightClassKg,Place,Name,Team,BodyweightKg,Best3SquatKg,Best3BenchKg,Best3DeadliftKg,TotalKg,Equipment,Event,Sex
Boys,51.71,1,Jermaine Clarkson,Everman,46.31,102.06,52.16,113.4,267.62,Single-ply,SBD,M
Boys,51.71,2,Victor Garza,Meridian,46.86,88.45,40.82,113.4,242.67,Single-ply,SBD,M
Boys,51.71,3,Ryan Holton,Godley,49.99,83.91,43.09,86.18,213.19,Single-ply,SBD,M
Boys,51.71,DQ,Roberto Ortiz,Venus,48.22,,,,,Single-ply,SBD,M
Boys,55.79,1,Eduardo Perez,Venus,54.11,183.7,92.99,179.17,455.86,Single-ply,SBD,M
Boys,55.79,2,Brady Macaulay,Everman,55.75,154.22,79.38,181.44,415.04,Single-ply,SBD,M
Boys,55.79,3,Jordan Bass,Godley,53.89,163.29,81.65,151.95,396.89,Single-ply,SBD,M
Boys,55.79,4,Ever Barron,Everman,52.39,136.08,90.72,140.61,367.41,Single-ply,SBD,M
Boys,55.79,5,Charles Rogers,Crowley,53.89,136.08,79.38,138.35,353.8,Single-ply,SBD,M
Boys,55.79,6,Gabriel Leal,Venus,55.79,129.27,79.38,136.08,344.73,Single-ply,SBD,M
Boys,55.79,7,Jose Gonzalez #12,Hillsboro,55.11,113.4,63.5,122.47,299.37,Single-ply,SBD,M
Boys,55.79,8,Zac Brimingham,Alvarado,52.25,88.45,65.77,97.52,251.74,Single-ply,SBD,M
Boys,55.79,9,Yousef Wall,Godley,52.12,63.5,45.36,102.06,210.92,Single-ply,SBD,M
Boys,59.87,1,Edgar Aguirre,Everman,59.78,181.44,102.06,192.78,476.27,Single-ply,SBD,M
Boys,59.87,2,Alex Schaefer,Venus,59.47,183.7,95.25,183.7,462.66,Single-ply,SBD,M
Boys,59.87,3,Zaahid Abdullah,Waxahachie Life,59.15,170.1,97.52,183.7,451.32,Single-ply,SBD,M
Boys,59.87,4,Coby Bolig,Whitney,58.97,136.08,70.31,136.08,342.46,Single-ply,SBD,M
Boys,67.13,1,Israel Castillo,Venus,66.36,199.58,108.86,213.19,521.63,Single-ply,SBD,M
Boys,67.13,2,David Barrera,Venus,66.77,195.04,104.33,179.17,478.54,Single-ply,SBD,M
Boys,67.13,3,Desmond Jones,Kemp,67.04,185.97,104.33,165.56,455.86,Single-ply,SBD,M
Boys,67.13,4,Jorden Robinson,Crowley,64.32,161.03,108.86,163.29,433.18,Single-ply,SBD,M
Boys,67.13,5,Lucas Zepeda,Waxahachie Life,66.77,163.29,81.65,158.76,403.7,Single-ply,SBD,M
Boys,67.13,6,Kendric Elldridge,Everman,66.27,124.74,86.18,158.76,369.68,Single-ply,SBD,M
Boys,67.13,NS,Dreon Foster,Alvarado,,,,,,Single-ply,SBD,M
Boys,67.13,DQ,Ricardo Alvarez,Alvarado,65.32,174.63,,,,Single-ply,SBD,M
Boys,74.84,1,Kameron Sisson,Whitney,72.8,181.44,115.67,204.12,501.22,Single-ply,SBD,M
Boys,74.84,2,Zeke Gonzalez,Hillsboro,71.44,163.29,102.06,181.44,446.79,Single-ply,SBD,M
Boys,74.84,3,Andrew Adamez,Godley,69.17,170.1,97.52,161.03,428.64,Single-ply,SBD,M
Boys,74.84,4,Marco Meza,Hillsboro,73.94,188.24,86.18,154.22,428.64,Single-ply,SBD,M
Boys,74.84,5,Blake Boyd,Alvarado,73.71,163.29,108.86,151.95,424.11,Single-ply,SBD,M
Boys,74.84,6,Lionel Duran,Grandview,68.58,129.27,124.74,156.49,410.5,Single-ply,SBD,M
Boys,74.84,7,Ashton Williams,Waxahachie Life,69.13,158.76,83.91,167.83,410.5,Single-ply,SBD,M
Boys,74.84,8,Austin Thompson,Alvarado,72.48,124.74,99.79,136.08,360.61,Single-ply,SBD,M
Boys,74.84,9,Savon Marks,Hillsboro,68.49,127.01,88.45,138.35,353.8,Single-ply,SBD,M
Boys,74.84,10,Harrington Stutson,Waxahachie Life,68.49,117.93,68.04,142.88,328.85,Single-ply,SBD,M
Boys,82.1,1,Canon Arnold,Alvarado,81.83,199.58,131.54,190.51,521.63,Single-ply,SBD,M
Boys,82.1,2,Neiman Turner,Hillsboro,81.15,174.63,120.2,208.65,503.49,Single-ply,SBD,M
Boys,82.1,3,Jonathan Mendez,Kemp,79.56,192.78,117.93,181.44,492.15,Single-ply,SBD,M
Boys,82.1,4,Javin Hebert,Godley,79.83,192.78,97.52,183.7,474,Single-ply,SBD,M
Boys,82.1,5,Gino Lara,Venus,80.74,185.97,88.45,170.1,444.52,Single-ply,SBD,M
Boys,82.1,6,Michael Flores,Hillsboro,80.24,167.83,108.86,163.29,439.98,Single-ply,SBD,M
Boys,82.1,7,Dylan Felan,Meridian,77.56,165.56,88.45,158.76,412.77,Single-ply,SBD,M
Boys,82.1,8,Griffen Fallwell,Whitney,79.2,136.08,81.65,145.15,362.87,Single-ply,SBD,M
Boys,82.1,NS,Tyler Garrett,Kemp,,,,,,Single-ply,SBD,M
Boys,89.81,1,Cade Lewis,Venus,89.58,222.26,115.67,217.72,555.65,Single-ply,SBD,M
Boys,89.81,2,Devin Lummus,Godley,84.73,204.12,117.93,206.38,528.44,Single-ply,SBD,M
Boys,89.81,3,Elias Reyes,Alvarado,84.96,204.12,113.4,201.85,519.36,Single-ply,SBD,M
Boys,89.81,4,Rolando Ramirez,Hillsboro,88.31,195.04,127.01,195.04,517.1,Single-ply,SBD,M
Boys,89.81,5,Shane Carroll,Waxahachie Life,86.86,188.24,120.2,199.58,508.02,Single-ply,SBD,M
Boys,89.81,6,Edgar Guzman,Everman,87.54,181.44,108.86,215.46,505.76,Single-ply,SBD,M
Boys,89.81,7,Harley Manders,Kemp,88.72,195.04,131.54,179.17,505.76,Single-ply,SBD,M
Boys,89.81,8,Erik Fisk,Godley,82.96,201.85,102.06,190.51,494.42,Single-ply,SBD,M
Boys,89.81,9,Damian Dominguez,Grandview,87,181.44,129.27,183.7,494.42,Single-ply,SBD,M
Boys,89.81,10,Xander Webb,Alvarado,88.77,185.97,111.13,181.44,478.54,Single-ply,SBD,M
Boys,89.81,11,Derek Ford,Alvarado,88.99,176.9,108.86,188.24,474,Single-ply,SBD,M
Boys,89.81,12,Reid Steele,Crowley,89.68,185.97,115.67,165.56,467.2,Single-ply,SBD,M
Boys,99.79,1,Malyk Newsome,Everman,98.16,249.48,145.15,249.48,644.1,Single-ply,SBD,M
Boys,99.79,2,Christopher Flores,Hillsboro,96.93,244.94,163.29,199.58,607.81,Single-ply,SBD,M
Boys,99.79,3,Bryan Harwell,Waxahachie Life,93.44,213.19,106.59,222.26,542.04,Single-ply,SBD,M
Boys,99.79,4,Eric Rossen,Grandview,90.31,208.65,113.4,192.78,514.83,Single-ply,SBD,M
Boys,99.79,5,Joctan Librado,Hillsboro,91.08,204.12,117.93,176.9,498.95,Single-ply,SBD,M
Boys,99.79,6,Mykol Clark,Crowley,96.71,192.78,115.67,181.44,489.88,Single-ply,SBD,M
Boys,99.79,7,Cade Bennett,Grandview,94.44,156.49,108.86,147.42,412.77,Single-ply,SBD,M
Boys,99.79,8,Oscar Morquecho,Everman,97.98,136.08,95.25,158.76,390.09,Single-ply,SBD,M
Boys,99.79,9,Jose Garcia,Everman,93.89,113.4,92.99,161.03,367.41,Single-ply,SBD,M
Boys,109.77,1,Daniel Hernandez,Everman,109.54,215.46,147.42,204.12,566.99,Single-ply,SBD,M
Boys,109.77,2,Jorge Saldana,Grandview,108.45,188.24,124.74,165.56,478.54,Single-ply,SBD,M
Boys,109.77,NS,Adnan Mazari,Venus,,,,,,Single-ply,SBD,M
Boys,124.74,1,Willie Tutt,Everman,122.11,317.51,136.08,249.48,703.07,Single-ply,SBD,M
Boys,124.74,2,Shelby Wilder,Waxahachie Life,112.85,226.8,136.08,222.26,585.13,Single-ply,SBD,M
Boys,124.74,3,Jeral Steward,Everman,115.71,219.99,140.61,206.38,566.99,Single-ply,SBD,M
Boys,124.74,4,Reuel Barrett,Waxahachie Life,119.25,226.8,136.08,192.78,555.65,Single-ply,SBD,M
Boys,124.74,5,Le'Derious Young,Everman,118.02,192.78,138.35,197.31,528.44,Single-ply,SBD,M
Boys,124.74,6,Eddie Veal,Everman,116.39,215.46,136.08,170.1,521.63,Single-ply,SBD,M
Boys,124.74,7,Collin Black,Godley,112.63,199.58,102.06,165.56,467.2,Single-ply,SBD,M
Boys,124.74,8,Cade Feder,Grandview,121.38,156.49,115.67,195.04,467.2,Single-ply,SBD,M
Boys,124.74,9,Jahaziel Compean,Hillsboro,124.74,170.1,102.06,163.29,435.45,Single-ply,SBD,M
Boys,124.74,NS,Amir Foster,Alvarado,,,,,,Single-ply,SBD,M
Boys,124.74,DQ,Christian Jiminez,Alvarado,117.57,165.56,,,,Single-ply,SBD,M
Boys,124.74,DQ,Hayden Keeney,Grandview,110.22,167.83,,,,Single-ply,SBD,M
Boys,124.74,DQ,Sam Duran,Waxahachie Life,116.53,197.31,,,,Single-ply,SBD,M
Boys,124.74+,1,Caleb Reed,Everman,131.95,319.78,181.44,294.84,796.05,Single-ply,SBD,M
Boys,124.74+,2,Isaias Hernandez,Hillsboro,135.85,272.16,167.83,249.48,689.46,Single-ply,SBD,M
Boys,124.74+,3,Colton Deal,Waxahachie Life,145.01,226.8,127.01,226.8,580.6,Single-ply,SBD,M
Boys,124.74+,4,Eddie Zuniga,Waxahachie Life,133.04,208.65,140.61,192.78,542.04,Single-ply,SBD,M
Boys,124.74+,5,Jalan Henderson,Everman,125.87,181.44,124.74,215.46,521.63,Single-ply,SBD,M
Boys,124.74+,6,Myles Newsome,Everman,126.51,183.7,124.74,192.78,501.22,Single-ply,SBD,M
Boys,124.74+,DQ,Austin Sykes,Crowley,128.5,,,,,Single-ply,SBD,M
Boys,124.74+,DQ,Javion Taylor,Venus,182.53,163.29,,,,Single-ply,SBD,M
