Division,WeightClassKg,Place,Name,Team,BodyweightKg,Best3SquatKg,Best3BenchKg,Best3DeadliftKg,TotalKg,Equipment,Event,Sex
Girls,44.23,1,Melissa Ocasio,Little Elm,43.54,88.45,58.97,111.13,258.55,Single-ply,SBD,F
Girls,44.23,2,Alex Villegas,Wylie East,42.64,97.52,47.63,102.06,247.21,Single-ply,SBD,F
Girls,44.23,3,Sabrina Cummings,Little Elm,40.82,92.99,45.36,81.65,219.99,Single-ply,SBD,F
Girls,44.23,4,Sara Bazan,Princeton,43.73,77.11,34.02,90.72,201.85,Single-ply,SBD,F
Girls,44.23,5,Emerson Weaver,Frisco Heritage,43.77,70.31,38.56,70.31,179.17,Single-ply,SBD,F
Girls,44.23,6,Isabelle Castillo,Castleberry,41.96,58.97,31.75,74.84,165.56,Single-ply,SBD,F
Girls,44.23,7,Katie Miller,Caddo Mills,42.18,61.23,22.68,61.23,145.15,Single-ply,SBD,F
Girls,44.23,8,Juliana Landa,Carrollton Turner,33.11,24.95,20.41,29.48,74.84,Single-ply,SBD,F
Girls,47.85,1,Molly Chhor,Little Elm,47.85,113.4,43.09,115.67,272.16,Single-ply,SBD,F
Girls,47.85,2,Rosario Labrada,Whitesboro,45.36,90.72,54.43,104.33,249.48,Single-ply,SBD,F
Girls,47.85,3,Belen Fuentes,Plano,45.59,83.91,56.7,104.33,244.94,Single-ply,SBD,F
Girls,47.85,4,Tia Gillam,Wylie,47.4,79.38,43.09,104.33,226.8,Single-ply,SBD,F
Girls,47.85,5,Carolina Dominguez,Castleberry,46.95,83.91,52.16,86.18,222.26,Single-ply,SBD,F
Girls,47.85,6,Skyler Blodgett,Wylie East,46.49,72.57,36.29,83.91,192.78,Single-ply,SBD,F
Girls,47.85,7,Alex Winans,Nevada Community,47.4,72.57,34.02,81.65,188.24,Single-ply,SBD,F
Girls,51.94,1,Cecelia Allen,Wylie,50.35,115.67,56.7,131.54,303.91,Single-ply,SBD,F
Girls,51.94,2,Shelbie Rhodes,Little Elm,50.8,117.93,63.5,117.93,299.37,Single-ply,SBD,F
Girls,51.94,3,Jenny Tagle,Wylie,49.9,102.06,52.16,115.67,269.89,Single-ply,SBD,F
Girls,51.94,4,Brooke Daniel,Nevada Community,51.48,90.72,49.9,97.52,238.14,Single-ply,SBD,F
Girls,51.94,5,Keiri Fuentes,Carrollton Creekview,51.71,79.38,31.75,72.57,183.7,Single-ply,SBD,F
Girls,56.02,1,Isabelle Fielder,Little Elm,55.79,115.67,58.97,120.2,294.84,Single-ply,SBD,F
Girls,56.02,2,Angela Alcocer,Princeton,55.79,99.79,63.5,120.2,283.5,Single-ply,SBD,F
Girls,56.02,3,Grace Anders,Wylie,56.02,99.79,54.43,111.13,265.35,Single-ply,SBD,F
Girls,56.02,4,Saniah Rivera,Wylie,54.2,106.59,38.56,117.93,263.08,Single-ply,SBD,F
Girls,56.02,5,Mercy Nwage,Wylie,55.57,92.99,43.09,124.74,260.82,Single-ply,SBD,F
Girls,56.02,6,Jaclynn McKinzie,Wylie,53.52,86.18,52.16,88.45,226.8,Single-ply,SBD,F
Girls,56.02,7,Marlene Romero-Ramirez,Terrell,53.75,70.31,31.75,81.65,183.7,Single-ply,SBD,F
Girls,56.02,8,Pilar Rodriguez,Terrell,56.02,65.77,34.02,81.65,181.44,Single-ply,SBD,F
Girls,56.02,9,Abby Velten,Whitesboro,53.98,68.04,43.09,65.77,176.9,Single-ply,SBD,F
Girls,56.02,10,Jenna Villareal,Carrollton Turner,53.98,68.04,24.95,68.04,161.03,Single-ply,SBD,F
Girls,56.02,11,Maci Wilson,Wylie East,53.3,61.23,43.09,,104.33,Single-ply,SB,F
Girls,56.02,12,Laura Vinson,Sherman,54.88,52.16,,,52.16,Single-ply,S,F
Girls,56.02,DQ,Fatima De Anda,Frisco Heritage,52.39,,,,,Single-ply,SBD,F
Girls,56.02,DQ,Allie DeJesus,Frisco Heritage,56.02,,,,,Single-ply,SBD,F
Girls,60.1,1,Hannah Saldivar,Wylie,59.65,140.61,83.91,142.88,367.41,Single-ply,SBD,F
Girls,60.1,2,Cristina Sanchez,Wylie,56.7,138.35,65.77,127.01,331.12,Single-ply,SBD,F
Girls,60.1,3,Shantell James,Wylie,56.47,120.2,61.23,120.2,301.64,Single-ply,SBD,F
Girls,60.1,4,Adalia McDowell,Little Elm,59.65,115.67,61.23,120.2,297.1,Single-ply,SBD,F
Girls,60.1,5,Allyson Hathaway,Wylie,59.42,111.13,65.77,106.59,283.5,Single-ply,SBD,F
Girls,60.1,6,Natalie Courtney,Melissa,58.97,102.06,45.36,120.2,267.62,Single-ply,SBD,F
Girls,60.1,7,Crystal Tice,Princeton,59.96,95.25,61.23,104.33,260.82,Single-ply,SBD,F
Girls,60.1,8,MacKenzie Brown #1,Frisco Heritage,58.29,106.59,49.9,97.52,254.01,Single-ply,SBD,F
Girls,60.1,9,Hope Jones,Frisco Heritage,58.29,95.25,40.82,95.25,231.33,Single-ply,SBD,F
Girls,60.1,10,Lindsey Hilla,Frisco Heritage,59.42,86.18,52.16,90.72,229.06,Single-ply,SBD,F
Girls,60.1,11,Molly Willingham,Nevada Community,58.06,86.18,31.75,99.79,217.72,Single-ply,SBD,F
Girls,60.1,12,Alyssa Murry,Melissa,59.87,68.04,34.02,77.11,179.17,Single-ply,SBD,F
Girls,60.1,13,Su Bin Park,Frisco Heritage,57.61,79.38,40.82,,120.2,Single-ply,SB,F
Girls,60.1,14,Angie Yanez,Nevada Community,59.87,108.86,,,108.86,Single-ply,S,F
Girls,60.1,15,Karen Lopez,Sherman,57.15,81.65,,,81.65,Single-ply,S,F
Girls,60.1,DQ,Mattie Willingham,Nevada Community,57.61,,,,,Single-ply,SBD,F
Girls,67.36,1,Madalyn Whatley,Wylie,66,163.29,90.72,163.29,417.3,Single-ply,SBD,F
Girls,67.36,2,Nancy Yousif,Frisco Heritage,66.22,190.51,77.11,149.69,417.3,Single-ply,SBD,F
Girls,67.36,3,Kimberly Jackson,Little Elm,66.9,131.54,70.31,136.08,337.93,Single-ply,SBD,F
Girls,67.36,4,Ally Carraway,Lucas Lovejoy,65.54,124.74,65.77,142.88,333.39,Single-ply,SBD,F
Girls,67.36,5,Nari Sherman,Frisco Heritage,63.28,136.08,61.23,127.01,324.32,Single-ply,SBD,F
Girls,67.36,6,MyKiyah Whitfield,Little Elm,65.77,124.74,61.23,136.08,322.05,Single-ply,SBD,F
Girls,67.36,7,Faith Gunther,Princeton,63.32,124.74,65.77,115.67,306.17,Single-ply,SBD,F
Girls,67.36,8,Ashleu Boatright,Sherman,66.68,127.01,61.23,117.93,306.17,Single-ply,SBD,F
Girls,67.36,9,Ashley Tice,Princeton,67.18,108.86,72.57,115.67,297.1,Single-ply,SBD,F
Girls,67.36,10,Natalia Cox,Melissa,67.36,113.4,63.5,113.4,290.3,Single-ply,SBD,F
Girls,67.36,11,Delyse Mitchell,Carrollton Creekview,64.86,111.13,49.9,117.93,278.96,Single-ply,SBD,F
Girls,67.36,12,Hannah Scott,Plano,62.82,102.06,63.5,106.59,272.16,Single-ply,SBD,F
Girls,67.36,13,Victoria Bell,Wylie,63.96,92.99,61.23,115.67,269.89,Single-ply,SBD,F
Girls,67.36,14,Alyse Reyes,Frisco Heritage,61.92,79.38,52.16,108.86,240.4,Single-ply,SBD,F
Girls,67.36,15,Riley Lunsford,Frisco Heritage,66.22,88.45,47.63,102.06,238.14,Single-ply,SBD,F
Girls,67.36,16,Trinity Chapman,Frisco Heritage,66.22,90.72,49.9,90.72,231.33,Single-ply,SBD,F
Girls,67.36,17,Julie Foo,Frisco Heritage,61.69,83.91,43.09,99.79,226.8,Single-ply,SBD,F
Girls,67.36,18,Racquel Funes,Castleberry,67.13,77.11,36.29,106.59,219.99,Single-ply,SBD,F
Girls,67.36,19,Lexi Rathbun,Frisco Heritage,63.5,83.91,36.29,97.52,217.72,Single-ply,SBD,F
Girls,67.36,20,Elise Barge,Caddo Mills,61.69,79.38,29.48,83.91,192.78,Single-ply,SBD,F
Girls,67.36,21,Maria Valdelamar,Terrell,60.78,68.04,31.75,83.91,183.7,Single-ply,SBD,F
Girls,67.36,22,Aaryawna Mitchell,Terrell,61.01,54.43,36.29,92.99,183.7,Single-ply,SBD,F
Girls,67.36,23,Kai Phillips,Carrollton Turner,65.32,56.7,31.75,68.04,156.49,Single-ply,SBD,F
Girls,67.36,24,Kayla Brown,Sherman,66.9,74.84,52.16,,127.01,Single-ply,SB,F
Girls,67.36,25,Ines Gueho,Melissa,66,92.99,,,92.99,Single-ply,S,F
Girls,67.36,DQ,Tamia Stoker,Caddo Mills,66.45,,,,,Single-ply,SBD,F
Girls,67.36,DQ,Ainsleu Ricketts,Sherman,62.14,,,,,Single-ply,SBD,F
Girls,67.36,DQ,Roha Hassan,Sherman,66.68,,,,,Single-ply,SBD,F
Girls,67.36,DQ,Jaclyn McCollum,Sherman,62.14,,,,,Single-ply,SBD,F
Girls,75.07,1,Alissa Saldivar,Wylie,72.12,158.76,88.45,149.69,396.89,Single-ply,SBD,F
Girls,75.07,2,Gina Jaworski,Wylie,71.67,127.01,86.18,136.08,349.27,Single-ply,SBD,F
Girls,75.07,3,Madison Burke,Wylie East,70.76,124.74,70.31,129.27,324.32,Single-ply,SBD,F
Girls,75.07,4,Emma Dang,Frisco Heritage,74.39,120.2,65.77,131.54,317.51,Single-ply,SBD,F
Girls,75.07,5,Kamryn Gardner,Whitesboro,72.57,122.47,65.77,120.2,308.44,Single-ply,SBD,F
Girls,75.07,6,Amairani Lobato,Wylie East,68.49,127.01,63.5,113.4,303.91,Single-ply,SBD,F
Girls,75.07,7,Serenity Thompson,Little Elm,72.8,115.67,68.04,120.2,303.91,Single-ply,SBD,F
Girls,75.07,8,Destiny Whitney,Wylie East,69.63,108.86,49.9,108.86,267.62,Single-ply,SBD,F
Girls,75.07,9,Sydney Bazan,Princeton,70.31,83.91,49.9,108.86,242.67,Single-ply,SBD,F
Girls,75.07,10,Banda Lizabeth,Carrollton Turner,70.99,56.7,24.95,63.5,145.15,Single-ply,SBD,F
Girls,75.07,11,Alexis Hoverter,Carrollton Turner,73.48,54.43,34.02,56.7,145.15,Single-ply,SBD,F
Girls,75.07,12,Jennifer Fuentes,Carrollton Turner,75.07,56.7,29.48,58.97,145.15,Single-ply,SBD,F
Girls,75.07,13,Nancy Camarillo,Carrollton Turner,73.03,47.63,31.75,49.9,129.27,Single-ply,SBD,F
Girls,75.07,DQ,Killey Tillery,Nevada Community,72.8,,,,,Single-ply,SBD,F
Girls,82.33,1,Faith Goins,Little Elm,80.51,158.76,79.38,158.76,396.89,Single-ply,SBD,F
Girls,82.33,2,Onize Musa,Wylie,80.29,149.69,79.38,158.76,387.82,Single-ply,SBD,F
Girls,82.33,3,Hannah Lindsey,Caddo Mills,80.97,136.08,52.16,136.08,324.32,Single-ply,SBD,F
Girls,82.33,4,Osaretin Emokpae,Wylie,81.19,127.01,56.7,136.08,319.78,Single-ply,SBD,F
Girls,82.33,5,Eli Gilliam,Whitesboro,78.02,111.13,65.77,115.67,292.57,Single-ply,SBD,F
Girls,82.33,6,Faith Kleiman,Wylie,79.83,133.81,61.23,97.52,292.57,Single-ply,SBD,F
Girls,82.33,7,Ashlee Emo,Wylie East,75.75,120.2,52.16,117.93,290.3,Single-ply,SBD,F
Girls,82.33,8,Nicole Marshall,Wylie,78.93,111.13,63.5,115.67,290.3,Single-ply,SBD,F
Girls,82.33,9,Tiara Webb,Carrollton Creekview,80.29,90.72,63.5,120.2,274.42,Single-ply,SBD,F
Girls,82.33,10,Neiddy Rodriguez,Wylie,81.19,170.1,63.5,,233.6,Single-ply,SB,F
Girls,82.33,11,Erin Longoria,Whitesboro,80.29,74.84,47.63,97.52,219.99,Single-ply,SBD,F
Girls,82.33,12,Maria Anguiano,Terrell,82.33,63.5,38.56,102.06,204.12,Single-ply,SBD,F
Girls,82.33,13,Michelle Andrade,Terrell,80.51,74.84,36.29,88.45,199.58,Single-ply,SBD,F
Girls,82.33,14,Reina Cuzdey,Caddo Mills,79.83,74.84,34.02,83.91,192.78,Single-ply,SBD,F
Girls,82.33,15,Mattie Speaker,Sherman,80.74,61.23,56.7,70.31,188.24,Single-ply,SBD,F
Girls,82.33,16,Stefani Norton,Nevada Community,82.1,151.95,,,151.95,Single-ply,S,F
Girls,82.33,17,Carla Guerra,Princeton,81.19,133.81,,,133.81,Single-ply,S,F
Girls,82.33,18,Seriah Carrillo,Frisco Heritage,78.47,92.99,,,92.99,Single-ply,S,F
Girls,90.04,1,Brianna Sims,Castleberry,89.81,151.95,95.25,158.76,405.97,Single-ply,SBD,F
Girls,90.04,2,Hailey Covington,Wylie,86.41,136.08,92.99,124.74,353.8,Single-ply,SBD,F
Girls,90.04,3,Jenna Eugster,Whitesboro,83.69,129.27,81.65,120.2,331.12,Single-ply,SBD,F
Girls,90.04,4,Ashlynn Smith,Wylie East,85.73,127.01,70.31,120.2,317.51,Single-ply,SBD,F
Girls,90.04,5,Tatiyana Anderson,Caddo Mills,84.82,124.74,56.7,113.4,294.84,Single-ply,SBD,F
Girls,90.04,6,Haley Frank,Whitesboro,87.09,111.13,65.77,106.59,283.5,Single-ply,SBD,F
Girls,90.04,7,Lissandra Ortega,Terrell,87.32,74.84,31.75,97.52,204.12,Single-ply,SBD,F
Girls,100.02,1,Hanna Beattie,Wylie,99.56,210.92,111.13,163.29,485.34,Single-ply,SBD,F
Girls,100.02,2,Kayla Young,Princeton,95.39,142.88,102.06,142.88,387.82,Single-ply,SBD,F
Girls,100.02,3,Destiny Ezeoha,Wylie,93.89,140.61,65.77,122.47,328.85,Single-ply,SBD,F
Girls,117.71,1,Andrea Torres,Sherman,116.57,161.03,92.99,161.03,415.04,Single-ply,SBD,F
Girls,117.71,2,Jaclyn Rodgers,Melissa,109.09,138.35,79.38,149.69,367.41,Single-ply,SBD,F
Girls,117.71,3,Kristen Howard,Wylie,112.94,136.08,65.77,145.15,347,Single-ply,SBD,F
Girls,117.71,4,Hallee Kolarek,Little Elm,110.22,158.76,70.31,115.67,344.73,Single-ply,SBD,F
Girls,117.71,5,Alicia Vazquez,Castleberry,113.17,106.59,65.77,142.88,315.25,Single-ply,SBD,F
Girls,117.71,6,Jackie Hernandez,Carrollton Turner,107.5,102.06,61.23,,163.29,Single-ply,SB,F
Girls,117.71,7,Olivia Massey,Terrell,102.74,,43.09,95.25,138.35,Single-ply,BD,F
Girls,117.71+,1,Haylee McAdoo,Whitesboro,145.83,185.97,104.33,,290.3,Single-ply,SB,F
Girls,,NS,Kaleigh Cochran,Whitesboro,,,,,,Single-ply,SBD,F
Girls,,NS,Sheika Dominguez,Whitesboro,,,,,,Single-ply,SBD,F
Girls,,NS,Kiersten Moore,Castleberry,,,,,,Single-ply,SBD,F
Girls,,NS,Caralone Cook,Nevada Community,,,,,,Single-ply,SBD,F
Girls,,NS,Nikki Bosapa,Nevada Community,,,,,,Single-ply,SBD,F
Girls,,NS,Emily Tapia,Nevada Community,,,,,,Single-ply,SBD,F
