Division,WeightClassKg,Place,Name,Team,BodyweightKg,Best3SquatKg,Best3BenchKg,Best3DeadliftKg,TotalKg,Equipment,Event,Sex
Boys,51.71,1,Al Gardner,Sealy,50.85,138.35,70.31,142.88,351.53,Single-ply,SBD,M
Boys,51.71,2,Joe Castillo,Altair Rice,50.8,127.01,56.7,127.01,310.71,Single-ply,SBD,M
Boys,51.71,3,Cody Burklund,Sealy,51.35,95.25,77.11,124.74,297.1,Single-ply,SBD,M
Boys,51.71,4,Cole Brogger,Vanderbilt Industrial,49.62,115.67,56.7,122.47,294.84,Single-ply,SBD,M
Boys,51.71,5,Jason Brothers,La Grange,47.99,88.45,54.43,124.74,267.62,Single-ply,SBD,M
Boys,51.71,6,Austin Draper,East Bernard,50.71,99.79,52.16,113.4,265.35,Single-ply,SBD,M
Boys,51.71,7,Dylan Crye,Hallettsville,44.68,90.72,43.09,97.52,231.33,Single-ply,SBD,M
Boys,55.79,1,Ivan Rosales,Columbus,54.25,154.22,88.45,176.9,419.57,Single-ply,SBD,M
Boys,55.79,2,Drake Griger,Sealy,54.75,133.81,65.77,142.88,342.46,Single-ply,SBD,M
Boys,55.79,3,Dalton Opperman,Columbus,54.61,117.93,77.11,124.74,319.78,Single-ply,SBD,M
Boys,55.79,4,Dedrick Querner,Altair Rice,53.98,102.06,58.97,142.88,303.91,Single-ply,SBD,M
Boys,55.79,5,Hunter Kohleffel,Columbus,55.79,120.2,54.43,108.86,283.5,Single-ply,SBD,M
Boys,55.79,6,Joel Gasseott,Sealy,54.25,97.52,61.23,120.2,278.96,Single-ply,SBD,M
Boys,59.87,1,Zach Baker,Hallettsville,59.28,165.56,81.65,163.29,410.5,Single-ply,SBD,M
Boys,59.87,2,Kolbe Kutac,Schulenburg,59.87,147.42,68.04,149.69,365.14,Single-ply,SBD,M
Boys,59.87,3,Aldo Rodriguez,Weimar,58.06,140.61,72.57,142.88,356.07,Single-ply,SBD,M
Boys,59.87,4,Eric Gutierrez,Altair Rice,59.42,138.35,72.57,138.35,349.27,Single-ply,SBD,M
Boys,59.87,5,Erik Arvizu,Weimar,58.38,120.2,74.84,133.81,328.85,Single-ply,SBD,M
Boys,59.87,6,Edgar Nava,Hempstead,59.38,124.74,61.23,140.61,326.59,Single-ply,SBD,M
Boys,59.87,7,Ricky Rico,East Bernard,59.87,113.4,72.57,136.08,322.05,Single-ply,SBD,M
Boys,59.87,DQ,Haiderman Carias,Altair Rice,59.42,97.52,,,,Single-ply,SBD,M
Boys,67.13,1,Andrew Powell,Hallettsville,65.5,156.49,111.13,161.03,428.64,Single-ply,SBD,M
Boys,67.13,2,Keaton McDonald,East Bernard,66.36,142.88,92.99,165.56,401.43,Single-ply,SBD,M
Boys,67.13,3,Trey Yanis,La Grange,67,142.88,86.18,158.76,387.82,Single-ply,SBD,M
Boys,67.13,4,Mason Glueck,Altair Rice,65.32,136.08,65.77,158.76,360.61,Single-ply,SBD,M
Boys,67.13,5,Ralph Castillo,Altair Rice,67.13,136.08,79.38,142.88,358.34,Single-ply,SBD,M
Boys,67.13,6,Rj Zarate,Altair Rice,66.22,122.47,74.84,147.42,344.73,Single-ply,SBD,M
Boys,67.13,7,Weston Warshack,Columbus,66.81,115.67,79.38,136.08,331.12,Single-ply,SBD,M
Boys,67.13,8,Reymundo Alcaron,Snook,64.23,113.4,61.23,120.2,294.84,Single-ply,SBD,M
Boys,74.84,1,Luke Harms,Vanderbilt Industrial,73.71,192.78,102.06,192.78,487.61,Single-ply,SBD,M
Boys,74.84,2,Reagan Kuck,La Grange,73.8,181.44,113.4,176.9,471.74,Single-ply,SBD,M
Boys,74.84,3,Nic Reyes,Altair Rice,71.21,167.83,97.52,199.58,464.93,Single-ply,SBD,M
Boys,74.84,4,Dylan Ramirez,Weimar,73.84,156.49,102.06,201.85,460.4,Single-ply,SBD,M
Boys,74.84,5,Reece Kollaja,La Grange,70.62,190.51,97.52,165.56,453.59,Single-ply,SBD,M
Boys,74.84,6,Devin Sims,Altair Rice,69.85,170.1,97.52,174.63,442.25,Single-ply,SBD,M
Boys,74.84,7,Bo Hart,Sealy,74.21,158.76,115.67,165.56,439.98,Single-ply,SBD,M
Boys,74.84,8,Juan Barboza,Altair Rice,71.21,136.08,61.23,147.42,344.73,Single-ply,SBD,M
Boys,82.1,1,Isaiah Herring,Hallettsville,76.79,215.46,129.27,238.14,582.87,Single-ply,SBD,M
Boys,82.1,2,Hunter Goudeau,East Bernard,78.83,176.9,97.52,208.65,483.08,Single-ply,SBD,M
Boys,82.1,3,Kyle Mikes,East Bernard,81.28,170.1,120.2,183.7,474,Single-ply,SBD,M
Boys,82.1,4,Trenton Marshall,La Grange,79.56,181.44,113.4,174.63,469.47,Single-ply,SBD,M
Boys,82.1,5,Hunter Schulz,Schulenburg,79.47,172.37,95.25,167.83,435.45,Single-ply,SBD,M
Boys,82.1,6,Jericho Haardt,La Grange,76.07,158.76,104.33,154.22,417.3,Single-ply,SBD,M
Boys,82.1,7,John Jackson,Hempstead,79.24,158.76,99.79,158.76,417.3,Single-ply,SBD,M
Boys,82.1,8,Benjamin Sandoval,East Bernard,80.51,158.76,92.99,158.76,410.5,Single-ply,SBD,M
Boys,82.1,9,David Sanchez #5,La Grange,79.15,151.95,95.25,151.95,399.16,Single-ply,SBD,M
Boys,82.1,10,Omar Castanon,Hempstead,81.28,163.29,77.11,149.69,390.09,Single-ply,SBD,M
Boys,82.1,11,Luke Trevino,East Bernard,78.83,142.88,88.45,147.42,378.75,Single-ply,SBD,M
Boys,82.1,DQ,Alex Toriz,Altair Rice,77.11,,,,,Single-ply,SBD,M
Boys,89.81,1,Kendall McCloud,Weimar,86.86,208.65,138.35,179.17,526.17,Single-ply,SBD,M
Boys,89.81,2,Caleb Edmonds,Hallettsville,86.14,172.37,113.4,163.29,449.06,Single-ply,SBD,M
Boys,89.81,3,Andre Taylor,Weimar,86.05,158.76,90.72,151.95,401.43,Single-ply,SBD,M
Boys,89.81,DQ,Shannon Tesch,Vanderbilt Industrial,89.77,163.29,,,,Single-ply,SBD,M
Boys,99.79,1,Trace McAfee,Hallettsville,94.94,242.67,165.56,222.26,630.49,Single-ply,SBD,M
Boys,99.79,2,Khamron Thomas,Hempstead,97.39,206.38,124.74,192.78,523.9,Single-ply,SBD,M
Boys,99.79,3,Sabe Muniz,East Bernard,98.25,192.78,120.2,192.78,505.76,Single-ply,SBD,M
Boys,99.79,4,Chris Brown,Vanderbilt Industrial,92.94,204.12,102.06,192.78,498.95,Single-ply,SBD,M
Boys,99.79,5,Riley Kucera,Vanderbilt Industrial,97.34,183.7,122.47,188.24,494.42,Single-ply,SBD,M
Boys,99.79,6,Josh Cervantez,La Grange,98.16,188.24,108.86,197.31,494.42,Single-ply,SBD,M
Boys,99.79,7,Jordan Garza,Weimar,99.43,204.12,106.59,183.7,494.42,Single-ply,SBD,M
Boys,99.79,8,Marco Herrera,Columbus,94.48,170.1,83.91,172.37,426.38,Single-ply,SBD,M
Boys,99.79,9,Kenley Smith,Schulenburg,97.57,156.49,106.59,151.95,415.04,Single-ply,SBD,M
Boys,99.79,10,Nicholas Koopman,Weimar,95.89,142.88,79.38,133.81,356.07,Single-ply,SBD,M
Boys,109.77,1,Brennan Schimcek,Hallettsville,109.09,235.87,167.83,195.04,598.74,Single-ply,SBD,M
Boys,109.77,2,Shawn Allen,Schulenburg,108.82,235.87,138.35,199.58,573.79,Single-ply,SBD,M
Boys,109.77,3,Ronnie Ellis,Altair Rice,106.59,217.72,113.4,226.8,557.92,Single-ply,SBD,M
Boys,109.77,4,Jaime Lopez,Hempstead,103.74,183.7,151.95,215.46,551.11,Single-ply,SBD,M
Boys,109.77,5,Cason Brown,Schulenburg,102.6,181.44,111.13,206.38,498.95,Single-ply,SBD,M
Boys,109.77,6,Danny Amaro,Weimar,109.77,183.7,117.93,183.7,485.34,Single-ply,SBD,M
Boys,109.77,7,Kiezland Quintero,Schulenburg,108.54,190.51,102.06,190.51,483.08,Single-ply,SBD,M
Boys,109.77,8,Colby Guzman,Schulenburg,109.77,149.69,86.18,147.42,383.29,Single-ply,SBD,M
Boys,109.77,DQ,Andrew Tavera,Altair Rice,101.15,,,,,Single-ply,SBD,M
Boys,124.74,1,Jaxon Fietsam,Schulenburg,118.16,215.46,124.74,210.92,551.11,Single-ply,SBD,M
Boys,124.74,2,Genaro Casas,Weimar,113.31,217.72,117.93,204.12,539.77,Single-ply,SBD,M
Boys,124.74,3,Dylan Ramirez,Altair Rice,124.74,183.7,95.25,156.49,435.45,Single-ply,SBD,M
Boys,124.74,4,PJ Moreida,Altair Rice,117.48,158.76,81.65,136.08,376.48,Single-ply,SBD,M
Boys,124.74+,1,De'vonze Franklin,Snook,144.74,306.17,158.76,226.8,691.73,Single-ply,SBD,M
Boys,124.74+,2,Christian Tovar,Schulenburg,135.03,242.67,106.59,208.65,557.92,Single-ply,SBD,M
Boys,124.74+,3,Kolton Brod,Columbus,129.41,136.08,104.33,156.49,396.89,Single-ply,SBD,M
Boys,,NS,Reid Henke,Hallettsville,,,,,,Single-ply,SBD,M
Boys,,NS,Josh Beane,Columbus,,,,,,Single-ply,SBD,M
Boys,,NS,Ian Ramsey,Columbus,,,,,,Single-ply,SBD,M
Boys,,NS,Jose Rodriguez,Sealy,,,,,,Single-ply,SBD,M
Boys,,NS,Joseph Clay,Sealy,,,,,,Single-ply,SBD,M
Boys,,NS,Johnathan Castellano,Weimar,,,,,,Single-ply,SBD,M
Boys,,NS,John Garza,La Grange,,,,,,Single-ply,SBD,M
Boys,,NS,Garrett Olive,Weimar,,,,,,Single-ply,SBD,M
Boys,,NS,Justin Busby,La Grange,,,,,,Single-ply,SBD,M
Boys,,NS,John Villasana,La Grange,,,,,,Single-ply,SBD,M
Boys,,NS,Dereck Morris,Hempstead,,,,,,Single-ply,SBD,M
