Division,WeightClassKg,Place,Name,Team,BodyweightKg,Best3SquatKg,Best3BenchKg,Best3DeadliftKg,TotalKg,Equipment,Event,Sex
Boys,51.71,1,Justin Hernandez,Weslaco East,51.17,163.29,92.99,195.04,451.32,Single-ply,SBD,M
Boys,51.71,2,John Ortega,Mercedes,48.08,151.95,86.18,149.69,387.82,Single-ply,SBD,M
Boys,51.71,3,Chris Medina,Brownsville Hanna,51.71,138.35,79.38,156.49,374.21,Single-ply,SBD,M
Boys,51.71,4,Andrew Garcia,Brownsville Lopez,51.71,147.42,63.5,138.35,349.27,Single-ply,SBD,M
Boys,55.79,1,Mark Ortega,Mercedes,55.34,165.56,102.06,170.1,437.72,Single-ply,SBD,M
Boys,55.79,2,Daniel Jeronimo,Hidalgo Early College,55.57,163.29,86.18,170.1,419.57,Single-ply,SBD,M
Boys,55.79,3,Richard Vasquez,Weslaco East,54.43,131.54,68.04,147.42,347,Single-ply,SBD,M
Boys,59.87,1,Josh Gonzalez,Weslaco East,59.42,165.56,92.99,185.97,444.52,Single-ply,SBD,M
Boys,59.87,2,Frank Hernandez,Rio Hondo,59.87,158.76,99.79,174.63,433.18,Single-ply,SBD,M
Boys,59.87,3,Jason Penaflor,Mission Veterans Memorial,57.61,106.59,65.77,106.59,278.96,Single-ply,SBD,M
Boys,67.13,1,Freddy Gonzalez #1,Weslaco East,66.68,190.51,151.95,197.31,539.77,Single-ply,SBD,M
Boys,67.13,2,Jose Serna,Weslaco East,62.6,199.58,106.59,199.58,505.76,Single-ply,SBD,M
Boys,67.13,3,Javier Castro,Brownsville Lopez,66.5,183.7,108.86,197.31,489.88,Single-ply,SBD,M
Boys,67.13,4,Isaac Rodriguez,Rio Hondo,67.13,185.97,106.59,183.7,476.27,Single-ply,SBD,M
Boys,67.13,5,Zeke Rocha,Rio Hondo,61.69,165.56,111.13,165.56,442.25,Single-ply,SBD,M
Boys,67.13,6,Adrian Leija,Mission Veterans Memorial,66.22,142.88,102.06,156.49,401.43,Single-ply,SBD,M
Boys,67.13,7,Erik Castro,Mission Veterans Memorial,64.32,133.81,74.84,151.95,360.61,Single-ply,SBD,M
Boys,67.13,8,Emmanuel Mendoza,Donna,64.41,97.52,83.91,138.35,319.78,Single-ply,SBD,M
Boys,67.13,9,Marco Esparza,Hidalgo Early College,63.5,122.47,77.11,111.13,310.71,Single-ply,SBD,M
Boys,67.13,DQ,Jonathan Godinez,Brownsville Lopez,64.77,,,,,Single-ply,SBD,M
Boys,74.84,1,Jorge Cavazos,Mercedes,72.3,240.4,145.15,217.72,603.28,Single-ply,SBD,M
Boys,74.84,2,Dominic Ramos,Rio Hondo,74.84,215.46,170.1,217.72,603.28,Single-ply,SBD,M
Boys,74.84,3,Christian Avila,Weslaco East,71.21,192.78,117.93,197.31,508.02,Single-ply,SBD,M
Boys,74.84,4,Jerred Fuentes,Mercedes,70.67,192.78,106.59,185.97,485.34,Single-ply,SBD,M
Boys,74.84,5,Jose Colunga,Mercedes,71.4,183.7,111.13,158.76,453.59,Single-ply,SBD,M
Boys,74.84,6,Roy Cuellar,Hidalgo Early College,74.84,190.51,90.72,154.22,435.45,Single-ply,SBD,M
Boys,74.84,7,Brandon Adame,Mercedes,71.3,165.56,83.91,156.49,405.97,Single-ply,SBD,M
Boys,74.84,DQ,Luis Cedillo,Donna,74.62,,,,,Single-ply,SBD,M
Boys,82.1,1,Imanol Ordonez,Weslaco East,81.65,226.8,154.22,272.16,653.17,Single-ply,SBD,M
Boys,82.1,2,Juan Rojas,Donna,82.1,254.01,133.81,238.14,625.96,Single-ply,SBD,M
Boys,82.1,3,Jose Guzman,Donna,82.1,242.67,129.27,233.6,605.55,Single-ply,SBD,M
Boys,82.1,4,Alek Garza,Mission Veterans Memorial,82.1,192.78,124.74,192.78,510.29,Single-ply,SBD,M
Boys,82.1,5,Eriberto Villareal,Mission Veterans Memorial,79.47,183.7,117.93,183.7,485.34,Single-ply,SBD,M
Boys,82.1,6,Ruben Chavero,Donna,80.29,188.24,113.4,165.56,467.2,Single-ply,SBD,M
Boys,82.1,7,Miguel Reyes,Donna,75.52,158.76,88.45,181.44,428.64,Single-ply,SBD,M
Boys,82.1,DQ,Miguel Martinez,Hidalgo Early College,82.1,172.37,131.54,,,Single-ply,SBD,M
Boys,89.81,1,Brandon Esteves,Brownsville Hanna,89.81,247.21,145.15,256.28,648.64,Single-ply,SBD,M
Boys,89.81,2,Gabriel Salinas,Donna,89.36,251.74,138.35,233.6,623.69,Single-ply,SBD,M
Boys,89.81,3,Hector Palencia,Donna,89.36,272.16,131.54,217.72,621.42,Single-ply,SBD,M
Boys,89.81,4,Fred Cardenas,Weslaco East,87.54,226.8,147.42,240.4,614.62,Single-ply,SBD,M
Boys,89.81,5,Albert Monroy,Mission Veterans Memorial,89.36,260.82,122.47,224.53,607.81,Single-ply,SBD,M
Boys,89.81,6,Matt Vela,Weslaco East,84.82,208.65,129.27,235.87,573.79,Single-ply,SBD,M
Boys,89.81,7,Juan Arteaga,Hidalgo Early College,86.64,183.7,92.99,158.76,435.45,Single-ply,SBD,M
Boys,99.79,1,Justin Flores,Rio Hondo,96.16,276.69,174.63,210.92,662.24,Single-ply,SBD,M
Boys,99.79,2,Joey Raya,Brownsville Hanna,99.56,265.35,145.15,213.19,623.69,Single-ply,SBD,M
Boys,99.79,3,Ryan Perales,Donna,97.52,254.01,158.76,195.04,607.81,Single-ply,SBD,M
Boys,99.79,4,Isaac Rangel,Donna,98.43,263.08,131.54,213.19,607.81,Single-ply,SBD,M
Boys,99.79,5,Anthony Martinez,Rio Hondo,98.66,215.46,142.88,185.97,544.31,Single-ply,SBD,M
Boys,99.79,6,Angel Reyes,Hidalgo Early College,99.56,201.85,138.35,197.31,537.51,Single-ply,SBD,M
Boys,99.79,7,Mat Cortinas,Brownsville Lopez,97.16,219.99,122.47,192.78,535.24,Single-ply,SBD,M
Boys,99.79,8,Calvin Hinojosa,Brownsville Hanna,96.62,183.7,124.74,183.7,492.15,Single-ply,SBD,M
Boys,99.79,9,Ricky Ochoa,Mission Veterans Memorial,98.97,190.51,115.67,183.7,489.88,Single-ply,SBD,M
Boys,99.79,10,Felix Vargas,Weslaco East,97.52,197.31,129.27,158.76,485.34,Single-ply,SBD,M
Boys,109.77,1,Jacob Banda,Weslaco East,108.86,283.5,167.83,276.69,728.02,Single-ply,SBD,M
Boys,109.77,2,Fernando Martinez,Brownsville Hanna,101.38,272.16,174.63,210.92,657.71,Single-ply,SBD,M
Boys,109.77,3,Jair Ibarra,Brownsville Lopez,102.42,242.67,170.1,242.67,655.44,Single-ply,SBD,M
Boys,109.77,4,JR Salinas,Mercedes,107.32,240.4,154.22,195.04,589.67,Single-ply,SBD,M
Boys,109.77,5,Sergio Luna,Brownsville Hanna,109.77,240.4,145.15,192.78,578.33,Single-ply,SBD,M
Boys,109.77,6,Nick Rojas,Donna,108.41,210.92,111.13,163.29,485.34,Single-ply,SBD,M
Boys,109.77,7,Kevin Garcia,Brownsville Lopez,102.33,195.04,97.52,188.24,480.81,Single-ply,SBD,M
Boys,109.77,8,Donavan Rodriguez,Mission Veterans Memorial,102.24,183.7,104.33,174.63,462.66,Single-ply,SBD,M
Boys,109.77,9,Jerry Jasso,Mercedes,109.77,195.04,102.06,142.88,439.98,Single-ply,SBD,M
Boys,124.74,1,Andrew Mendoza,Weslaco East,119.75,292.57,176.9,231.33,700.8,Single-ply,SBD,M
Boys,124.74,2,Troy Macias,Rio Hondo,124.74,256.28,183.7,242.67,682.66,Single-ply,SBD,M
Boys,124.74,3,Damien Gomez,Mission Veterans Memorial,112.49,197.31,102.06,192.78,492.15,Single-ply,SBD,M
Boys,124.74+,1,Sebastian Garcia,Brownsville Hanna,138.8,317.51,199.58,249.48,766.57,Single-ply,SBD,M
Boys,124.74+,2,Daniel Roque,Weslaco East,149.69,303.91,151.95,258.55,714.41,Single-ply,SBD,M
Boys,124.74+,3,Danny Melendez,Mercedes,125.19,294.84,145.15,231.33,671.32,Single-ply,SBD,M
Boys,124.74+,4,Victor Anzaldua,Mission Veterans Memorial,144.06,276.69,127.01,235.87,639.57,Single-ply,SBD,M
Boys,124.74+,5,Joel Chapa,Brownsville Lopez,136.71,249.48,145.15,197.31,591.94,Single-ply,SBD,M
Boys,124.74+,DQ,Benjamin Flores,Rio Hondo,136.53,,,,,Single-ply,SBD,M
