Sex,Name,BodyweightKg,Age,Event,WeightClassKg,Equipment,Division,Best3SquatKg,Squat4Kg,Best3BenchKg,Bench4Kg,Best3DeadliftKg,Deadlift4Kg,TotalKg,Place
F,Carin Fujisaki,,45,B,48,Raw,M 45-49,,,72.5,73,,,73,1
F,Carin Fujisaki,,45,B,48,Raw,Open,,,72.5,73,,,73,1
F,Jackie Yarbrough,,59,B,60,Raw,Law/Mil,,,,,,,,DQ
F,Rosemarie Rau-Levine,,67,B,67.5,Raw,M 65-69,,,35,,,,35,1
F,Lynn Naftel,,59,B,67.5,Raw,M 55-59,,,42.5,46,,,42.5,1
F,Lynn Naftel,,59,B,67.5,Raw,LM 55-59,,,42.5,46,,,42.5,1
F,Gretchen Ashton,,45,B,75,Single-ply,Open,,,95,97.5,,,95,1
F,Gretchen Ashton,,45,B,75,Single-ply,M 45-49,,,95,97.5,,,95,1
F,Gretchen Ashton,,45,B,75,Single-ply,LM 45-49,,,95,97.5,,,95,1
F,Gretchen Ashton,,45,B,75,Single-ply,Life,,,95,97.5,,,95,1
F,Kelly Melone,,49,B,90,Raw,M 45-49,,,40,,,,40,1
F,Sharon Pipes,,65,B,90,Raw,LM 65-69,,,52.5,,,,52.5,1
F,Valerie Crowell,,45,B,90+,Raw,M 45-49,,,92.5,,,,92.5,1
F,Helene Tropp,,65,D,48,Raw,LM 65-69,,,,,97.5,,97.5,1
F,Helene Tropp,,65,D,48,Raw,Life,,,,,97.5,,97.5,1
F,Debbie Selby,,47,D,67.5,Raw,LM 45-49,,,,,100,,100,1
F,Ashley Promenchenkel,,18,D,75,Raw,T 18-19,,,,,110,,110,1
F,Sharon Pipes,,65,D,90,Raw,LM 65-69,,,,,107.5,,107.5,1
F,Debbie Selby,,47,SBD,67.5,Raw,LM 45-49,47.5,,35,,100,,182.5,1
F,Ashley Promenchenkel,,18,SBD,75,Raw,HS 18-19,85,,37.5,,110,,232.5,1
F,Gretchen Ashton,,45,SBD,75,Single-ply,M 45-49,,,,,,,,DQ
F,Sharon Pipes,,65,SBD,90,Raw,LM 65-69,37.5,,52.5,,107.5,,197.5,1
F,Valerie Crowell,,45,SBD,90+,Raw,M 45-49,72.5,,92.5,,120,,285,1
F,Christine Stone,,49,BD,60,Raw,M 45-49,,,27.5,,32.5,,60,1
F,Christine Stone,,49,BD,60,Raw,LM 45-49,,,27.5,,32.5,,60,1
F,Debbie Selby,,47,BD,67.5,Raw,LM 45-49,,,35,,100,,135,1
F,Gretchen Ashton,,45,BD,75,Single-ply,Life,,,95,97.5,102.5,,197.5,1
F,Sharon Pipes,,65,BD,90,Raw,LM 65-69,,,52.5,,107.5,,160,1
M,Chase Akina,,8,B,35,Raw,Y 8-9,,,37.5,38.5,,,37.5,1
M,Jim Selby,,75,B,60,Raw,LM 75-79,,,42.5,,,,42.5,1
M,Rudy Machuca,,17,B,67.5,Raw,HS 16-17,,,100,,,,100,1
M,Darin Bennett,,41,B,67.5,Raw,M 40-44,,,130,,,,130,1
M,Adam Chamie,,29,B,75,Raw,Law/Mil,,,165,,,,165,1
M,Aaron Icardi,,29,B,75,Raw,Open,,,192.5,,,,192.5,1
M,Adam Chamie,,29,B,75,Raw,Open,,,165,,,,165,2
M,Ray Lopez,,67,B,75,Raw,LM 65-69,,,120,122.5,,,120,1
M,Rich Branch,,48,B,82.5,Single-ply,LM 45-49,,,157.5,,,,157.5,1
M,Martin Drake,,53,B,82.5,Single-ply,LM 50-54,,,152.5,,,,152.5,1
M,Randy Gallan,,,B,82.5,Single-ply,M 40-44,,,137.5,,,,137.5,1
M,Martin Drake,,53,SB,82.5,Single-ply,M 50-54,65,,152.5,,,,217.5,1
M,Martin Drake,,53,B,82.5,Single-ply,Open,,,152.5,,,,152.5,1
M,Kevin Nunez,,33,B,82.5,Raw,Life,,,137.5,,,,137.5,1
M,Kevin Nunez,,33,B,82.5,Raw,Open,,,137.5,,,,137.5,1
M,Greg Clover,,55,B,82.5,Raw,LM 55-59,,,135,,,,135,1
M,Joe Smith,,34,B,90,Raw,Law/Mil,,,207.5,,,,207.5,1
M,Sam Arase,,45,B,90,Raw,Law/Mil,,,182.5,,,,182.5,2
M,Joe Smith,,34,B,90,Raw,Open,,,207.5,,,,207.5,1
M,Sam Arase,,45,B,90,Raw,LM 45-49,,,182.5,,,,182.5,1
M,Sam Arase,,45,B,90,Raw,M 45-49,,,182.5,,,,182.5,1
M,Fred Collingwood,,59,B,90,Raw,LM 55-59,,,140,141,,,140,1
M,Bill Weiss,,43,B,90,Raw,M 40-44,,,125,,,,125,1
M,Fred Collingwood,,59,B,90,Raw,M 55-59,,,140,,,,140,1
M,Mark Mathews,,14,B,90,Raw,T 14-15,,,137.5,140,,,137.5,1
M,Brandon Promenchenkel,,17,B,90,Raw,T 16-17,,,105,,,,105,1
M,Mo Rau,,65,B,100,Single-ply,LM 65-69,,,117.5,,,,117.5,1
M,Mo Rau,,65,B,100,Single-ply,M 65-69,,,117.5,,,,117.5,1
M,Ron Gavett,,39,B,100,Raw,Sub,,,185,,,,185,1
M,Jordan Indovino,,14,B,100,Raw,T 14-15,,,142.5,,,,142.5,1
M,Mark Mathews Sr,,41,B,110,Raw,LM 40-44,,,175,,,,175,1
M,Bob Hartshorne,,65,B,110,Raw,LM 65-69,,,130,,,,130,1
M,Bob Hartshorne,,65,B,110,Raw,M 65-69,,,130,,,,130,1
M,Jonathan Morgan,,14,B,110,Raw,T 14-15,,,92.5,,,,92.5,1
M,Marco Garcia,,15,B,110,Raw,T 14-15,,,,,,,,DQ
M,Charles Milligan,,52,B,125,Single-ply,M 50-54,,,150,,,,150,1
M,Ryan DeWitt,,29,B,125,Raw,Open,,,265,,,,265,1
M,Jeff Fahrenbruch,,51,B,125,Raw,Open,,,182.5,,,,182.5,2
M,Mark Heikkila,,52,B,125,Raw,LM 50-54,,,137.5,,,,137.5,2
M,Jeff Fahrenbruch,,51,B,125,Raw,M 50-54,,,182.5,,,,182.5,1
M,James Wagner,,51,B,125,Raw,M 50-54,,,160,,,,160,2
M,Keith Ward,,48,B,145+,Raw,Open,,,162.5,,,,162.5,1
M,Keith Ward,,48,B,145+,Raw,LM 45-49,,,162.5,,,,162.5,1
M,Keith Ward,,48,B,145+,Raw,M 45-49,,,162.5,,,,162.5,1
M,Chase Akina,,8,D,35,Raw,Y 8-9,,,,,77.5,78.5,77.5,1
M,Gabriel Tolentino,,17,D,60,Raw,HS 16-17,,,,,172.5,,172.5,1
M,Jim Selby,,75,D,60,Raw,M 75-79,,,,,100,,100,1
M,Joe Morales,,17,D,75,Raw,HS 16-17,,,,,177.5,,177.5,1
M,Gordon Santee,,57,D,75,Raw,M 55-59,,,,,220.5,227.5,220.5,1
M,Bill Ennis,,58,D,82.5,Raw,M 55-59,,,,,207.5,,207.5,1
M,Carlos Acosta #1,,65,D,82.5,Raw,M 65-69,,,,,165,170,165,1
M,Jacob Smith,,15,D,82.5,Raw,T 14-15,,,,,182.5,,182.5,1
M,Bernabe De La Rosa,,17,D,90,Raw,T 16-17,,,,,222.5,,222.5,1
M,Greg Babst,,26,D,110,Single-ply,Law/Mil,,,,,282.5,,282.5,1
M,Charles Milligan,,52,D,125,Single-ply,M 50-54,,,,,227.5,,227.5,1
M,Mark Heikkila,,52,D,125,Raw,LM 50-54,,,,,65,,65,1
M,Robert Cuddeback,,38,D,125,Raw,Law/Mil,,,,,260,,260,1
M,Steve Belanger,,47,D,125,Raw,M 45-49,,,,,230,,230,1
M,Chase Akina,,8,SB,30,Raw,Y 8-9,55,,37.5,38.5,,,92.5,1
M,Michael Booker #1,54.43,23,SBD,56,Single-ply,JR,227.5,,182.5,,140,,550,1
M,Joshua Martin,,14,SBD,56,Raw,T 14-15,50,,42.5,,75,,167.5,1
M,Jessie Luvert,,15,SBD,60,Raw,HS 14-15,95,,62.5,,140,,297.5,1
M,Jim Selby,,75,SBD,60,Raw,M 75-79,55,67.5,42.5,,100,,197.5,1
M,Brian Jones,,16,SBD,67.5,Raw,HS 16-17,102.5,,60,,170,,332.5,1
M,Armon Guitierez,,17,SBD,67.5,Raw,T 16-17,137.5,,75,,175,,387.5,1
M,Isaac Pulealii,,15,SBD,75,Raw,HS 14-15,135,,105,,150,,390,1
M,Jason Puleri,,,SBD,82.5,Single-ply,Law/Mil,215,,157.5,,242.5,,615,1
M,Rich Branch,,48,SBD,82.5,Single-ply,LM 45-49,207,,157.5,159,220,227.5,584.5,1
M,Martin Drake,,53,SBD,82.5,Single-ply,LM 50-54,65,,152.5,155,65,,282.5,1
M,Martin Drake,,53,SBD,82.5,Single-ply,M 50-54,65,,152.5,155,65,,282.5,1
M,Rich Branch,,48,SBD,82.5,Single-ply,M 45-49,207,,157.5,159,220,227.5,584.5,1
M,Richard Simon,,73,SBD,82.5,Single-ply,M 70-74,120,,,,,,,DQ
M,Jason Puleri,,,SBD,82.5,Single-ply,Open,215,,157.5,,242.5,,615,1
M,Charles Stocking,,24,SBD,82.5,Raw,Open,200,,122.5,,220,,542.5,1
M,Trent Sabo,,22,SBD,82.5,Raw,Open,175,,112.5,,200,,487.5,2
M,Ruben Obregon,,14,SBD,82.5,Raw,HS 14-15,102.5,,60,,110,,272.5,1
M,Ron Scott,,58,SBD,82.5,Raw,M 55-59,65,,65,,65,,195,1
M,Tim Fitzgibbon,,55,SBD,90,Single-ply,M 55-59,187.5,,112.5,,190,,490,1
M,Chris Meier,,38,SBD,90,Raw,L Sub,187.5,,165,,262.5,,615,1
M,Nestar Zapata,,15,SBD,90,Raw,HS 14-15,67.5,,102.5,,195,,365,1
M,Bernabe De La Rosa,,17,SB,90,Raw,HS 16-17,185,,130,,,,315,1
M,Edwin Lewis,,55,SBD,90,Raw,M 55-59,200,,90,,185,,475,1
M,Jason Golec,,29,SBD,100,Single-ply,Life,265,,182.5,,255,,702.5,1
M,Bob Evans #3,,57,SBD,100,Single-ply,M 55-59,210,,182.5,,170,,562.5,1
M,William Leedy,,73,SBD,100,Single-ply,M 70-74,142.5,,127.5,,215,,485,1
M,Chipper Settle,,,SBD,100,Single-ply,Open,125,,125,,235,,485,1
M,Ray DiBartolomeo,,27,SBD,100,Raw,Life,232.5,,175,,250,,657.5,1
M,Ray DiBartolomeo,,27,SBD,100,Raw,Open,232.5,,175,,250,,657.5,1
M,Keith Mannies,,,SBD,100,Raw,Open,192.5,,150,,237.5,,580,2
M,Chris Cei,,32,SBD,100,Raw,Open,190,,127.5,,222.5,,540,3
M,Wesley Allen,,31,SBD,100,Raw,Open,190,,122.5,,210,,522.5,4
M,Steve Landry,,38,SBD,100,Raw,Sub,260,,175,,310,,745,1
M,David Muro,,34,SBD,110,Single-ply,Life,243,,170,,275,,688,1
M,Gene Abernathy,,57,SBD,110,Raw,LM 55-59,65,,152.5,153,237.5,,455,1
M,Mark Heikkila,,52,SBD,125,Raw,LM 50-54,65,,137.5,,65,,267.5,1
M,Charles Milligan,,52,SBD,125,Single-ply,M 50-54,230,,150,,227.5,,607.5,1
M,Michael Sørensen,,57,SBD,125,Single-ply,M 55-59,45,,45,,65,,155,1
M,Dan Herrera,,,SBD,125,Single-ply,Open,65,,65,,65,,195,1
M,Emilio Paez,,24,SD,125,Raw,Open,237.5,,,,250,,487.5,1
M,James Wagner,,51,B,125,Raw,LM 50-54,,,160,,,,160,1
M,Harry Bodkin,,17,SBD,125,Single-ply,T 16-17,227.5,,132.5,,227.5,,587.5,1
M,Harry Bodkin,,17,SBD,125,Single-ply,HS 16-17,227.5,,132.5,,227.5,,587.5,1
M,Kenyatta Ealey,,15,BD,52,Raw,HS 14-15,,,67.5,,97.5,,165,1
M,Irwin Zapata,,14,D,56,Raw,HS 14-15,,,,,115,,115,1
M,Gabriel Guzman,,17,BD,60,Raw,HS 16-17,,,82.5,,165,,247.5,1
M,Jim Selby,,75,BD,60,Raw,LM 75-79,,,42.5,,100,,142.5,1
M,Aaron Horning,,15,BD,67.5,Raw,HS 14-15,,,65,,137.5,,202.5,1
M,Luis Menera,,16,BD,75,Raw,HS 16-17,,,95,,177.5,,272.5,1
M,Jonathan Bailey,,16,BD,75,Raw,HS 16-17,,,95,,172.5,,267.5,2
M,Rich Branch,,48,BD,82.5,Single-ply,LM 45-49,,,157.5,,220,227.5,377.5,1
M,Jacob Smith,,15,BD,82.5,Raw,HS 14-15,,,97.5,,182.5,,280,1
M,Jim Naftel,,61,BD,82.5,Raw,LM 60-64,,,77.5,,142.5,145,220,1
M,James Mathews,,70,BD,82.5,Raw,LM 70-74,,,102.5,,170,175,272.5,1
M,Jim Naftel,,61,BD,82.5,Raw,M 60-64,,,77.5,,142.5,145,220,1
M,Carlos Acosta #1,,65,BD,82.5,Raw,M 65-69,,,97.5,,165,170,262.5,1
M,Kevin Shaw,,36,BD,90,Single-ply,Life,,,165,,250,,415,1
M,Luis Hernandez,,14,BD,90,Raw,HS 14-15,,,85,,152.5,,237.5,1
M,Brandon Promenchenkel,,17,BD,90,Raw,HS 16-17,,,105,,180,,285,1
M,Jason Golec,,29,BD,100,Single-ply,Life,,,182.5,,255,,437.5,1
M,William Leedy,,73,BD,100,Single-ply,M 70-74,,,127.5,,215,,342.5,1
M,Brandon Blackwood,,35,BD,100,Raw,Sub,,,125,,175,,300,1
M,Mathew Edwards,,15,BD,100,Raw,HS 14-15,,,75,,,,,DQ
M,Felipe Zepeda,,46,BD,100,Raw,LM 45-49,,,125,,175,,300,1
M,Ricardo Costa,,28,BD,110,Single-ply,Open,,,162.5,,182.5,,345,1
M,Jason Parish,,30,BD,110,Raw,Law/Mil,,,145,,235,242.5,380,1
M,David Roman,,48,BD,110,Raw,Law/Mil,,,157.5,,210,,367.5,2
M,Marco Garcia,,15,BD,110,Raw,HS 14-15,,,97.5,,155,,252.5,1
M,David Roman,,48,BD,110,Raw,M 45-49,,,157.5,,210,,367.5,1
M,Scott Hamilton,,39,BD,110,Single-ply,Sub,,,160,,197.5,,357.5,1
M,Steve Dennison,,,BD,125,Single-ply,M 40-44,,,215,,297.5,,512.5,1
M,Michael Sørensen,,57,BD,125,Single-ply,M 55-59,,,45,,65,,110,1
