Division,WeightClassKg,Place,Name,Team,BodyweightKg,Best3SquatKg,Best3BenchKg,Best3DeadliftKg,TotalKg,Equipment,Event,Sex,BirthDate
Boys,51.71,1,Tyler Morrow,Copperas Cove,51.71,154.22,88.45,192.78,435.45,Single-ply,SBD,M,
Boys,51.71,2,Isaac Jones,Belton,49.76,133.81,77.11,129.27,340.19,Single-ply,SBD,M,
Boys,51.71,3,Nick Perez,Belton,41.05,92.99,47.63,104.33,244.94,Single-ply,SBD,M,
Boys,51.71,4,Marco Castelli,Belton,47.31,90.72,52.16,95.25,238.14,Single-ply,SBD,M,
Boys,51.71,5,Colin Gascon,Belton,43.36,86.18,47.63,90.72,224.53,Single-ply,SBD,M,
Boys,51.71,DQ,Isaac Rios,Killeen Ellison,49.62,92.99,72.57,,,Single-ply,SBD,M,
Boys,55.79,1,Richard Willess,Belton,55.57,158.76,97.52,172.37,428.64,Single-ply,SBD,M,
Boys,55.79,2,Junior Cox,Belton,55.75,163.29,102.06,163.29,428.64,Single-ply,SBD,M,
Boys,55.79,3,Tahid Lloyd,Killeen Harker Heights,52.98,117.93,70.31,136.08,324.32,Single-ply,SBD,M,
Boys,55.79,4,Joshua Denoso,Temple,55.29,111.13,74.84,122.47,308.44,Single-ply,SBD,M,
Boys,55.79,5,Adrian Fairley,Copperas Cove,55.79,90.72,70.31,102.06,263.08,Single-ply,SBD,M,
Boys,55.79,6,Nik Caproni,Rosebud-Lott,55.2,77.11,52.16,102.06,231.33,Single-ply,SBD,M,
Boys,55.79,7,Oscar Flores,Waco Midway,52.34,83.91,43.09,99.79,226.8,Single-ply,SBD,M,
Boys,59.87,1,Kyle Gascon,Belton,59.47,190.51,99.79,176.9,467.2,Single-ply,SBD,M,
Boys,59.87,2,Angel Longoria,Belton,59.83,151.95,111.13,172.37,435.45,Single-ply,SBD,M,
Boys,59.87,3,Jair Perez,Little River Academy,59.33,163.29,97.52,161.03,421.84,Single-ply,SBD,M,
Boys,59.87,4,Gabriel Vargas,Killeen Ellison,59.06,149.69,88.45,167.83,405.97,Single-ply,SBD,M,
Boys,59.87,5,Aurelius Torres,Waco Midway,56.11,97.52,47.63,86.18,231.33,Single-ply,SBD,M,
Boys,67.13,1,Larry Young,Little River Academy,65.54,181.44,102.06,190.51,474,Single-ply,SBD,M,
Boys,67.13,2,Gerald Fountain,Belton,65.36,161.03,102.06,176.9,439.98,Single-ply,SBD,M,
Boys,67.13,3,Jarian Green,Killeen Ellison,63.46,147.42,104.33,183.7,435.45,Single-ply,SBD,M,
Boys,67.13,4,William Bradley,Little River Academy,66.77,140.61,113.4,181.44,435.45,Single-ply,SBD,M,
Boys,67.13,5,Sean Galvan,Belton,64.27,136.08,95.25,174.63,405.97,Single-ply,SBD,M,
Boys,67.13,6,Juan Emanuel,Killeen Harker Heights,64.59,149.69,88.45,167.83,405.97,Single-ply,SBD,M,
Boys,67.13,7,Clayton Lawson,Little River Academy,66.77,156.49,86.18,151.95,394.63,Single-ply,SBD,M,
Boys,67.13,8,Joseph Knox,Belton,65.59,136.08,74.84,163.29,374.21,Single-ply,SBD,M,
Boys,67.13,9,Joseph Williams,Killeen Shoemaker,65.91,120.2,88.45,151.95,360.61,Single-ply,SBD,M,
Boys,67.13,10,Kaleb Howard,Killeen Harker Heights,66.13,102.06,61.23,122.47,285.76,Single-ply,SBD,M,
Boys,74.84,1,Devin Owens,Killeen Shoemaker,73.98,206.38,104.33,233.6,544.31,Single-ply,SBD,M,
Boys,74.84,2,Scott Gurnett,Belton,73.94,206.38,131.54,192.78,530.7,Single-ply,SBD,M,
Boys,74.84,3,Cedric Lewis,Killeen Ellison,73.39,156.49,147.42,208.65,512.56,Single-ply,SBD,M,
Boys,74.84,4,Tyrese Frances,Copperas Cove,73.03,208.65,113.4,185.97,508.02,Single-ply,SBD,M,
Boys,74.84,5,Tyree Trammell,Killeen Harker Heights,72.53,183.7,111.13,201.85,496.68,Single-ply,SBD,M,
Boys,74.84,6,Chandler Gastello,Copperas Cove,72.12,179.17,113.4,188.24,480.81,Single-ply,SBD,M,
Boys,74.84,7,Austin Morin,Belton,74.71,192.78,124.74,163.29,480.81,Single-ply,SBD,M,
Boys,74.84,8,Tarin Morrow,Copperas Cove,74.84,170.1,102.06,192.78,464.93,Single-ply,SBD,M,
Boys,74.84,9,Riley Tabat,Belton,71.99,183.7,111.13,163.29,458.13,Single-ply,SBD,M,
Boys,74.84,10,Noah Campbell,Belton,73.03,149.69,88.45,163.29,401.43,Single-ply,SBD,M,
Boys,74.84,11,Cody Fishbourne,Temple,69.04,140.61,90.72,149.69,381.02,Single-ply,SBD,M,
Boys,74.84,12,Kaleb Hill,Temple,68.04,133.81,95.25,147.42,376.48,Single-ply,SBD,M,
Boys,74.84,13,Caleb Shaw,Killeen Shoemaker,68.36,74.84,34.02,90.72,199.58,Single-ply,SBD,M,
Boys,82.1,1,Josiah Kilgo,Belton,79.29,192.78,142.88,249.48,585.13,Single-ply,SBD,M,
Boys,82.1,2,Tim Apodaca,Belton,80.42,229.06,136.08,217.72,582.87,Single-ply,SBD,M,
Boys,82.1,3,Brandon Ortega,Copperas Cove,82.1,199.58,142.88,192.78,535.24,Single-ply,SBD,M,
Boys,82.1,4,Kendal Parker,Copperas Cove,82.1,174.63,115.67,201.85,492.15,Single-ply,SBD,M,
Boys,82.1,5,Aj Mcduffy,Temple,78.02,167.83,108.86,190.51,467.2,Single-ply,SBD,M,
Boys,82.1,6,Samari Howard,Temple,75.61,165.56,111.13,181.44,458.13,Single-ply,SBD,M,
Boys,82.1,7,Rodney Rodgers,Waco Midway,79.61,151.95,113.4,176.9,442.25,Single-ply,SBD,M,
Boys,89.81,1,Santos Lacewell,Killeen Ellison,84.96,217.72,117.93,231.33,566.99,Single-ply,SBD,M,
Boys,89.81,2,Jonah Myers,Belton,88.86,219.99,129.27,208.65,557.92,Single-ply,SBD,M,
Boys,89.81,3,Tyler Lambert,Little River Academy,84.5,181.44,99.79,222.26,503.49,Single-ply,SBD,M,
Boys,89.81,4,Samuel Taggart,Rosebud-Lott,84.23,176.9,111.13,176.9,464.93,Single-ply,SBD,M,
Boys,89.81,5,Marvin Aviles,Copperas Cove,89.36,161.03,108.86,174.63,444.52,Single-ply,SBD,M,
Boys,89.81,6,Matthew Moore,Killeen Ellison,86.14,151.95,95.25,183.7,430.91,Single-ply,SBD,M,
Boys,89.81,7,Marshall Grays,Temple,83.14,142.88,97.52,151.95,392.36,Single-ply,SBD,M,
Boys,89.81,8,Ladainian Gonzalez,Killeen Shoemaker,88.59,138.35,88.45,149.69,376.48,Single-ply,SBD,M,
Boys,89.81,9,Isaiah Thomas,Temple,87.45,127.01,83.91,149.69,360.61,Single-ply,SBD,M,
Boys,89.81,10,Chris Parker #4,Killeen Shoemaker,88.22,129.27,83.91,147.42,360.61,Single-ply,SBD,M,
Boys,89.81,DQ,JJ Smith,Killeen Ellison,87.14,176.9,,,,Single-ply,SBD,M,
Boys,99.79,1,McKenneth Davis,Copperas Cove,99.79,183.7,142.88,210.92,537.51,Single-ply,SBD,M,
Boys,99.79,2,KyJuan Otis,Killeen Harker Heights,94.3,199.58,111.13,183.7,494.42,Single-ply,SBD,M,
Boys,99.79,3,Caleb Newberry,Copperas Cove,99.25,190.51,108.86,170.1,469.47,Single-ply,SBD,M,
Boys,99.79,4,Frankquan Salas,Temple,99.74,195.04,120.2,154.22,469.47,Single-ply,SBD,M,
Boys,99.79,5,Aimeer Washington,Killeen Harker Heights,90.63,181.44,90.72,185.97,458.13,Single-ply,SBD,M,
Boys,99.79,6,Isaih Justice,Killeen Shoemaker,90.85,174.63,92.99,174.63,442.25,Single-ply,SBD,M,
Boys,99.79,7,Tyrese Hale,Copperas Cove,99.61,158.76,113.4,142.88,415.04,Single-ply,SBD,M,
Boys,99.79,8,Zachery Snesler,Rosebud-Lott,97.11,163.29,74.84,158.76,396.89,Single-ply,SBD,M,
Boys,99.79,9,Taylor Guerrero #2,Waco Midway,92.8,133.81,79.38,149.69,362.87,Single-ply,SBD,M,
Boys,99.79,10,Teshawn Byers,Killeen Shoemaker,93.89,117.93,77.11,163.29,358.34,Single-ply,SBD,M,
Boys,99.79,DQ,James Williams #16,Killeen Ellison,91.22,235.87,,,,Single-ply,SBD,M,
Boys,109.77,1,Zach Hoyle,Copperas Cove,108.95,258.55,192.78,272.16,723.48,Single-ply,SBD,M,
Boys,109.77,2,Wyatt Gardner,Little River Academy,109.13,238.14,183.7,265.35,687.19,Single-ply,SBD,M,
Boys,109.77,3,Jacob Sinkwich,Belton,109.54,272.16,167.83,238.14,678.12,Single-ply,SBD,M,
Boys,109.77,4,Malachi Robinson,Killeen Harker Heights,101.6,226.8,113.4,249.48,589.67,Single-ply,SBD,M,
Boys,109.77,5,Jasper James,Belton,105.64,249.48,154.22,172.37,576.06,Single-ply,SBD,M,
Boys,109.77,6,Seth Kuezmarski,Waco Midway,105.96,181.44,106.59,181.44,469.47,Single-ply,SBD,M,
Boys,109.77,DQ,Amir Soliman,Killeen Ellison,107.77,233.6,151.95,,,Single-ply,SBD,M,
Boys,109.77,DQ,Wilbert Martin,Killeen Shoemaker,107.23,131.54,99.79,,,Single-ply,SBD,M,
Boys,109.77,DQ,Darius Steverson,Killeen Shoemaker,106.23,,,,,Single-ply,SBD,M,
Boys,124.74,1,Bryan Luna,Belton,122.79,308.44,199.58,235.87,743.89,Single-ply,SBD,M,
Boys,124.74,2,Daylan Littlejohn,Killeen Ellison,121.56,276.69,145.15,244.94,666.78,Single-ply,SBD,M,
Boys,124.74,3,Nathan Vilchez,Killeen Ellison,117.89,272.16,151.95,240.4,664.51,Single-ply,SBD,M,
Boys,124.74,4,Jeremy Carter,Copperas Cove,123.83,217.72,138.35,213.19,569.26,Single-ply,SBD,M,
Boys,124.74,5,Challen Maileai,Belton,121.11,233.6,122.47,181.44,537.51,Single-ply,SBD,M,
Boys,124.74,6,Nasir Castillo,Killeen Harker Heights,116.26,181.44,104.33,215.46,501.22,Single-ply,SBD,M,
Boys,124.74,7,Ashton Salas,Waco Midway,119.25,185.97,124.74,172.37,483.08,Single-ply,SBD,M,
Boys,124.74,8,Blake Keith,Waco Midway,115.39,195.04,108.86,174.63,478.54,Single-ply,SBD,M,
Boys,124.74,9,Jayden De La Cruz,Temple,111.81,149.69,120.2,170.1,439.98,Single-ply,SBD,M,
Boys,124.74,10,Erik Estrada,Waco Midway,111.9,163.29,113.4,163.29,439.98,Single-ply,SBD,M,
Boys,124.74+,1,Aaron Shanahan,Copperas Cove,158.76,317.51,192.78,288.03,798.32,Single-ply,SBD,M,
Boys,124.74+,2,Keanu Ramirez,Killeen Ellison,152.41,247.21,181.44,242.67,671.32,Single-ply,SBD,M,
Boys,124.74+,3,EVeritt Rogers,Killeen Ellison,142.34,226.8,190.51,226.8,644.1,Single-ply,SBD,M,
Boys,124.74+,4,Dan Llanez,Copperas Cove,142.97,240.4,133.81,254.01,628.23,Single-ply,SBD,M,
Boys,124.74+,5,Tommie Holman,Copperas Cove,138.8,238.14,151.95,219.99,610.08,Single-ply,SBD,M,
Boys,124.74+,6,David Achu,Little River Academy,139.71,217.72,174.63,204.12,596.47,Single-ply,SBD,M,
Boys,124.74+,7,Ryan Connor,Copperas Cove,138.35,204.12,147.42,197.31,548.85,Single-ply,SBD,M,
Boys,124.74+,8,Miguel Convento,Waco Midway,157.49,226.8,127.01,195.04,548.85,Single-ply,SBD,M,
Boys,124.74+,9,Easton Fulton,Rosebud-Lott,131.31,197.31,111.13,188.24,496.68,Single-ply,SBD,M,
Boys,124.74+,10,Jacob Nuy,Rosebud-Lott,145.65,185.97,104.33,199.58,489.88,Single-ply,SBD,M,
Boys,124.74+,11,Peyton Reed,Copperas Cove,127.01,183.7,108.86,183.7,476.27,Single-ply,SBD,M,
Boys,124.74+,12,Edward Sampson,Waco Midway,161.48,154.22,102.06,158.76,415.04,Single-ply,SBD,M,
Boys,124.74+,DQ,McKenzie Agnello,Copperas Cove,133.81,,,,,Single-ply,SBD,M,
