Division,WeightClassKg,Place,Name,Team,BodyweightKg,Best3SquatKg,Best3BenchKg,Best3DeadliftKg,TotalKg,Equipment,Event,Sex
Boys,51.71,1,Angel Bermudez,Poteet,50.35,170.1,99.79,158.76,428.64,Single-ply,SBD,M
Boys,51.71,2,Isaiah Lucio,Pearsall,51.62,142.88,99.79,158.76,401.43,Single-ply,SBD,M
Boys,51.71,3,Joey Heard,Orange Grove,50.71,129.27,77.11,149.69,356.07,Single-ply,SBD,M
Boys,51.71,4,Eloy Garza,Corpus Christi West Oso,51.17,142.88,65.77,147.42,356.07,Single-ply,SBD,M
Boys,51.71,5,Brian Villarreal,Geronimo Navarro,48.99,129.27,79.38,145.15,353.8,Single-ply,SBD,M
Boys,51.71,6,Ivan Rosales,Columbus,49.53,131.54,72.57,149.69,353.8,Single-ply,SBD,M
Boys,51.71,7,David Garcia,Jourdanton,50.89,108.86,68.04,117.93,294.84,Single-ply,SBD,M
Boys,51.71,DQ,Caleb Vera,Poteet,47.17,115.67,63.5,,,Single-ply,SBD,M
Boys,55.79,1,Dimas Tenorio,Crystal City,54.52,192.78,117.93,183.7,494.42,Single-ply,SBD,M
Boys,55.79,2,Julian Ortega,Rio Hondo,55.07,167.83,108.86,188.24,464.93,Single-ply,SBD,M
Boys,55.79,3,Jesus Trevino,Zapata,54.79,161.03,95.25,190.51,446.79,Single-ply,SBD,M
Boys,55.79,4,Jaime Rodriguez,Jourdanton,54.88,188.24,81.65,163.29,433.18,Single-ply,SBD,M
Boys,55.79,5,Raul Guerra,Poteet,54.98,154.22,106.59,170.1,430.91,Single-ply,SBD,M
Boys,55.79,6,Mike Barajas,Hidalgo Early College,55.79,154.22,99.79,176.9,430.91,Single-ply,SBD,M
Boys,55.79,7,Carlos Jaimez,Hidalgo Early College,55.61,136.08,92.99,172.37,401.43,Single-ply,SBD,M
Boys,55.79,8,Luke Torres,Devine,55.16,140.61,88.45,154.22,383.29,Single-ply,SBD,M
Boys,55.79,9,Cody Faust,Yoakum,54.16,136.08,90.72,138.35,365.14,Single-ply,SBD,M
Boys,55.79,10,Rudy Rios,Devine,55.79,129.27,77.11,154.22,360.61,Single-ply,SBD,M
Boys,59.87,1,Artemio Garcia,Zapata,59.24,215.46,133.81,208.65,557.92,Single-ply,SBD,M
Boys,59.87,2,Cody Hartman,Corpus Christi West Oso,58.88,192.78,111.13,188.24,492.15,Single-ply,SBD,M
Boys,59.87,3,Maclovio Gomez,Zapata,59.06,190.51,95.25,195.04,480.81,Single-ply,SBD,M
Boys,67.13,4,Neco Camarillo,Jourdanton,60.06,206.38,104.33,165.56,476.27,Single-ply,SBD,M
Boys,59.87,5,Marty Capetillo,Raymondville,58.69,176.9,99.79,188.24,464.93,Single-ply,SBD,M
Boys,59.87,6,Elliot Chavez,Raymondville,59.87,174.63,92.99,176.9,444.52,Single-ply,SBD,M
Boys,59.87,7,Branden Barajas,Hidalgo Early College,59.51,136.08,83.91,165.56,385.55,Single-ply,SBD,M
Boys,59.87,DQ,Daniel Tortu,Corpus Christi West Oso,59.33,176.9,95.25,,,Single-ply,SBD,M
Boys,59.87,DQ,Rodney Garcia,Carrizo Springs,58.15,,,,,Single-ply,SBD,M
Boys,67.13,1,Samuel Navarro,Beeville Jones,66.41,233.6,136.08,219.99,589.67,Single-ply,SBD,M
Boys,67.13,2,Alan Alfaro,Rio Hondo,65.68,204.12,129.27,242.67,576.06,Single-ply,SBD,M
Boys,67.13,3,Heliseo Guerrero,Rio Hondo,64.41,201.85,127.01,226.8,555.65,Single-ply,SBD,M
Boys,67.13,4,Joe Guerrero,Devine,66.41,199.58,113.4,183.7,496.68,Single-ply,SBD,M
Boys,67.13,5,Luis Perales,Carrizo Springs,65.95,183.7,106.59,197.31,487.61,Single-ply,SBD,M
Boys,67.13,6,Colton Rodriguez,Jourdanton,63.78,195.04,111.13,174.63,480.81,Single-ply,SBD,M
Boys,67.13,7,Gil Garcia,Crystal City,66.13,158.76,90.72,204.12,453.59,Single-ply,SBD,M
Boys,67.13,8,Alex Ortiz #3,Gonzales,64.86,174.63,108.86,165.56,449.06,Single-ply,SBD,M
Boys,67.13,DQ,Alonzo Moya,Corpus Christi West Oso,63.87,,,,,Single-ply,SBD,M
Boys,67.13,DQ,Julian Flores,Rio Hondo,65.77,,,,,Single-ply,SBD,M
Boys,67.13,DQ,Daniel Coronado,La Feria,65.14,,,,,Single-ply,SBD,M
Boys,67.13,DQ,Rene Rodriguez,Pearsall,67.04,179.17,,,,Single-ply,SBD,M
Boys,74.84,1,Nate Garcia,Jourdanton,72.85,258.55,113.4,242.67,614.62,Single-ply,SBD,M
Boys,74.84,2,Joseph Ortiz,Jourdanton,71.03,226.8,127.01,215.46,569.26,Single-ply,SBD,M
Boys,74.84,3,Abraham Ramirez #2,Cuero,73.57,210.92,136.08,204.12,551.11,Single-ply,SBD,M
Boys,74.84,4,Ricardo Vela,Hidalgo Early College,74.57,213.19,108.86,226.8,548.85,Single-ply,SBD,M
Boys,74.84,5,Nathan Medrano,Lytle,74.12,226.8,136.08,183.7,546.58,Single-ply,SBD,M
Boys,74.84,6,Matt Fanno,Jourdanton,69.58,204.12,106.59,210.92,521.63,Single-ply,SBD,M
Boys,74.84,7,Tristan Taylor,Rockport-Fulton,74.48,215.46,108.86,195.04,519.36,Single-ply,SBD,M
Boys,74.84,8,Jeremy Herrera,San Antonio Holy Cross,72.85,176.9,127.01,183.7,487.61,Single-ply,SBD,M
Boys,74.84,DQ,Calvin Starnes,Bandera,68.95,192.78,111.13,,,Single-ply,SBD,M
Boys,74.84,DQ,Roel Benitez,Rio Hondo,72.67,,,,,Single-ply,SBD,M
Boys,82.1,1,Milton Sarceno,Kingsville King,79.74,233.6,156.49,249.48,639.57,Single-ply,SBD,M
Boys,82.1,2,Abram Ramirez,Rio Hondo,81.19,238.14,151.95,244.94,635.03,Single-ply,SBD,M
Boys,82.1,3,Daniel Flores,Rio Hondo,78.93,244.94,131.54,215.46,591.94,Single-ply,SBD,M
Boys,82.1,4,Desse Zarate,Rio Grande City Grulla,80.29,217.72,131.54,231.33,580.6,Single-ply,SBD,M
Boys,82.1,5,Zach Vyvlecka,Jourdanton,75.39,204.12,113.4,204.12,521.63,Single-ply,SBD,M
Boys,82.1,DQ,Tristan Burwell,Devine,81.83,,,,,Single-ply,SBD,M
Boys,82.1,DQ,Joey Guzman,Rio Hondo,80.38,,,,,Single-ply,SBD,M
Boys,89.81,1,Isaiah Heredia,Rio Hondo,87.09,260.82,161.03,254.01,675.85,Single-ply,SBD,M
Boys,89.81,2,Stephen Dorado,Rio Hondo,88.45,238.14,181.44,226.8,646.37,Single-ply,SBD,M
Boys,89.81,3,Jonathan Darby,Lytle,85.55,249.48,127.01,258.55,635.03,Single-ply,SBD,M
Boys,89.81,4,Ed Ruiz,Jourdanton,88.72,265.35,136.08,233.6,635.03,Single-ply,SBD,M
Boys,89.81,5,Daniel Mann,Devine,89.45,240.4,151.95,222.26,614.62,Single-ply,SBD,M
Boys,89.81,6,Jon Andrew Villarreal,Corpus Christi West Oso,89.72,231.33,138.35,233.6,603.28,Single-ply,SBD,M
Boys,89.81,7,John Ray Martinez,Port Isabel,83.64,226.8,149.69,213.19,589.67,Single-ply,SBD,M
Boys,89.81,8,JD Zapata,Rockport-Fulton,88.81,233.6,124.74,231.33,589.67,Single-ply,SBD,M
Boys,89.81,9,AJ Camacho,Hondo,85.18,249.48,131.54,204.12,585.13,Single-ply,SBD,M
Boys,89.81,10,Jared Leal,Geronimo Navarro,86.27,213.19,129.27,238.14,580.6,Single-ply,SBD,M
Boys,99.79,1,Aaron Rodriguez,Beeville Jones,96.98,297.1,183.7,231.33,712.14,Single-ply,SBD,M
Boys,99.79,2,Zach Kwiatkowski,Corpus Christi West Oso,98.97,267.62,151.95,265.35,684.92,Single-ply,SBD,M
Boys,99.79,3,Josue Reynosa,Columbus,95.71,281.23,158.76,240.4,680.39,Single-ply,SBD,M
Boys,99.79,4,Jason Patterson,Kingsville King,95.8,265.35,136.08,267.62,669.05,Single-ply,SBD,M
Boys,99.79,5,Aaron Puga,Beeville Jones,94.44,272.16,142.88,242.67,657.71,Single-ply,SBD,M
Boys,99.79,6,Marco Gutierrez,La Feria,96.71,256.28,156.49,244.94,657.71,Single-ply,SBD,M
Boys,99.79,7,Nick Delgado,Pleasanton,90.72,256.28,158.76,215.46,630.49,Single-ply,SBD,M
Boys,99.79,8,Aaron Jupe,Jourdanton,93.35,265.35,142.88,213.19,621.42,Single-ply,SBD,M
Boys,99.79,9,Jp Rodriguez,Pleasanton,99.34,226.8,142.88,249.48,619.15,Single-ply,SBD,M
Boys,99.79,10,Tyler Crisp,Poteet,97.79,238.14,124.74,229.06,591.94,Single-ply,SBD,M
Boys,109.77,1,Jeremy Rodriguez #2,Geronimo Navarro,107.32,288.03,183.7,226.8,698.53,Single-ply,SBD,M
Boys,109.77,2,Jose Soliz,Orange Grove,102.69,283.5,183.7,219.99,687.19,Single-ply,SBD,M
Boys,109.77,3,Matthew German,Rockport-Fulton,101.42,263.08,145.15,258.55,666.78,Single-ply,SBD,M
Boys,109.77,4,Lane Springs,Geronimo Navarro,106.78,267.62,161.03,235.87,664.51,Single-ply,SBD,M
Boys,109.77,5,Jp Ortiz,Devine,108.05,256.28,149.69,249.48,655.44,Single-ply,SBD,M
Boys,109.77,6,Isreal Torres,La Feria,104.78,240.4,156.49,235.87,632.76,Single-ply,SBD,M
Boys,109.77,7,Kyle Wilson,Bandera,108.59,249.48,147.42,229.06,625.96,Single-ply,SBD,M
Boys,109.77,8,Oscar Cantu,Sinton,101.06,249.48,142.88,231.33,623.69,Single-ply,SBD,M
Boys,109.77,9,Billy Singleton,Orange Grove,106.23,249.48,140.61,231.33,621.42,Single-ply,SBD,M
Boys,124.74,1,Bobby Gonzales,Raymondville,120.56,371.95,226.8,294.84,893.58,Single-ply,SBD,M
Boys,124.74,2,Gonzalo Alegria,La Feria,121.47,331.12,154.22,263.08,748.43,Single-ply,SBD,M
Boys,124.74,3,Robert Anthony Cervantes,Raymondville,117.84,310.71,181.44,242.67,734.82,Single-ply,SBD,M
Boys,124.74,4,William Olson,Jourdanton,120.66,317.51,174.63,242.67,734.82,Single-ply,SBD,M
Boys,124.74,5,Justin Brister,Jourdanton,121.47,317.51,183.7,226.8,728.02,Single-ply,SBD,M
Boys,124.74,6,Nazario Garza,Rio Grande City Grulla,119.29,276.69,176.9,263.08,716.68,Single-ply,SBD,M
Boys,124.74,7,Jonathan Ricks,Pleasanton,116.94,285.76,183.7,233.6,703.07,Single-ply,SBD,M
Boys,124.74,8,Joshua Macat,Lytle,116.94,283.5,147.42,240.4,671.32,Single-ply,SBD,M
Boys,124.74,9,Austin Soto,Devine,117.3,256.28,188.24,217.72,662.24,Single-ply,SBD,M
Boys,124.74,10,Eric Chapa,Zapata,111.31,231.33,136.08,208.65,576.06,Single-ply,SBD,M
Boys,124.74+,1,Joseph Peña #1,San Antonio Holy Cross,145.15,356.07,192.78,249.48,798.32,Single-ply,SBD,M
Boys,124.74+,2,John Reyes,Rio Hondo,144.88,310.71,188.24,249.48,748.43,Single-ply,SBD,M
Boys,124.74+,3,Mikey Esparza,Rockport-Fulton,130.27,301.64,188.24,249.48,739.36,Single-ply,SBD,M
Boys,124.74+,4,Eduardo Sanchez,Zapata,145.78,292.57,190.51,254.01,737.09,Single-ply,SBD,M
Boys,124.74+,5,Mario DeLeon,La Feria,146.42,292.57,176.9,229.06,698.53,Single-ply,SBD,M
Boys,124.74+,6,Nathan Lopez,Raymondville,129.46,272.16,165.56,240.4,678.12,Single-ply,SBD,M
Boys,124.74+,7,Angel Salinas,Orange Grove,159.12,263.08,172.37,235.87,671.32,Single-ply,SBD,M
Boys,124.74+,8,Mario Chavez,Carrizo Springs,188.24,229.06,174.63,233.6,637.3,Single-ply,SBD,M
Boys,124.74+,9,Joe Rogriquez,Kingsville King,128.28,256.28,142.88,235.87,635.03,Single-ply,SBD,M
Boys,124.74+,DQ,Armando Ruvio,Rio Hondo,144.24,,,,,Single-ply,SBD,M
