Division,WeightClassKg,Place,Name,Team,BodyweightKg,Best3SquatKg,Best3BenchKg,Best3DeadliftKg,TotalKg,Equipment,Event,Sex
Girls,44.23,1,Xochitil Gamez,Edinburg Vela,44.18,133.81,63.5,120.2,317.51,Single-ply,SBD,F
Girls,44.23,2,Niomi Gamez,Los Fresnos,43.91,136.08,54.43,122.47,312.98,Single-ply,SBD,F
Girls,44.23,3,Alexis Herrera,Alice,41.82,122.47,63.5,113.4,299.37,Single-ply,SBD,F
Girls,44.23,4,Adreana Garza,Los Fresnos,42.46,106.59,61.23,127.01,294.84,Single-ply,SBD,F
Girls,44.23,5,Elizabeth Lazo,PSJA Southwest,44.09,115.67,54.43,117.93,288.03,Single-ply,SBD,F
Girls,44.23,6,Alexia Zapata,PSJA Southwest,44.18,113.4,54.43,117.93,285.76,Single-ply,SBD,F
Girls,44.23,7,Erika Diaz,La Joya Palmview,42.73,113.4,58.97,111.13,283.5,Single-ply,SBD,F
Girls,44.23,8,Yadira Maldonado,Los Fresnos,44.18,106.59,54.43,122.47,283.5,Single-ply,SBD,F
Girls,44.23,9,Michelle Hernandez,Edcouch-Elsa,43.09,108.86,40.82,124.74,274.42,Single-ply,SBD,F
Girls,44.23,10,Thay Blute,Port Lavaca Calhoun,43.5,108.86,47.63,111.13,267.62,Single-ply,SBD,F
Girls,44.23,11,Elida Manriquez,Brownsville Lopez,43.59,104.33,49.9,111.13,265.35,Single-ply,SBD,F
Girls,44.23,12,Lilly Serrano,Edcouch-Elsa,43.54,99.79,45.36,115.67,260.82,Single-ply,SBD,F
Girls,44.23,13,Syann Hernandez,Weslaco East,40.91,113.4,38.56,106.59,258.55,Single-ply,SBD,F
Girls,44.23,14,Alexis Iglesias #1,Port Lavaca Calhoun,42.96,102.06,52.16,104.33,258.55,Single-ply,SBD,F
Girls,44.23,15,Paulina Melendez,Los Fresnos,44,102.06,45.36,111.13,258.55,Single-ply,SBD,F
Girls,44.23,16,Kaila Gonzalez,McAllen,42.73,106.59,58.97,90.72,256.28,Single-ply,SBD,F
Girls,44.23,17,Ana Herrera,Edinburg,42.82,102.06,49.9,102.06,254.01,Single-ply,SBD,F
Girls,44.23,18,Monica Resendez,Donna North,43.27,95.25,49.9,108.86,254.01,Single-ply,SBD,F
Girls,44.23,19,Alysse Hernandez,La Joya Palmview,42.91,92.99,49.9,108.86,251.74,Single-ply,SBD,F
Girls,44.23,20,Chloe Canales,San Antonio East Central,43,99.79,52.16,97.52,249.48,Single-ply,SBD,F
Girls,44.23,21,Roxanne Cantu,Donna,43.45,111.13,36.29,102.06,249.48,Single-ply,SBD,F
Girls,44.23,22,Devany Morales,PSJA Memorial,43.68,95.25,40.82,113.4,249.48,Single-ply,SBD,F
Girls,44.23,23,Say Paw,Port Lavaca Calhoun,43.91,106.59,49.9,92.99,249.48,Single-ply,SBD,F
Girls,44.23,24,Dulce De La Cruz,Floresville,44.18,99.79,47.63,102.06,249.48,Single-ply,SBD,F
Girls,44.23,25,Jessica Gallegos,Laredo Johnson,44.18,95.25,49.9,104.33,249.48,Single-ply,SBD,F
Girls,44.23,26,Maria Gutierrez,Edinburg,43.54,99.79,58.97,83.91,242.67,Single-ply,SBD,F
Girls,44.23,27,Kayla Rangel,Los Fresnos,43.36,102.06,,,102.06,Single-ply,S,F
Girls,44.23,DQ,Cailin Lopez,Gregory-Portland,44,,,,,Single-ply,SBD,F
Girls,44.23,DQ,Yaritza Ortiz,La Joya Palmview,44,,,,,Single-ply,SBD,F
Girls,44.23,DQ,Frida Rodriguez,Brownsville Pace,43,99.79,54.43,,,Single-ply,SBD,F
Girls,47.85,1,Brittney Salcido,PSJA Memorial,46.86,140.61,79.38,131.54,351.53,Single-ply,SBD,F
Girls,47.85,2,Lexi Davila,Brownsville Lopez,47.81,124.74,70.31,131.54,326.59,Single-ply,SBD,F
Girls,47.85,3,Lorna Camarillo,Los Fresnos,47.36,127.01,61.23,131.54,319.78,Single-ply,SBD,F
Girls,47.85,4,Salma Anaya-Martinez,Port Lavaca Calhoun,47.45,127.01,63.5,129.27,319.78,Single-ply,SBD,F
Girls,47.85,5,Daniela Echavarria,McAllen,47.81,117.93,63.5,136.08,317.51,Single-ply,SBD,F
Girls,47.85,6,Sabrina Espinoza,McAllen,46.63,122.47,63.5,127.01,312.98,Single-ply,SBD,F
Girls,47.85,7,Genesis Nava,Edcouch-Elsa,46.72,124.74,61.23,124.74,310.71,Single-ply,SBD,F
Girls,47.85,8,Mia Macias,Alice,46.31,136.08,49.9,120.2,306.17,Single-ply,SBD,F
Girls,47.85,9,Carolina Sanchez,Brownsville Lopez,46.63,115.67,56.7,133.81,306.17,Single-ply,SBD,F
Girls,47.85,10,Kayla Alvardo,Los Fresnos,46.72,115.67,54.43,122.47,292.57,Single-ply,SBD,F
Girls,47.85,11,Mia Munoz,McAllen Memorial,47.81,111.13,68.04,111.13,290.3,Single-ply,SBD,F
Girls,47.85,12,Talija Borg,Los Fresnos,46.81,115.67,47.63,124.74,288.03,Single-ply,SBD,F
Girls,47.85,13,Anyssa Navarro,Weslaco East,46.9,120.2,54.43,108.86,283.5,Single-ply,SBD,F
Girls,47.85,14,Crystal Borrego,PSJA Memorial,47.22,117.93,40.82,124.74,283.5,Single-ply,SBD,F
Girls,47.85,15,Alexa Cavazos,Pharr Valley View,47.49,108.86,63.5,104.33,276.69,Single-ply,SBD,F
Girls,47.85,16,Yaleina Ramirez,McAllen Rowe,47.85,115.67,52.16,108.86,276.69,Single-ply,SBD,F
Girls,47.85,17,Debahni Garza,Edinburg,47.31,102.06,61.23,108.86,272.16,Single-ply,SBD,F
Girls,47.85,18,Marisela Rodriguez,San Antonio Southside,47.58,99.79,43.09,127.01,269.89,Single-ply,SBD,F
Girls,47.85,19,Salma Caballero,Brownsville Hanna,47.26,113.4,56.7,92.99,263.08,Single-ply,SBD,F
Girls,47.85,20,Michelle Salaya,Weslaco,47.54,102.06,54.43,90.72,247.21,Single-ply,SBD,F
Girls,47.85,DQ,Kayla Villarreal,Sharyland Pioneer,46.81,,58.97,,,Single-ply,SBD,F
Girls,47.85,DQ,Claudia Coronado,Brownsville Hanna,47.08,102.06,58.97,,,Single-ply,SBD,F
Girls,51.94,1,Present May,Port Lavaca Calhoun,50.17,165.56,74.84,149.69,390.09,Single-ply,SBD,F
Girls,51.94,2,Ashley Tijerina,Mission Sharyland,50.98,161.03,70.31,151.95,383.29,Single-ply,SBD,F
Girls,51.94,3,Ale Escandon,Brownsville Hanna,51.35,145.15,79.38,140.61,365.14,Single-ply,SBD,F
Girls,51.94,4,Alexa Vega,Brownsville Lopez,50.62,142.88,83.91,133.81,360.61,Single-ply,SBD,F
Girls,51.94,5,Daisy Hernandez,Weslaco,50.85,133.81,81.65,140.61,356.07,Single-ply,SBD,F
Girls,51.94,6,Mia Reyes,Corpus Christi Tuloso-Midway,51.03,151.95,68.04,133.81,353.8,Single-ply,SBD,F
Girls,51.94,7,Vero Martinez,Los Fresnos,50.17,142.88,68.04,138.35,349.27,Single-ply,SBD,F
Girls,51.94,8,Jade Ross,Seguin,50.94,117.93,72.57,156.49,347,Single-ply,SBD,F
Girls,51.94,9,Maryssa Lucio,Brownsville Hanna,50.8,129.27,79.38,133.81,342.46,Single-ply,SBD,F
Girls,51.94,10,Kimberly Rodriguez,Edinburg Economedes,50.48,127.01,74.84,136.08,337.93,Single-ply,SBD,F
Girls,51.94,11,Mel Ry,Port Lavaca Calhoun,51.53,127.01,77.11,129.27,333.39,Single-ply,SBD,F
Girls,51.94,12,Alexis Garcia #1,Los Fresnos,51.17,124.74,65.77,133.81,324.32,Single-ply,SBD,F
Girls,51.94,13,Lacey Littles,Victoria West,51.71,120.2,61.23,136.08,317.51,Single-ply,SBD,F
Girls,51.94,14,Juliana Vasquez,Corpus Christi Tuloso-Midway,50.89,122.47,65.77,124.74,312.98,Single-ply,SBD,F
Girls,51.94,15,Nayelee Trevino,Donna North,51.71,113.4,61.23,138.35,312.98,Single-ply,SBD,F
Girls,51.94,16,Raelin Luna,Port Lavaca Calhoun,50.85,122.47,68.04,120.2,310.71,Single-ply,SBD,F
Girls,51.94,17,Rose Bustos,Gregory-Portland,51.57,131.54,49.9,129.27,310.71,Single-ply,SBD,F
Girls,51.94,18,Deena Flores,Edcouch-Elsa,51.26,136.08,56.7,115.67,308.44,Single-ply,SBD,F
Girls,51.94,19,Alaze Ocanas,Weslaco East,49.58,122.47,61.23,122.47,306.17,Single-ply,SBD,F
Girls,51.94,20,Gia Ross,Seguin,51.66,115.67,70.31,120.2,306.17,Single-ply,SBD,F
Girls,51.94,21,Isabel Sanchez,Mercedes,51.71,133.81,52.16,120.2,306.17,Single-ply,SBD,F
Girls,51.94,22,Devin Balderama,Los Fresnos,51.07,115.67,63.5,113.4,292.57,Single-ply,SBD,F
Girls,51.94,23,Karla Martinez,Donna North,50.71,120.2,52.16,117.93,290.3,Single-ply,SBD,F
Girls,51.94,24,Kara Smith,Port Lavaca Calhoun,50.39,117.93,49.9,117.93,285.76,Single-ply,SBD,F
Girls,51.94,25,Lliana Vasquez,Sharyland Pioneer,50.85,115.67,56.7,113.4,285.76,Single-ply,SBD,F
Girls,51.94,26,Luna Garcia,Pharr Valley View,51.85,115.67,63.5,104.33,283.5,Single-ply,SBD,F
Girls,51.94,27,Destiny Garza,PSJA Southwest,51.53,108.86,63.5,108.86,281.23,Single-ply,SBD,F
Girls,51.94,28,Angela Sandoval,Donna,51.35,115.67,43.09,117.93,276.69,Single-ply,SBD,F
Girls,51.94,DQ,Jacqueline Sanchez,Donna,51.53,,,,,Single-ply,SBD,F
Girls,51.94,DQ,Clarissa Sanchez,PSJA Southwest,51.71,,,,,Single-ply,SBD,F
Girls,51.94,DQ,Evelyn Hernandez,Weslaco East,51.71,,,,,Single-ply,SBD,F
Girls,51.94,DQ,Daisy Cardenas,Weslaco East,51.71,,,,,Single-ply,SBD,F
Girls,51.94,DQ,Lyndsay Horta,Weslaco East,51.71,,,,,Single-ply,SBD,F
Girls,51.94,DQ,Anyssa De La Garza,Brownsville Pace,51.26,,,,,Single-ply,SBD,F
Girls,56.02,1,Skyleigh Sears,Port Lavaca Calhoun,54.88,181.44,83.91,181.44,446.79,Single-ply,SBD,F
Girls,56.02,2,Norma Vega,Brownsville Lopez,54.39,181.44,92.99,161.03,435.45,Single-ply,SBD,F
Girls,56.02,3,Donna Mondragon,La Joya Palmview,55.88,158.76,81.65,154.22,394.63,Single-ply,SBD,F
Girls,56.02,4,Jenacy Avitia,Donna North,55.52,136.08,90.72,145.15,371.95,Single-ply,SBD,F
Girls,56.02,5,Ashlee Hernandez,Seguin,55.07,147.42,83.91,133.81,365.14,Single-ply,SBD,F
Girls,56.02,6,Haley Svadlenak,Gregory-Portland,55.29,149.69,72.57,140.61,362.87,Single-ply,SBD,F
Girls,56.02,7,Jimena Diaz,Edinburg,54.57,145.15,74.84,136.08,356.07,Single-ply,SBD,F
Girls,56.02,8,Brenda Garcia,Los Fresnos,55.25,142.88,74.84,131.54,349.27,Single-ply,SBD,F
Girls,56.02,9,Nora Cortez,PSJA Southwest,55.97,142.88,77.11,127.01,347,Single-ply,SBD,F
Girls,56.02,10,Katarina Moseley,McAllen,54.48,129.27,74.84,136.08,340.19,Single-ply,SBD,F
Girls,56.02,11,Alexandria Garcia,Los Fresnos,54.7,140.61,54.43,142.88,337.93,Single-ply,SBD,F
Girls,56.02,12,Rhyauna Lee,McAllen Memorial,55.25,131.54,70.31,131.54,333.39,Single-ply,SBD,F
Girls,56.02,13,Janessa Campos,PSJA North,55.97,145.15,74.84,113.4,333.39,Single-ply,SBD,F
Girls,56.02,14,Vanessa Puig,Los Fresnos,54.88,133.81,65.77,129.27,328.85,Single-ply,SBD,F
Girls,56.02,15,Athena Moore,Los Fresnos,55.34,127.01,72.57,129.27,328.85,Single-ply,SBD,F
Girls,56.02,16,Faith Escamilla,McAllen Memorial,55.7,133.81,54.43,140.61,328.85,Single-ply,SBD,F
Girls,56.02,17,Adamari Martinez,PSJA,54.43,133.81,49.9,140.61,324.32,Single-ply,SBD,F
Girls,56.02,18,Josefina Bueno,McAllen Memorial,53.34,122.47,61.23,136.08,319.78,Single-ply,SBD,F
Girls,56.02,19,Eh Nay Gay Hso,Port Lavaca Calhoun,53.48,142.88,56.7,117.93,317.51,Single-ply,SBD,F
Girls,56.02,20,Heidi Perez,PSJA Memorial,55.79,122.47,56.7,138.35,317.51,Single-ply,SBD,F
Girls,56.02,21,Jackie Del Molino,Brownsville Veterans Memorial,55.79,124.74,63.5,127.01,315.25,Single-ply,SBD,F
Girls,56.02,22,Kimberly Galarza,Edcouch-Elsa,54.79,113.4,54.43,145.15,312.98,Single-ply,SBD,F
Girls,56.02,23,Geraldine Tafolla,Port Lavaca Calhoun,55.16,129.27,61.23,120.2,310.71,Single-ply,SBD,F
Girls,56.02,24,Kat Ruiz,Los Fresnos,53.61,120.2,61.23,127.01,308.44,Single-ply,SBD,F
Girls,56.02,25,Jayden Barrientes,PSJA Memorial,55.11,122.47,70.31,115.67,308.44,Single-ply,SBD,F
Girls,56.02,26,Law Ra Moo,Port Lavaca Calhoun,55.75,129.27,65.77,113.4,308.44,Single-ply,SBD,F
Girls,56.02,DQ,Rebekka Flores,PSJA Memorial,55.79,,,,,Single-ply,SBD,F
Girls,56.02,DQ,Maria Gonzalez,PSJA Memorial,55.79,,,,,Single-ply,SBD,F
Girls,56.02,DQ,Gianna Rivas,Weslaco,55.79,131.54,,,,Single-ply,SBD,F
Girls,60.1,1,Brianda Resendez,Mission Sharyland,56.25,190.51,102.06,158.76,451.32,Single-ply,SBD,F
Girls,60.1,2,Laura Gomez,PSJA Memorial,59.06,167.83,92.99,163.29,424.11,Single-ply,SBD,F
Girls,60.1,3,Julianna Perez,Corpus Christi Tuloso-Midway,58.92,185.97,83.91,147.42,417.3,Single-ply,SBD,F
Girls,60.1,4,Luisa Cruz,Los Fresnos,58.97,163.29,79.38,174.63,417.3,Single-ply,SBD,F
Girls,60.1,5,Amme Alcorchas,PSJA Memorial,58.51,156.49,86.18,147.42,390.09,Single-ply,SBD,F
Girls,60.1,6,Hanna Castillo,Los Fresnos,59.33,149.69,86.18,149.69,385.55,Single-ply,SBD,F
Girls,60.1,7,Morgan Candela,Corpus Christi Tuloso-Midway,58.88,163.29,70.31,147.42,381.02,Single-ply,SBD,F
Girls,60.1,8,America Fernandez,Somerset,58.06,149.69,104.33,117.93,371.95,Single-ply,SBD,F
Girls,60.1,9,Karen Ledezma,Brownsville Hanna,59.42,138.35,90.72,142.88,371.95,Single-ply,SBD,F
Girls,60.1,10,Cassandra Vargas,PSJA North,59.96,154.22,79.38,136.08,369.68,Single-ply,SBD,F
Girls,60.1,11,Jasmine Cervantes,Weslaco East,58.97,142.88,72.57,145.15,360.61,Single-ply,SBD,F
Girls,60.1,12,Gisselle Cabrera,Edinburg Economedes,59.65,147.42,81.65,124.74,353.8,Single-ply,SBD,F
Girls,60.1,13,Lilian Lara,Weslaco,58.92,142.88,68.04,140.61,351.53,Single-ply,SBD,F
Girls,60.1,14,Sylvia Cardenas,Brownsville Hanna,58.97,154.22,70.31,127.01,351.53,Single-ply,SBD,F
Girls,60.1,15,Genesis Luna,San Antonio Southwest,59.1,127.01,74.84,149.69,351.53,Single-ply,SBD,F
Girls,60.1,16,Luisa Rodriguez,PSJA,59.42,156.49,63.5,131.54,351.53,Single-ply,SBD,F
Girls,60.1,17,Kimberly Gonzalez,Edinburg,59.65,140.61,77.11,133.81,351.53,Single-ply,SBD,F
Girls,60.1,18,Ennette Diaz,La Joya Palmview,59.96,142.88,81.65,127.01,351.53,Single-ply,SBD,F
Girls,60.1,19,Caydence Castillo,Los Fresnos,59.78,127.01,68.04,142.88,337.93,Single-ply,SBD,F
Girls,60.1,20,Keila Gonzalez,Edinburg,59.93,129.27,79.38,124.74,333.39,Single-ply,SBD,F
Girls,60.1,21,Kimberly Ramos,Donna North,59.69,111.13,58.97,,170.1,Single-ply,SB,F
Girls,60.1,22,Valeria Guerra,Mission,58.29,129.27,,,129.27,Single-ply,S,F
Girls,60.1,DQ,Angelin Cruz,San Benito,59.87,,,,,Single-ply,SBD,F
Girls,60.1,DQ,Marisol Sauceda,Edinburg Economedes,59.87,,,,,Single-ply,SBD,F
Girls,60.1,DQ,Klarissa Gonzalez,Laredo Johnson,57.61,140.61,,,,Single-ply,SBD,F
Girls,67.36,1,Rheagan Schmidt,Seguin,65.23,163.29,102.06,188.24,453.59,Single-ply,SBD,F
Girls,67.36,2,Brianna Flores,Mission Veterans Memorial,66.32,181.44,88.45,183.7,453.59,Single-ply,SBD,F
Girls,67.36,3,Deeandra Flores,Edinburg North,65.77,170.1,90.72,163.29,424.11,Single-ply,SBD,F
Girls,67.36,4,Jennifer Cisneros,Brownsville Lopez,66.63,163.29,77.11,172.37,412.77,Single-ply,SBD,F
Girls,67.36,5,Alyssa Moreno,McAllen Memorial,65.86,170.1,92.99,147.42,410.5,Single-ply,SBD,F
Girls,67.36,6,Courtney Lamontange,Corpus Christi Tuloso-Midway,65.86,165.56,72.57,163.29,401.43,Single-ply,SBD,F
Girls,67.36,7,Angela Elvira,PSJA,66.04,161.03,74.84,161.03,396.89,Single-ply,SBD,F
Girls,67.36,8,Natalie Maldonado,PSJA Memorial,65.77,165.56,74.84,142.88,383.29,Single-ply,SBD,F
Girls,67.36,9,Princess Rios,Edinburg Economedes,61.87,154.22,86.18,140.61,381.02,Single-ply,SBD,F
Girls,67.36,10,Jacklyn Calderon,PSJA North,65.05,167.83,81.65,129.27,378.75,Single-ply,SBD,F
Girls,67.36,11,Audrey Waller,Edinburg Vela,67.22,149.69,79.38,149.69,378.75,Single-ply,SBD,F
Girls,67.36,12,Bianca Rosales,Mission,64,161.03,77.11,138.35,376.48,Single-ply,SBD,F
Girls,67.36,13,Noemi Gallardo,Brownsville Lopez,64.23,163.29,79.38,133.81,376.48,Single-ply,SBD,F
Girls,67.36,14,Alejandra Roman,Sharyland Pioneer,65.77,154.22,79.38,142.88,376.48,Single-ply,SBD,F
Girls,67.36,15,Sarah Morillion,Los Fresnos,66.5,145.15,77.11,147.42,369.68,Single-ply,SBD,F
Girls,67.36,16,Tiffanie Silguero,Los Fresnos,67.22,145.15,86.18,136.08,367.41,Single-ply,SBD,F
Girls,67.36,17,Jenifher Gallegos,San Benito,66.77,154.22,83.91,127.01,365.14,Single-ply,SBD,F
Girls,67.36,18,Stephanie Cantu,San Benito,65.14,145.15,81.65,136.08,362.87,Single-ply,SBD,F
Girls,67.36,19,Abbie Etzler,Port Lavaca Calhoun,65.68,138.35,74.84,149.69,362.87,Single-ply,SBD,F
Girls,67.36,20,Alexis Alaniz,Brownsville Hanna,66.86,140.61,104.33,117.93,362.87,Single-ply,SBD,F
Girls,67.36,DQ,Carolina Hernandez,Brownsville Hanna,64.86,129.27,,,,Single-ply,SBD,F
Girls,67.36,DQ,Anahi Escobar,Brownsville Lopez,64.23,142.88,,,,Single-ply,SBD,F
Girls,67.36,DQ,Alyssa Salinas,Edinburg,66.81,,,,,Single-ply,SBD,F
Girls,67.36,DQ,Lili Bradford,McAllen Memorial,66.41,142.88,,,,Single-ply,SBD,F
Girls,75.07,1,Isabella Contreras,McAllen,72.26,215.46,124.74,154.22,494.42,Single-ply,SBD,F
Girls,75.07,2,Victoria Trevino,PSJA Memorial,72.44,195.04,115.67,158.76,469.47,Single-ply,SBD,F
Girls,75.07,3,Keyla Puente,La Joya,73.94,208.65,74.84,176.9,460.4,Single-ply,SBD,F
Girls,75.07,4,Mackenzie Contreras,Edcouch-Elsa,73.94,190.51,102.06,156.49,449.06,Single-ply,SBD,F
Girls,75.07,5,Veronica Benavides,Laredo United,73.26,190.51,90.72,161.03,442.25,Single-ply,SBD,F
Girls,75.07,6,Mitzi de la Cruz,Edinburg,73.12,190.51,90.72,158.76,439.98,Single-ply,SBD,F
Girls,75.07,7,Josie Munoz,Weslaco East,70.13,181.44,88.45,158.76,428.64,Single-ply,SBD,F
Girls,75.07,8,Jennifer Perez,Edinburg Economedes,74.03,183.7,81.65,158.76,424.11,Single-ply,SBD,F
Girls,75.07,9,Katherine Martinez,Los Fresnos,73.21,167.83,95.25,140.61,403.7,Single-ply,SBD,F
Girls,75.07,10,Eylen Ruiz,Brownsville Pace,72.53,165.56,83.91,136.08,385.55,Single-ply,SBD,F
Girls,75.07,11,Araylie Garza,Edcouch-Elsa,74.39,158.76,86.18,138.35,383.29,Single-ply,SBD,F
Girls,75.07,12,Avery Contreras,Uvalde,73.35,158.76,70.31,151.95,381.02,Single-ply,SBD,F
Girls,75.07,13,Bianca Jijon,Castroville Medina Valley,73.75,147.42,65.77,165.56,378.75,Single-ply,SBD,F
Girls,75.07,14,Alyssa Alvarado,McAllen Memorial,72.03,154.22,74.84,147.42,376.48,Single-ply,SBD,F
Girls,75.07,15,Madison Calderon,Corpus Christi Tuloso-Midway,71.58,145.15,79.38,149.69,374.21,Single-ply,SBD,F
Girls,75.07,16,Gabriela Mercado,Mission Sharyland,73.66,158.76,77.11,138.35,374.21,Single-ply,SBD,F
Girls,75.07,17,Bianca Cardenas,Weslaco,72.71,156.49,63.5,145.15,365.14,Single-ply,SBD,F
Girls,75.07,18,Nee Hso,Port Lavaca Calhoun,71.03,156.49,74.84,131.54,362.87,Single-ply,SBD,F
Girls,75.07,19,Ericka Garcia,San Antonio East Central,73.66,163.29,65.77,127.01,356.07,Single-ply,SBD,F
Girls,75.07,20,Eloisa Garza,Somerset,74.12,136.08,86.18,120.2,342.46,Single-ply,SBD,F
Girls,75.07,DQ,Emily Rodriguez,Los Fresnos,74.39,,,,,Single-ply,SBD,F
Girls,75.07,DQ,Autum Montoya,Brownsville Hanna,74.75,154.22,68.04,,,Single-ply,SBD,F
Girls,75.07,DQ,Madysen De Vorah,Somerset,74.39,142.88,90.72,,,Single-ply,SBD,F
Girls,82.33,1,Jacqueline Guerra,Alice,78.29,204.12,108.86,199.58,512.56,Single-ply,SBD,F
Girls,82.33,2,Layla Carrisalez,Los Fresnos,80.38,192.78,120.2,170.1,483.08,Single-ply,SBD,F
Girls,82.33,3,Kassandra Luna,San Antonio Memorial,81.69,204.12,90.72,185.97,480.81,Single-ply,SBD,F
Girls,82.33,4,Layla Espinoza,Laredo United South,81.47,192.78,92.99,170.1,455.86,Single-ply,SBD,F
Girls,82.33,5,Natalie Monjaras,Weslaco,81.15,172.37,127.01,147.42,446.79,Single-ply,SBD,F
Girls,82.33,6,Katrina Mendez,Mission Sharyland,81.74,188.24,106.59,142.88,437.72,Single-ply,SBD,F
Girls,82.33,7,Virginia Watkins,Edinburg Vela,81.56,174.63,83.91,170.1,428.64,Single-ply,SBD,F
Girls,82.33,8,Jeweliana Rosas,La Joya Juarez-Lincoln,81.47,163.29,86.18,163.29,412.77,Single-ply,SBD,F
Girls,82.33,9,Carmen Lainez,Los Fresnos,80.65,172.37,104.33,127.01,403.7,Single-ply,SBD,F
Girls,82.33,10,Hillary Briceno,Brownsville Lopez,77.56,165.56,90.72,142.88,399.16,Single-ply,SBD,F
Girls,82.33,11,Carolina Constantino,Mission Sharyland,80.38,183.7,74.84,138.35,396.89,Single-ply,SBD,F
Girls,82.33,12,Lorely Galvan,Brownsville Pace,76.93,158.76,72.57,163.29,394.63,Single-ply,SBD,F
Girls,82.33,13,Brittany Garza,Donna,81.47,167.83,79.38,147.42,394.63,Single-ply,SBD,F
Girls,82.33,14,Natalie Rivera,Brownsville Pace,77.43,172.37,79.38,138.35,390.09,Single-ply,SBD,F
Girls,82.33,15,Leslie Garcia,Edinburg Economedes,80.2,158.76,88.45,142.88,390.09,Single-ply,SBD,F
Girls,82.33,16,Sophia Coronado,Edinburg,80.65,151.95,92.99,145.15,390.09,Single-ply,SBD,F
Girls,82.33,17,Zoie Hartman,Corpus Christi Calallen,79.83,147.42,77.11,161.03,385.55,Single-ply,SBD,F
Girls,82.33,18,Abigail Martinez,PSJA Memorial,80.83,163.29,74.84,140.61,378.75,Single-ply,SBD,F
Girls,82.33,19,Allyson Gutierrez,McAllen Memorial,76.2,136.08,72.57,149.69,358.34,Single-ply,SBD,F
Girls,82.33,DQ,Destiny Perez,Edinburg,80.65,165.56,,,,Single-ply,SBD,F
Girls,90.04,1,Illea Lugo,Somerset,89.95,215.46,111.13,149.69,476.27,Single-ply,SBD,F
Girls,90.04,2,Aysha Lopez,Edinburg,88.36,195.04,102.06,172.37,469.47,Single-ply,SBD,F
Girls,90.04,3,Arianna Guerra,Donna,87.54,204.12,95.25,167.83,467.2,Single-ply,SBD,F
Girls,90.04,4,Jessica Mendez,Donna North,89.27,188.24,90.72,188.24,467.2,Single-ply,SBD,F
Girls,90.04,5,Kim Junco,McAllen Memorial,88.9,195.04,90.72,176.9,462.66,Single-ply,SBD,F
Girls,90.04,6,Tiffani Gonzalez,Donna North,87.63,183.7,108.86,154.22,446.79,Single-ply,SBD,F
Girls,90.04,7,Mickey Castaneda,Los Fresnos,83.73,199.58,97.52,142.88,439.98,Single-ply,SBD,F
Girls,90.04,8,D'Andra Gaitan,Edinburg Economedes,89.04,181.44,113.4,145.15,439.98,Single-ply,SBD,F
Girls,90.04,9,Ruby Quintero,Los Fresnos,85.46,183.7,102.06,151.95,437.72,Single-ply,SBD,F
Girls,90.04,10,Kennedi Butcher,Port Lavaca Calhoun,85.64,163.29,104.33,163.29,430.91,Single-ply,SBD,F
Girls,90.04,11,Megan Ayala,San Benito,88.09,172.37,99.79,133.81,405.97,Single-ply,SBD,F
Girls,90.04,12,Arlyssa Ybarra,Donna,86.82,176.9,79.38,147.42,403.7,Single-ply,SBD,F
Girls,90.04,13,Caroline Hernandez,San Benito,87.09,145.15,99.79,151.95,396.89,Single-ply,SBD,F
Girls,90.04,14,Amabella Gonzalez,Pharr Valley View,89.72,172.37,81.65,142.88,396.89,Single-ply,SBD,F
Girls,90.04,15,Victoria Pena,Edcouch-Elsa,89.36,161.03,77.11,138.35,376.48,Single-ply,SBD,F
Girls,90.04,DQ,Neylie Chavez,La Joya Juarez-Lincoln,88.81,156.49,,,,Single-ply,SBD,F
Girls,90.04,DQ,Natalia Davila,Mission Sharyland,89.81,,,,,Single-ply,SBD,F
Girls,90.04,DQ,Alejandra Garcia,Los Fresnos,88.09,151.95,83.91,,,Single-ply,SBD,F
Girls,90.04,DQ,Leksi Martinez,Castroville Medina Valley,84.87,,,,,Single-ply,SBD,F
Girls,90.04,DQ,Halley Montoya,Brownsville Hanna,87.82,138.35,72.57,,,Single-ply,SBD,F
Girls,100.02,1,Rheanne Lopez,Los Fresnos,94.08,233.6,95.25,208.65,537.51,Single-ply,SBD,F
Girls,100.02,2,Brenda Lopez,Pharr Valley View,99.29,213.19,115.67,181.44,510.29,Single-ply,SBD,F
Girls,100.02,3,Julie Sepulveda,Alice,93.85,204.12,102.06,176.9,483.08,Single-ply,SBD,F
Girls,100.02,4,Kaley Leal,Corpus Christi Tuloso-Midway,95.44,208.65,77.11,174.63,460.4,Single-ply,SBD,F
Girls,100.02,5,Analydia Montes,Corpus Christi Tuloso-Midway,95.98,204.12,63.5,174.63,442.25,Single-ply,SBD,F
Girls,100.02,6,Alicia Gomez,PSJA Memorial,97.48,181.44,95.25,163.29,439.98,Single-ply,SBD,F
Girls,100.02,7,Krysti Llamas,Edinburg Vela,99.06,195.04,90.72,147.42,433.18,Single-ply,SBD,F
Girls,100.02,8,Mikayla Carroll,Castroville Medina Valley,95.98,195.04,77.11,154.22,426.38,Single-ply,SBD,F
Girls,100.02,9,Brisa Barrientos,La Joya,98.84,179.17,83.91,163.29,426.38,Single-ply,SBD,F
Girls,100.02,10,Erika Guerrero,Mission,99.43,197.31,83.91,142.88,424.11,Single-ply,SBD,F
Girls,100.02,11,Valeria Santiago,McAllen Memorial,98.61,174.63,90.72,142.88,408.23,Single-ply,SBD,F
Girls,100.02,12,Evelyn Garza,Edcouch-Elsa,98.88,183.7,90.72,133.81,408.23,Single-ply,SBD,F
Girls,100.02,DQ,Irlanda Moreno,Brownsville Veterans Memorial,99.79,167.83,63.5,,,Single-ply,SBD,F
Girls,100.02,DQ,Michelle Davila,Brownsville Hanna,95.62,158.76,77.11,,,Single-ply,SBD,F
Girls,100.02,DQ,Juana Bolanos,Edinburg Economedes,96.62,181.44,108.86,,,Single-ply,SBD,F
Girls,117.71,1,Julieann Delgado,Brownsville Lopez,110.77,210.92,138.35,183.7,532.97,Single-ply,SBD,F
Girls,117.71,2,Jazzmine Barrera,Edcouch-Elsa,112.49,213.19,104.33,185.97,503.49,Single-ply,SBD,F
Girls,117.71,3,Roxanne Martinez,Donna,111.22,231.33,88.45,142.88,462.66,Single-ply,SBD,F
Girls,117.71,4,Brittany Lozano,Brownsville Hanna,115.3,210.92,102.06,142.88,455.86,Single-ply,SBD,F
Girls,117.71,5,Alysha Torres,PSJA North,110.5,201.85,83.91,147.42,433.18,Single-ply,SBD,F
Girls,117.71,6,Marissa Garcia,Alice,109.95,188.24,74.84,165.56,428.64,Single-ply,SBD,F
Girls,117.71,7,Karla Salinas,Edinburg Vela,106.5,179.17,92.99,154.22,426.38,Single-ply,SBD,F
Girls,117.71,8,Kaylen Flores,PSJA Memorial,114.85,185.97,97.52,142.88,426.38,Single-ply,SBD,F
Girls,117.71,9,Brianna Larraga,Edinburg,108.18,163.29,115.67,142.88,421.84,Single-ply,SBD,F
Girls,117.71,10,Katya Alfaro,Brownsville Porter,117.48,185.97,86.18,147.42,419.57,Single-ply,SBD,F
Girls,117.71,11,Brianna Trevino,San Antonio East Central,107.46,170.1,92.99,145.15,408.23,Single-ply,SBD,F
Girls,117.71,DQ,Ashlyn Weikle,Somerset,101.51,154.22,,,,Single-ply,SBD,F
Girls,117.71,DQ,Leah Cantu,McAllen Memorial,112.94,,,,,Single-ply,SBD,F
Girls,117.71,DQ,Chloe Martinez,McAllen Memorial,115.48,,,,,Single-ply,SBD,F
Girls,117.71+,1,Aria Metcalf,San Antonio East Central,126.92,199.58,102.06,183.7,485.34,Single-ply,SBD,F
Girls,117.71+,2,Alayna Searcy,Port Lavaca Calhoun,124.01,213.19,102.06,163.29,478.54,Single-ply,SBD,F
Girls,117.71+,3,Nelly Garcia,Brownsville Lopez,131.9,219.99,83.91,142.88,446.79,Single-ply,SBD,F
Girls,117.71+,4,Aisha Garcia,Edcouch-Elsa,118.16,199.58,81.65,158.76,439.98,Single-ply,SBD,F
Girls,117.71+,5,Jazmine Casas,Roma,123.29,185.97,88.45,163.29,437.72,Single-ply,SBD,F
Girls,117.71+,6,Meela Garza,Alice,140.57,154.22,95.25,147.42,396.89,Single-ply,SBD,F
Girls,117.71+,7,Denise Gonzalez,Weslaco,127.01,151.95,72.57,154.22,378.75,Single-ply,SBD,F
Girls,117.71+,8,RosaLynn Davila,Edinburg North,131,127.01,95.25,147.42,369.68,Single-ply,SBD,F
Girls,117.71+,9,Leslie Montelongo,Weslaco,122.11,151.95,70.31,117.93,340.19,Single-ply,SBD,F
Girls,117.71+,10,Nayely Leyva,La Joya,118.16,131.54,63.5,133.81,328.85,Single-ply,SBD,F
Girls,117.71+,DQ,Marissa Hernandez,San Benito,117.93,,,,,Single-ply,SBD,F
Girls,117.71+,DQ,Delilah Cordova,Weslaco,122.65,,,,,Single-ply,SBD,F
