Division,WeightClassKg,Place,Name,Team,BodyweightKg,Best3SquatKg,Best3BenchKg,Best3DeadliftKg,TotalKg,Equipment,Event,Sex
Boys,51.71,1,J. Paul Axtell,Olney,48.9,127.01,61.23,104.33,292.57,Single-ply,SBD,M
Boys,55.79,1,Kamary Wiley,Wichita Falls,55.79,145.15,74.84,183.7,403.7,Single-ply,SBD,M
Boys,59.87,2,Devonte Perez,Wichita Falls Rider,55.88,147.42,83.91,145.15,376.48,Single-ply,SBD,M
Boys,55.79,3,Tinnin Smith,Jacksboro,54.79,129.27,81.65,138.35,349.27,Single-ply,SBD,M
Boys,55.79,4,Adrian Lopez,Wichita Falls,51.98,122.47,65.77,138.35,326.59,Single-ply,SBD,M
Boys,55.79,5,Jacob Jackson,Vernon,54.43,120.2,72.57,129.27,322.05,Single-ply,SBD,M
Boys,55.79,6,Weston Wenninger,Graham,55.61,120.2,63.5,131.54,315.25,Single-ply,SBD,M
Boys,55.79,7,Joaquin Palacious,Seymour,54.79,122.47,61.23,129.27,312.98,Single-ply,SBD,M
Boys,59.87,1,Camron Senters,Burkburnett,59.15,201.85,108.86,204.12,514.83,Single-ply,SBD,M
Boys,59.87,2,Armani Donaldson,Wichita Falls,56.52,183.7,113.4,172.37,469.47,Single-ply,SBD,M
Boys,59.87,3,Trace Adams,Iowa Park,57.88,165.56,83.91,188.24,437.72,Single-ply,SBD,M
Boys,59.87,4,Lucas Sosebee,Iowa Park,58.79,151.95,108.86,142.88,403.7,Single-ply,SBD,M
Boys,59.87,5,Zach Montgomery,Jacksboro,59.42,145.15,77.11,161.03,383.29,Single-ply,SBD,M
Boys,59.87,6,Tristan Niles,Burkburnett,59.87,142.88,77.11,156.49,376.48,Single-ply,SBD,M
Boys,59.87,7,Rody Fenoglio,Henrietta,56.15,149.69,83.91,136.08,369.68,Single-ply,SBD,M
Boys,59.87,DQ,Noah Ballard,Olney,59.87,,,,,Single-ply,SBD,M
Boys,59.87,DQ,Jeromy Stacy,Petrolia,58.33,161.03,,,,Single-ply,SBD,M
Boys,67.13,1,Juan Martinez,Graham,65.5,199.58,136.08,219.99,555.65,Single-ply,SBD,M
Boys,67.13,2,Marcus Garza,Graham,62.14,167.83,99.79,181.44,449.06,Single-ply,SBD,M
Boys,67.13,3,Chase Kurszewski,Burkburnett,67.13,181.44,88.45,161.03,430.91,Single-ply,SBD,M
Boys,67.13,4,Austin Winter,Iowa Park,63.32,176.9,99.79,151.95,428.64,Single-ply,SBD,M
Boys,74.84,5,Austin Armagost,Burkburnett,67.31,163.29,99.79,163.29,426.38,Single-ply,SBD,M
Boys,67.13,6,Reagan Brewer,Iowa Park,67.13,158.76,77.11,147.42,383.29,Single-ply,SBD,M
Boys,67.13,7,Andrew Mangum,Wichita Falls City View,64.41,138.35,65.77,170.1,374.21,Single-ply,SBD,M
Boys,74.84,8,Nate McLemore,Iowa Park,67.31,149.69,102.06,113.4,365.14,Single-ply,SBD,M
Boys,67.13,9,John Losoya,Wichita Falls,66.86,133.81,72.57,156.49,362.87,Single-ply,SBD,M
Boys,74.84,10,Justin Ottaway,Seymour,67.22,131.54,86.18,136.08,353.8,Single-ply,SBD,M
Boys,67.13,11,Taylor Kelley #2,Wichita Falls Rider,65.5,124.74,74.84,151.95,351.53,Single-ply,SBD,M
Boys,67.13,12,Gage Williams,Petrolia,61.69,117.93,61.23,122.47,301.64,Single-ply,SBD,M
Boys,67.13,13,Barry Mason,Henrietta,62.87,90.72,49.9,95.25,235.87,Single-ply,SBD,M
Boys,82.1,1,Tri Hoang,Wichita Falls City View,75.02,249.48,129.27,278.96,657.71,Single-ply,SBD,M
Boys,74.84,2,Luke Hartman,Iowa Park,73.21,229.06,138.35,238.14,605.55,Single-ply,SBD,M
Boys,74.84,3,Colton Baley,Wichita Falls Rider,74.21,217.72,124.74,226.8,569.26,Single-ply,SBD,M
Boys,74.84,4,Dalton Day,Henrietta,73.84,219.99,142.88,204.12,566.99,Single-ply,SBD,M
Boys,74.84,5,Seth Rogers,Jacksboro,73.03,206.38,131.54,215.46,553.38,Single-ply,SBD,M
Boys,74.84,6,Jesse Herd,Jacksboro,74.21,190.51,136.08,206.38,532.97,Single-ply,SBD,M
Boys,74.84,7,Jase Hutchens,Graham,70.67,185.97,102.06,192.78,480.81,Single-ply,SBD,M
Boys,74.84,8,Quentin Sims,Wichita Falls,74.3,183.7,115.67,179.17,478.54,Single-ply,SBD,M
Boys,74.84,9,Ricardo Carrillo,Wichita Falls City View,74.66,151.95,111.13,197.31,460.4,Single-ply,SBD,M
Boys,74.84,10,Ross Mullins,Olney,71.67,158.76,102.06,174.63,435.45,Single-ply,SBD,M
Boys,74.84,11,Baltazar Castro,Seymour,72.85,145.15,102.06,172.37,419.57,Single-ply,SBD,M
Boys,74.84,12,David Garza,Vernon,69.49,149.69,92.99,149.69,392.36,Single-ply,SBD,M
Boys,74.84,13,Daniel Castro,Burkburnett,70.31,154.22,77.11,156.49,387.82,Single-ply,SBD,M
Boys,74.84,14,Ryan Harrison,Petrolia,74.12,136.08,74.84,136.08,347,Single-ply,SBD,M
Boys,74.84,15,Noah Hayes,Nocona,71.4,111.13,79.38,136.08,326.59,Single-ply,SBD,M
Boys,74.84,DQ,Tristan Willard,Nocona,70.03,147.42,,,,Single-ply,SBD,M
Boys,82.1,DQ,Kieante Czarnek,Wichita Falls City View,75.02,195.04,129.27,,,Single-ply,SBD,M
Boys,74.84,DQ,Essie Woodard,Wichita Falls,67.95,,,,,Single-ply,SBD,M
Boys,74.84,DQ,Colton Sims,Vernon,74.39,140.61,63.5,,,Single-ply,SBD,M
Boys,74.84,DQ,Hunter Wolfe,Wichita Falls Notre Dame,73.75,235.87,124.74,,,Single-ply,SBD,M
Boys,82.1,1,O'Shea Nolan,Wichita Falls City View,81.74,247.21,129.27,226.8,603.28,Single-ply,SBD,M
Boys,82.1,2,Michael Elmore,Graham,81.74,217.72,145.15,201.85,564.72,Single-ply,SBD,M
Boys,82.1,3,Steven Blankenship,Graham,78.93,192.78,140.61,215.46,548.85,Single-ply,SBD,M
Boys,82.1,4,Jacob Fleming,Graham,80.47,201.85,140.61,206.38,548.85,Single-ply,SBD,M
Boys,82.1,5,Zac Hollingsworth,Burkburnett,75.11,188.24,120.2,192.78,501.22,Single-ply,SBD,M
Boys,82.1,6,Tristan Sosa,Wichita Falls,82.1,181.44,127.01,174.63,483.08,Single-ply,SBD,M
Boys,82.1,7,Jared Lott,Wichita Falls Rider,75.57,190.51,117.93,170.1,478.54,Single-ply,SBD,M
Boys,82.1,8,Zack Macmahen,Vernon,78.74,163.29,86.18,208.65,458.13,Single-ply,SBD,M
Boys,82.1,DQ,Trevor Williams,Olney,76.48,,,,,Single-ply,SBD,M
Boys,89.81,1,Orlando Haymon,Vernon,88.18,208.65,124.74,272.16,605.55,Single-ply,SBD,M
Boys,89.81,2,Andrew Rodriguez,Wichita Falls City View,89.54,204.12,136.08,208.65,548.85,Single-ply,SBD,M
Boys,89.81,3,Dakota Schweiger,Iowa Park,85.28,195.04,136.08,208.65,539.77,Single-ply,SBD,M
Boys,89.81,4,Alex Joplin,Burkburnett,89.36,206.38,138.35,181.44,526.17,Single-ply,SBD,M
Boys,89.81,5,Austin Hanson,Jacksboro,85.37,201.85,127.01,195.04,523.9,Single-ply,SBD,M
Boys,89.81,6,Jaymes Upchurch,Burkburnett,86.18,179.17,133.81,201.85,514.83,Single-ply,SBD,M
Boys,89.81,7,Zach Tayntor,Wichita Falls Rider,86.55,197.31,115.67,181.44,494.42,Single-ply,SBD,M
Boys,89.81,8,Bobby Norton,Iowa Park,84.1,197.31,108.86,158.76,464.93,Single-ply,SBD,M
Boys,89.81,9,Shamon McKenzie,Wichita Falls,88.9,181.44,108.86,170.1,460.4,Single-ply,SBD,M
Boys,89.81,10,Trampas Patton,Olney,84.91,170.1,111.13,165.56,446.79,Single-ply,SBD,M
Boys,89.81,11,Ramon Guerra,Wichita Falls City View,86.73,179.17,83.91,158.76,421.84,Single-ply,SBD,M
Boys,89.81,12,Colin Davis,Vernon,82.55,136.08,92.99,161.03,390.09,Single-ply,SBD,M
Boys,89.81,13,Bodie Cokendolpher,Petrolia,85.55,206.38,102.06,235.87,544.31,Single-ply,SBD,M
Boys,99.79,1,Ej Lozada,Jacksboro,95.89,222.26,127.01,238.14,587.4,Single-ply,SBD,M
Boys,99.79,2,Devin Daume,Graham,93.71,199.58,136.08,222.26,557.92,Single-ply,SBD,M
Boys,99.79,3,Sam Scribner,Wichita Falls Rider,95.16,197.31,129.27,231.33,557.92,Single-ply,SBD,M
Boys,99.79,4,Bohner Cottongame,Graham,91.44,176.9,117.93,208.65,503.49,Single-ply,SBD,M
Boys,99.79,5,Guillermo Parham,Wichita Falls Rider,92.71,190.51,102.06,167.83,460.4,Single-ply,SBD,M
Boys,99.79,6,Ronnie Killen,Wichita Falls City View,95.98,176.9,86.18,188.24,451.32,Single-ply,SBD,M
Boys,99.79,7,Josh Gentry,Burkburnett,96.62,181.44,108.86,154.22,444.52,Single-ply,SBD,M
Boys,99.79,8,Jacob Boswell,Burkburnett,92.26,154.22,77.11,145.15,376.48,Single-ply,SBD,M
Boys,99.79,DQ,Jackson Towery,Nocona,98.25,,,,,Single-ply,SBD,M
Boys,99.79,DQ,Zach Baker,Petrolia,91.35,,,,,Single-ply,SBD,M
Boys,99.79,DQ,Justin Silva,Wichita Falls City View,98.52,215.46,,,,Single-ply,SBD,M
Boys,109.77,1,Derek Baynes,Graham,106.41,249.48,149.69,226.8,625.96,Single-ply,SBD,M
Boys,109.77,2,Orion Rodriguez,Wichita Falls,109.59,233.6,115.67,217.72,566.99,Single-ply,SBD,M
Boys,109.77,3,Ryan Pool,Wichita Falls Rider,102.51,183.7,124.74,172.37,480.81,Single-ply,SBD,M
Boys,109.77,4,Derek Wolf,Archer City,103.06,147.42,81.65,161.03,390.09,Single-ply,SBD,M
Boys,109.77,DQ,Drew Filkins,Nocona,104.24,167.83,,,,Single-ply,SBD,M
Boys,109.77,DQ,Jesse Villalobos,Iowa Park,107.95,192.78,,,,Single-ply,SBD,M
Boys,109.77,DQ,Billy Kenyon,Petrolia,108.05,,,,,Single-ply,SBD,M
Boys,124.74,1,John Brock,Henrietta,120.11,272.16,149.69,229.06,650.91,Single-ply,SBD,M
Boys,124.74,2,Sammy Serrano,Graham,120.84,256.28,122.47,197.31,576.06,Single-ply,SBD,M
Boys,124.74,3,Nick Diaz,Wichita Falls Hirschi,121.65,224.53,133.81,192.78,551.11,Single-ply,SBD,M
Boys,124.74,4,Kye Esteves,Wichita Falls Rider,114.12,206.38,122.47,215.46,544.31,Single-ply,SBD,M
Boys,124.74,5,Tanner Hash,Archer City,114.58,183.7,104.33,188.24,476.27,Single-ply,SBD,M
Boys,124.74,6,Carlos Caballero,Iowa Park,124.74,154.22,104.33,181.44,439.98,Single-ply,SBD,M
Boys,124.74,DQ,Ryan Ford,Wichita Falls City View,124.65,172.37,108.86,,,Single-ply,SBD,M
Boys,124.74+,1,Nick Ward,Iowa Park,140.98,260.82,124.74,215.46,601.01,Single-ply,SBD,M
Boys,124.74+,2,Steffen Thomas,Wichita Falls,132.54,231.33,106.59,197.31,535.24,Single-ply,SBD,M
Boys,124.74+,3,Zach Graham,Nocona,143.34,192.78,104.33,172.37,469.47,Single-ply,SBD,M
Boys,124.74+,4,Quentin Jones,Wichita Falls City View,129.36,131.54,111.13,170.1,412.77,Single-ply,SBD,M
Boys,124.74+,5,Andrew Wilson,Vernon,164.93,92.99,104.33,149.69,347,Single-ply,SBD,M
