Division,WeightClassKg,Place,Name,Team,BodyweightKg,Best3SquatKg,Best3BenchKg,Best3DeadliftKg,TotalKg,Equipment,Event,Sex
Girls,44.23,1,Betsy Ramirez,Winnsboro,44,115.67,47.63,111.13,274.42,Single-ply,SBD,F
Girls,44.23,2,Angela Hernandez,Kemp,42.64,113.4,56.7,102.06,272.16,Single-ply,SBD,F
Girls,44.23,3,Jessica Taylor #3,Gilmer,43.54,81.65,40.82,90.72,213.19,Single-ply,SBD,F
Girls,44.23,4,Brandi Rulo,Paris Chisum,43.54,72.57,36.29,83.91,192.78,Single-ply,SBD,F
Girls,44.23,5,Madison Baugh,Canton,42.18,77.11,34.02,70.31,181.44,Single-ply,SBD,F
Girls,44.23,6,Alysia McCormick,Pattonville Prairiland,41.28,56.7,31.75,70.31,158.76,Single-ply,SBD,F
Girls,47.85,1,Annika Nittmo,Winnsboro,46.72,120.2,56.7,124.74,301.64,Single-ply,SBD,F
Girls,47.85,2,Karina Castillo,Gilmer,46.72,113.4,56.7,113.4,283.5,Single-ply,SBD,F
Girls,47.85,3,Hanna Richison,Winnsboro,46.72,106.59,47.63,113.4,267.62,Single-ply,SBD,F
Girls,47.85,4,Cheyenne Jones,Cumby,47.63,106.59,52.16,92.99,251.74,Single-ply,SBD,F
Girls,47.85,5,Lauren Gilliam,Weatherford,46.72,102.06,47.63,97.52,247.21,Single-ply,SBD,F
Girls,47.85,6,Kayla Warren,Winnsboro,47.85,88.45,56.7,95.25,240.4,Single-ply,SBD,F
Girls,51.94,1,Alixsus Neely,Winnsboro,51.26,133.81,49.9,142.88,326.59,Single-ply,SBD,F
Girls,51.94,2,Allie Boehlar,Paris Chisum,48.53,129.27,61.23,115.67,306.17,Single-ply,SBD,F
Girls,51.94,3,Tesla Mowery,Winnsboro,48.99,117.93,56.7,117.93,292.57,Single-ply,SBD,F
Girls,51.94,4,Kaylee Weems,Winnsboro,51.71,113.4,61.23,117.93,292.57,Single-ply,SBD,F
Girls,51.94,5,Carmen Villarreal,Kemp,50.35,108.86,61.23,102.06,272.16,Single-ply,SBD,F
Girls,51.94,6,Haylee Reed,Grapeland,50.35,104.33,38.56,99.79,242.67,Single-ply,SBD,F
Girls,51.94,7,Hannah Campbell,Gilmer Union Hill,51.71,102.06,36.29,97.52,235.87,Single-ply,SBD,F
Girls,51.94,8,Ti'Dache Waters,Gilmer,50.35,97.52,38.56,97.52,233.6,Single-ply,SBD,F
Girls,51.94,9,Paige Waldroup,Paris Chisum,49.44,92.99,43.09,95.25,231.33,Single-ply,SBD,F
Girls,51.94,10,Destany Keisler,Pattonville Prairiland,51.71,92.99,40.82,92.99,226.8,Single-ply,SBD,F
Girls,51.94,11,Ashley Riffe,Canton,51.26,88.45,45.36,90.72,224.53,Single-ply,SBD,F
Girls,51.94,12,Kendralynne Shook,Canton,49.44,79.38,27.22,86.18,192.78,Single-ply,SBD,F
Girls,51.94,13,Natalie Salaises,Gilmer Union Hill,48.31,70.31,27.22,83.91,181.44,Single-ply,SBD,F
Girls,51.94,14,Carley Mitchell,Weatherford,48.53,65.77,34.02,65.77,165.56,Single-ply,SBD,F
Girls,51.94,DQ,Ansley Downs,Paris,51.71,83.91,,,,Single-ply,SBD,F
Girls,56.02,1,Karla Fuentes,Winnsboro,54.43,129.27,68.04,142.88,340.19,Single-ply,SBD,F
Girls,56.02,2,Annie Stevenson,Gilmer,56.02,122.47,49.9,122.47,294.84,Single-ply,SBD,F
Girls,56.02,3,Victoria Urquidez,Gilmer,55.34,106.59,56.7,127.01,290.3,Single-ply,SBD,F
Girls,56.02,4,Rozshanae Williams,Honey Grove,56.02,115.67,52.16,120.2,288.03,Single-ply,SBD,F
Girls,56.02,5,Anna Perez,Paris,52.16,108.86,52.16,113.4,274.42,Single-ply,SBD,F
Girls,56.02,6,Samantha Collier,Gilmer Union Hill,53.52,102.06,49.9,113.4,265.35,Single-ply,SBD,F
Girls,56.02,7,Kailey Griffith,Gilmer,55.34,99.79,56.7,108.86,265.35,Single-ply,SBD,F
Girls,56.02,8,Carla Perez,Canton,54.43,90.72,45.36,104.33,240.4,Single-ply,SBD,F
Girls,56.02,9,Jaylin Contrevas,Kemp,52.16,92.99,45.36,90.72,229.06,Single-ply,SBD,F
Girls,56.02,10,Shaunee Conway,Bogata Rivercrest,55.79,72.57,36.29,90.72,199.58,Single-ply,SBD,F
Girls,56.02,11,Brynna Mackling,Canton,54.88,65.77,29.48,79.38,174.63,Single-ply,SBD,F
Girls,56.02,12,Noemi Barroso,Tyler,52.62,61.23,20.41,74.84,156.49,Single-ply,SBD,F
Girls,60.1,1,Kinzie Williams,Winnsboro,58.51,117.93,65.77,133.81,317.51,Single-ply,SBD,F
Girls,60.1,2,Bethany Alexander,Kemp,56.7,122.47,54.43,131.54,308.44,Single-ply,SBD,F
Girls,60.1,3,Abby Gonzalez,Emory Rains,59.42,117.93,63.5,117.93,299.37,Single-ply,SBD,F
Girls,60.1,4,Sydney Bell,Gilmer,58.06,115.67,52.16,129.27,297.1,Single-ply,SBD,F
Girls,60.1,5,Daniel Jones #4,Winnsboro,57.15,117.93,58.97,117.93,294.84,Single-ply,SBD,F
Girls,60.1,6,Alyssa Allison,Lone Oak,56.7,111.13,45.36,111.13,267.62,Single-ply,SBD,F
Girls,60.1,7,Nancy Lara,Weatherford,59.87,97.52,54.43,99.79,251.74,Single-ply,SBD,F
Girls,60.1,8,Dioseny Mejia,Gilmer Union Hill,58.97,90.72,40.82,106.59,238.14,Single-ply,SBD,F
Girls,60.1,9,Bailee McDaniel,Emory Rains,56.7,88.45,40.82,99.79,229.06,Single-ply,SBD,F
Girls,60.1,10,Sidney Bonilla,Bogata Rivercrest,58.51,81.65,45.36,102.06,229.06,Single-ply,SBD,F
Girls,60.1,11,Hannah Hancolk,Van,56.25,90.72,43.09,92.99,226.8,Single-ply,SBD,F
Girls,60.1,12,Sierra Warner,Pattonville Prairiland,58.51,65.77,43.09,83.91,192.78,Single-ply,SBD,F
Girls,60.1,13,Joanna Sandaval,Mount Pleasant,57.15,68.04,34.02,88.45,190.51,Single-ply,SBD,F
Girls,60.1,14,Evie Davis,Canton,59.87,72.57,34.02,83.91,190.51,Single-ply,SBD,F
Girls,60.1,15,Aliyah Reyna,Tyler,57.15,68.04,29.48,77.11,174.63,Single-ply,SBD,F
Girls,67.36,1,Jayla Sims,Paris,66.68,151.95,72.57,140.61,365.14,Single-ply,SBD,F
Girls,67.36,2,Kaitlyn McCarter,Paris Chisum,60.33,142.88,79.38,127.01,349.27,Single-ply,SBD,F
Girls,67.36,3,Sam Hagood,Cumby,67.36,145.15,49.9,142.88,337.93,Single-ply,SBD,F
Girls,67.36,4,Bopa Loeuk,Emory Rains,66.9,136.08,63.5,124.74,324.32,Single-ply,SBD,F
Girls,67.36,5,Ashley Hagood,Cumby,63.05,122.47,49.9,149.69,322.05,Single-ply,SBD,F
Girls,67.36,6,Elizabeth Thorpe,Grapeland,65.77,136.08,58.97,113.4,308.44,Single-ply,SBD,F
Girls,67.36,7,Cierra Anderson,Gilmer,63.96,127.01,54.43,124.74,306.17,Single-ply,SBD,F
Girls,67.36,8,Julia Courtney,Winnsboro,63.96,129.27,58.97,117.93,306.17,Single-ply,SBD,F
Girls,67.36,9,Sadie Froese,Paris Chisum,65.32,113.4,65.77,124.74,303.91,Single-ply,SBD,F
Girls,67.36,10,Julia Duke,Canton,63.96,129.27,47.63,124.74,301.64,Single-ply,SBD,F
Girls,67.36,11,Hailey Stiles,Quinlan Ford,63.96,120.2,49.9,124.74,294.84,Single-ply,SBD,F
Girls,67.36,12,Megan Gebaver,Canton,65.77,115.67,54.43,124.74,294.84,Single-ply,SBD,F
Girls,67.36,13,Caitlin Case,Kemp,67.13,122.47,56.7,111.13,290.3,Single-ply,SBD,F
Girls,67.36,14,Patricia Hernandez,Canton,62.6,117.93,52.16,111.13,281.23,Single-ply,SBD,F
Girls,67.36,15,Aubrey Dillinger,Weatherford,66.22,106.59,54.43,108.86,269.89,Single-ply,SBD,F
Girls,67.36,16,Sirena Loeuk,Emory Rains,64.86,106.59,47.63,108.86,263.08,Single-ply,SBD,F
Girls,67.36,17,Elissia Robinson,Emory Rains,62.14,117.93,43.09,97.52,258.55,Single-ply,SBD,F
Girls,67.36,18,Tristyn Boone,Lone Oak,63.96,97.52,34.02,115.67,247.21,Single-ply,SBD,F
Girls,67.36,19,Abby Trever,Gilmer Union Hill,61.69,102.06,43.09,99.79,244.94,Single-ply,SBD,F
Girls,67.36,20,Yasmin Gomez,Mount Pleasant,60.33,102.06,47.63,90.72,240.4,Single-ply,SBD,F
Girls,67.36,21,Kenacia Hunter,Tyler,63.96,92.99,47.63,90.72,231.33,Single-ply,SBD,F
Girls,67.36,22,Kylee Crist,Canton,65.32,88.45,38.56,102.06,229.06,Single-ply,SBD,F
Girls,67.36,23,LaDayiza Johnson,Tyler,67.36,95.25,40.82,90.72,226.8,Single-ply,SBD,F
Girls,67.36,24,Jayla Callier,Tyler,67.36,72.57,49.9,102.06,224.53,Single-ply,SBD,F
Girls,67.36,25,Kelly Egan,Canton,61.23,83.91,40.82,86.18,210.92,Single-ply,SBD,F
Girls,67.36,26,Sydney Ellis,Canton,63.96,77.11,34.02,90.72,201.85,Single-ply,SBD,F
Girls,67.36,27,Tori Hutson,Lone Oak,62.6,88.45,38.56,49.9,176.9,Single-ply,SBD,F
Girls,67.36,28,Cheyenne Bowman,Grapeland,62.6,68.04,34.02,61.23,163.29,Single-ply,SBD,F
Girls,67.36,DQ,Kristin Henderson,Emory Rains,67.13,95.25,,,,Single-ply,SBD,F
Girls,75.07,1,Anna Hooten,Emory Rains,74.39,154.22,74.84,151.95,381.02,Single-ply,SBD,F
Girls,75.07,2,Megan Higbee,Rockwall-Heath,70.76,140.61,68.04,154.22,362.87,Single-ply,SBD,F
Girls,75.07,3,Marissa Lutz,Lone Oak,72.12,136.08,61.23,140.61,337.93,Single-ply,SBD,F
Girls,75.07,4,Jaden Fair,Greenville,72.57,127.01,74.84,136.08,337.93,Single-ply,SBD,F
Girls,75.07,5,Halie Daniels,Winnsboro,73.48,122.47,72.57,133.81,328.85,Single-ply,SBD,F
Girls,75.07,6,Julia Dyck,Paris Chisum,68.95,120.2,58.97,147.42,326.59,Single-ply,SBD,F
Girls,75.07,7,Morgan Dunn,Weatherford,68.95,122.47,58.97,122.47,303.91,Single-ply,SBD,F
Girls,75.07,8,Kinsey Rogers,Kemp,72.57,122.47,61.23,111.13,294.84,Single-ply,SBD,F
Girls,75.07,9,Kathryne Cantu,Mount Pleasant,73.94,117.93,52.16,120.2,290.3,Single-ply,SBD,F
Girls,75.07,10,Gwen Mitchell,Van,70.31,111.13,49.9,122.47,283.5,Single-ply,SBD,F
Girls,75.07,11,Ja'Shae Collier,Tyler,72.12,95.25,58.97,127.01,281.23,Single-ply,SBD,F
Girls,75.07,12,Chloey Dalrymple,Kemp,73.03,108.86,56.7,113.4,278.96,Single-ply,SBD,F
Girls,75.07,13,Baylee Freelon,Pattonville Prairiland,73.48,102.06,56.7,115.67,274.42,Single-ply,SBD,F
Girls,75.07,14,Mackensie Craine,Kemp,68.49,108.86,56.7,106.59,272.16,Single-ply,SBD,F
Girls,75.07,15,Autumn Handley,Weatherford,70.76,106.59,70.31,95.25,272.16,Single-ply,SBD,F
Girls,75.07,16,Megan Gerlach,Canton,72.57,113.4,43.09,113.4,269.89,Single-ply,SBD,F
Girls,75.07,17,Karsen McClain,Pattonville Prairiland,71.67,99.79,54.43,106.59,260.82,Single-ply,SBD,F
Girls,75.07,18,Morgan Medley,Canton,70.31,106.59,45.36,104.33,256.28,Single-ply,SBD,F
Girls,75.07,19,Aubrie Shaw,Lone Oak,68.04,97.52,47.63,97.52,242.67,Single-ply,SBD,F
Girls,75.07,20,Sara Mefford,Canton,73.03,95.25,38.56,102.06,235.87,Single-ply,SBD,F
Girls,75.07,21,Emily McDaniel,Quinlan Ford,73.48,81.65,38.56,111.13,231.33,Single-ply,SBD,F
Girls,75.07,22,Brice Lloyd,Canton,74.39,65.77,36.29,72.57,174.63,Single-ply,SBD,F
Girls,82.33,1,Marshae Davis,Gilmer,75.75,136.08,58.97,149.69,344.73,Single-ply,SBD,F
Girls,82.33,2,Grace Dickson,Gilmer Union Hill,76.2,136.08,54.43,140.61,331.12,Single-ply,SBD,F
Girls,82.33,3,Madi Young,Rockwall-Heath,77.11,117.93,61.23,142.88,322.05,Single-ply,SBD,F
Girls,82.33,4,Mikaela Harper,Pattonville Prairiland,78.93,102.06,65.77,120.2,288.03,Single-ply,SBD,F
Girls,82.33,5,Morganne Price,Honey Grove,79.83,113.4,36.29,122.47,272.16,Single-ply,SBD,F
Girls,82.33,6,Emily Morris,Gilmer Union Hill,82.1,129.27,49.9,90.72,269.89,Single-ply,SBD,F
Girls,82.33,7,Allie Russell,Bogata Rivercrest,78.93,102.06,47.63,111.13,260.82,Single-ply,SBD,F
Girls,82.33,8,Ashley Davis,Honey Grove,81.65,97.52,40.82,104.33,242.67,Single-ply,SBD,F
Girls,82.33,9,Monica Wallace,Greenville,81.19,102.06,38.56,97.52,238.14,Single-ply,SBD,F
Girls,82.33,10,Lauren Galimoz,Weatherford,80.29,90.72,45.36,90.72,226.8,Single-ply,SBD,F
Girls,82.33,11,Emily Greeson,Canton,82.1,83.91,29.48,95.25,208.65,Single-ply,SBD,F
Girls,82.33,DQ,Kyla Shook,Canton,77.11,65.77,,,,Single-ply,SBD,F
Girls,90.04,1,Jocalynn Fountain,Gilmer,82.55,161.03,65.77,136.08,362.87,Single-ply,SBD,F
Girls,90.04,2,Guadalupe Solorzano,Weatherford,85.28,113.4,61.23,124.74,299.37,Single-ply,SBD,F
Girls,90.04,3,Raelynn Johnson,Paris,85.73,102.06,56.7,111.13,269.89,Single-ply,SBD,F
Girls,90.04,4,Kaden McSpedden,Kemp,85.28,106.59,54.43,97.52,258.55,Single-ply,SBD,F
Girls,90.04,5,Aubrey Stone,Emory Rains,86.64,77.11,47.63,77.11,201.85,Single-ply,SBD,F
Girls,90.04,6,Faith Besherse,Canton,84.37,81.65,34.02,79.38,195.04,Single-ply,SBD,F
Girls,90.04,DQ,Elizabeth Thomas,Cumby,90.04,138.35,68.04,,,Single-ply,SBD,F
Girls,100.02,1,Jada Redd,Honey Grove,93.44,151.95,58.97,181.44,392.36,Single-ply,SBD,F
Girls,100.02,2,Lauren Dollins,Pattonville Prairiland,92.99,140.61,61.23,142.88,344.73,Single-ply,SBD,F
Girls,100.02,3,Shelby Smith,Quitman,92.08,124.74,49.9,142.88,317.51,Single-ply,SBD,F
Girls,100.02,4,Heavenlee Griffith,Mount Pleasant,93.44,131.54,52.16,117.93,301.64,Single-ply,SBD,F
Girls,100.02,5,Jessica Baeza,Kemp,92.53,117.93,61.23,108.86,288.03,Single-ply,SBD,F
Girls,100.02,6,Mattison Woodlee,Lone Oak,97.52,115.67,49.9,111.13,276.69,Single-ply,SBD,F
Girls,100.02,7,Kasidy Mayer,Van,91.63,86.18,47.63,95.25,229.06,Single-ply,SBD,F
Girls,117.71,1,Jorden Kimble,Paris,113.85,156.49,79.38,151.95,387.82,Single-ply,SBD,F
Girls,117.71,2,Shannie Jones,Gilmer,115.67,176.9,68.04,142.88,387.82,Single-ply,SBD,F
Girls,117.71,3,Bonnie Clifton,Gilmer,113.4,142.88,65.77,149.69,358.34,Single-ply,SBD,F
Girls,117.71,4,Jocie Fuller,Canton,104.33,140.61,68.04,113.4,322.05,Single-ply,SBD,F
Girls,117.71,5,Katlynn White,Quinlan Ford,115.21,145.15,63.5,113.4,322.05,Single-ply,SBD,F
Girls,117.71,6,Alysia Daniel,Canton,109.77,136.08,49.9,120.2,306.17,Single-ply,SBD,F
Girls,117.71,7,Callie Eubanks,Van,110.22,122.47,49.9,122.47,294.84,Single-ply,SBD,F
Girls,117.71,8,Molli Dorsey,Mount Pleasant,107.05,113.4,68.04,111.13,292.57,Single-ply,SBD,F
Girls,117.71+,1,Andrea Beasley,Kemp,122.02,167.83,90.72,145.15,403.7,Single-ply,SBD,F
Girls,117.71+,2,Kaitlynn Peterson,Rockwall-Heath,121.56,158.76,88.45,151.95,399.16,Single-ply,SBD,F
Girls,117.71+,3,Calista Ukeh,Rockwall-Heath,125.19,124.74,90.72,136.08,351.53,Single-ply,SBD,F
Girls,117.71+,4,Chloe Durham,Tyler,158.76,142.88,68.04,136.08,347,Single-ply,SBD,F
Girls,117.71+,5,Makailah McConnell,Gilmer,118.84,133.81,61.23,131.54,326.59,Single-ply,SBD,F
