Division,WeightClassKg,Place,Name,Team,BodyweightKg,Best3SquatKg,Best3BenchKg,Best3DeadliftKg,TotalKg,Equipment,Event,Sex
Boys,51.71,1,Jeff Smith,Valley Mills,51.71,138.35,86.18,115.67,340.19,Single-ply,SBD,M
Boys,51.71,2,Jaxon Sullivan,Clyde,43.09,104.33,54.43,117.93,276.69,Single-ply,SBD,M
Boys,51.71,3,James Smith,Comanche,46.27,97.52,61.23,102.06,260.82,Single-ply,SBD,M
Boys,51.71,4,Colton Reeves,Valley Mills,50.71,88.45,49.9,102.06,240.4,Single-ply,SBD,M
Boys,51.71,5,Sebastion Allen,Valley Mills,51.35,95.25,49.9,88.45,233.6,Single-ply,SBD,M
Boys,51.71,6,Tristan Dobson,Stephenville,51.26,74.84,40.82,92.99,208.65,Single-ply,SBD,M
Boys,55.79,1,Kenneth Mitchell #2,Bangs,54.61,163.29,79.38,163.29,405.97,Single-ply,SBD,M
Boys,55.79,2,Jacob Villalpando,Sweetwater,55.07,136.08,77.11,145.15,358.34,Single-ply,SBD,M
Boys,55.79,3,Justin Burnett,Hamilton,54.88,142.88,65.77,142.88,351.53,Single-ply,SBD,M
Boys,55.79,4,Isaiah Lombrana,Brady,53.07,113.4,72.57,122.47,308.44,Single-ply,SBD,M
Boys,55.79,5,Jonathan Seabourn,Clyde,55.61,117.93,72.57,102.06,292.57,Single-ply,SBD,M
Boys,55.79,6,Blake Dulaney,Bangs,55.07,111.13,65.77,99.79,276.69,Single-ply,SBD,M
Boys,55.79,7,DJ McKinney,San Saba,53.52,104.33,38.56,113.4,256.28,Single-ply,SBD,M
Boys,55.79,DQ,Ryan Lamb,Glen Rose,53.98,108.86,,,,Single-ply,SBD,M
Boys,55.79,DQ,David Valdez,Brady,54.43,108.86,,122.47,,Single-ply,SBD,M
Boys,59.87,1,Edgar Macias,Lingleville,57.97,145.15,81.65,174.63,401.43,Single-ply,SBD,M
Boys,59.87,2,Luis Sandoval,Glen Rose,59.42,151.95,83.91,165.56,401.43,Single-ply,SBD,M
Boys,59.87,3,Rudy Ramirez,Hamilton,59.42,142.88,77.11,138.35,358.34,Single-ply,SBD,M
Boys,59.87,4,Donald Baker,Sweetwater,59.33,124.74,74.84,124.74,324.32,Single-ply,SBD,M
Boys,59.87,5,Lane Crosswaite,Clifton,59.42,122.47,70.31,131.54,324.32,Single-ply,SBD,M
Boys,59.87,6,Chris Moreno,Early,59.33,113.4,68.04,136.08,317.51,Single-ply,SBD,M
Boys,59.87,7,Nick Nimer,Sweetwater,58.06,115.67,61.23,106.59,283.5,Single-ply,SBD,M
Boys,59.87,8,Cory Crowell,Bangs,57.15,111.13,58.97,108.86,278.96,Single-ply,SBD,M
Boys,59.87,9,Jared Fossett,Clifton,59.15,77.11,49.9,113.4,240.4,Single-ply,SBD,M
Boys,59.87,DQ,Dakota Brewster,Clyde,58.15,138.35,,113.4,,Single-ply,SBD,M
Boys,67.13,1,Levi Bamber,Dublin,63.87,197.31,124.74,201.85,523.9,Single-ply,SBD,M
Boys,67.13,2,Matthew Maley,Crawford,66.41,208.65,106.59,199.58,514.83,Single-ply,SBD,M
Boys,67.13,3,Daniel Amyett,Brady,65.59,215.46,97.52,185.97,498.95,Single-ply,SBD,M
Boys,67.13,4,Will Graham,Clyde,66.77,167.83,120.2,204.12,492.15,Single-ply,SBD,M
Boys,67.13,5,Allen Almgren,Bangs,66.68,204.12,90.72,195.04,489.88,Single-ply,SBD,M
Boys,67.13,6,Alan Hale,San Saba,66.95,172.37,106.59,179.17,458.13,Single-ply,SBD,M
Boys,67.13,7,Alec Apple,Rising Star,67.04,136.08,102.06,174.63,412.77,Single-ply,SBD,M
Boys,67.13,8,Derrek Clayton,Glen Rose,66.77,158.76,95.25,154.22,408.23,Single-ply,SBD,M
Boys,67.13,9,Jonathan Whatley,Crawford,65.23,147.42,95.25,163.29,405.97,Single-ply,SBD,M
Boys,67.13,10,Adrian Lopez,Sweetwater,63.96,133.81,99.79,154.22,387.82,Single-ply,SBD,M
Boys,67.13,11,Shawn Fortney,Sidney,65.86,138.35,83.91,158.76,381.02,Single-ply,SBD,M
Boys,67.13,12,Kat Leal,Rising Star,65.86,136.08,92.99,147.42,376.48,Single-ply,SBD,M
Boys,74.84,13,Blake Eschbach,Glen Rose,67.31,136.08,72.57,158.76,367.41,Single-ply,SBD,M
Boys,67.13,14,Zeth Valdez,Brady,62.6,145.15,97.52,120.2,362.87,Single-ply,SBD,M
Boys,67.13,15,Colton Hill,Rising Star,63.41,131.54,72.57,158.76,362.87,Single-ply,SBD,M
Boys,67.13,16,David Castleberry,Clyde,64.41,127.01,83.91,147.42,358.34,Single-ply,SBD,M
Boys,67.13,17,Martin Calderon,Comanche,66.68,138.35,77.11,138.35,353.8,Single-ply,SBD,M
Boys,67.13,18,Dylan White,Stephenville,66.86,106.59,83.91,156.49,347,Single-ply,SBD,M
Boys,67.13,19,Daniel Steinkamp,Crawford,63.87,122.47,79.38,131.54,333.39,Single-ply,SBD,M
Boys,67.13,20,Jaen Lopez,Clifton,64.86,127.01,79.38,127.01,333.39,Single-ply,SBD,M
Boys,74.84,21,Obed Barraza,Sweetwater,67.36,115.67,81.65,127.01,324.32,Single-ply,SBD,M
Boys,67.13,22,Jw Balch,Valley Mills,62.6,124.74,63.5,124.74,312.98,Single-ply,SBD,M
Boys,67.13,23,Dylan Hankins,Coleman,61.42,113.4,65.77,127.01,306.17,Single-ply,SBD,M
Boys,67.13,24,Clayton Young,Stephenville,61.23,113.4,58.97,124.74,297.1,Single-ply,SBD,M
Boys,67.13,25,Brooks Jones,Coleman,61.87,113.4,68.04,104.33,285.76,Single-ply,SBD,M
Boys,67.13,26,Tanner Stewart,Glen Rose,61.69,97.52,61.23,124.74,283.5,Single-ply,SBD,M
Boys,67.13,27,Daniel Sánchez,Rising Star,62.41,90.72,70.31,113.4,274.42,Single-ply,SBD,M
Boys,67.13,28,Wesley Hobbs,Stephenville,62.96,83.91,52.16,136.08,272.16,Single-ply,SBD,M
Boys,67.13,29,Kyle Arnold,Stephenville,63.96,90.72,52.16,124.74,267.62,Single-ply,SBD,M
Boys,67.13,30,Lane Walker,Comanche,64.86,99.79,61.23,102.06,263.08,Single-ply,SBD,M
Boys,67.13,DQ,Josh Mena,Glen Rose,65.41,124.74,,120.2,,Single-ply,SBD,M
Boys,67.13,DQ,Bo Crowder,Coleman,61.6,111.13,65.77,,,Single-ply,SBD,M
Boys,67.13,DQ,Jakeb Miller,Clyde,65.14,158.76,,170.1,,Single-ply,SBD,M
Boys,67.13,DQ,Brad Deel,Clyde,65.32,113.4,,117.93,,Single-ply,SBD,M
Boys,67.13,DQ,Isaac Brown,Bangs,67.13,215.46,,,,Single-ply,SBD,M
Boys,74.84,1,Dustin Dorris,Crawford,69.4,238.14,113.4,188.24,539.77,Single-ply,SBD,M
Boys,74.84,2,Alex Cervantes,San Saba,67.86,201.85,104.33,217.72,523.9,Single-ply,SBD,M
Boys,74.84,3,Jacob Carson,Bangs,72.85,185.97,104.33,217.72,508.02,Single-ply,SBD,M
Boys,74.84,4,Casey Graham,Godley,72.39,206.38,111.13,188.24,505.76,Single-ply,SBD,M
Boys,74.84,5,Hunter Fritscher,Crawford,73.3,204.12,97.52,197.31,498.95,Single-ply,SBD,M
Boys,74.84,6,Maverick Green,Glen Rose,74.03,181.44,117.93,199.58,498.95,Single-ply,SBD,M
Boys,74.84,7,Jose Ramirez,Brady,73.3,172.37,97.52,195.04,464.93,Single-ply,SBD,M
Boys,74.84,8,Josh Tucker,Godley,74.21,176.9,92.99,192.78,462.66,Single-ply,SBD,M
Boys,74.84,9,Garrison Dean,Crawford,69.22,174.63,92.99,183.7,451.32,Single-ply,SBD,M
Boys,74.84,10,Carder Brooks,Hamilton,72.57,183.7,92.99,165.56,442.25,Single-ply,SBD,M
Boys,74.84,11,Karrson Strohl,Clyde,70.58,158.76,106.59,156.49,421.84,Single-ply,SBD,M
Boys,74.84,12,Jonathan Davidson,Clyde,71.12,167.83,95.25,154.22,417.3,Single-ply,SBD,M
Boys,74.84,13,Jake Beebe,Valley Mills,67.68,158.76,92.99,163.29,415.04,Single-ply,SBD,M
Boys,74.84,14,Chase Evatt,Glen Rose,70.58,147.42,90.72,170.1,408.23,Single-ply,SBD,M
Boys,74.84,15,Sean Pyburn,Comanche,68.04,151.95,92.99,161.03,405.97,Single-ply,SBD,M
Boys,74.84,16,Christian Dominguez,Sidney,74.84,142.88,88.45,165.56,396.89,Single-ply,SBD,M
Boys,74.84,17,Carl Pendergrast,Rising Star,74.84,158.76,70.31,158.76,387.82,Single-ply,SBD,M
Boys,74.84,18,Garrett Stuard,Coleman,68.49,124.74,86.18,165.56,376.48,Single-ply,SBD,M
Boys,74.84,19,Thomas Simpson,Glen Rose,72.67,133.81,83.91,158.76,376.48,Single-ply,SBD,M
Boys,74.84,20,Jamie Faust,Hamilton,69.31,158.76,61.23,151.95,371.95,Single-ply,SBD,M
Boys,74.84,21,Travis Sammons,Brady,69.85,122.47,95.25,149.69,367.41,Single-ply,SBD,M
Boys,74.84,22,Braden Payne,Hamilton,69.31,142.88,68.04,151.95,362.87,Single-ply,SBD,M
Boys,74.84,23,Alex Garcia #1,Sweetwater,74.84,136.08,68.04,158.76,362.87,Single-ply,SBD,M
Boys,74.84,24,Jonathan Murphy,Early,71.67,117.93,79.38,158.76,356.07,Single-ply,SBD,M
Boys,74.84,25,Junior Sanchez,Early,70.4,124.74,83.91,145.15,353.8,Single-ply,SBD,M
Boys,74.84,26,Kyler Kliebrink,Clifton,71.3,136.08,74.84,142.88,353.8,Single-ply,SBD,M
Boys,74.84,27,Blake Hammonds,Coleman,73.39,136.08,79.38,136.08,351.53,Single-ply,SBD,M
Boys,74.84,28,Gabriel Medellin,Sweetwater,74.48,115.67,83.91,142.88,342.46,Single-ply,SBD,M
Boys,74.84,29,Taylor Hutchins,Bangs,68.95,124.74,68.04,147.42,340.19,Single-ply,SBD,M
Boys,74.84,30,Gage Rogers,Early,74.39,115.67,61.23,151.95,328.85,Single-ply,SBD,M
Boys,74.84,31,Phillip Cooke,Stephenville,68.95,113.4,72.57,129.27,315.25,Single-ply,SBD,M
Boys,74.84,32,Kyle Evans #3,Stephenville,74.39,83.91,61.23,147.42,292.57,Single-ply,SBD,M
Boys,74.84,33,Bryce Paternosfro,Brady,73.48,92.99,61.23,122.47,276.69,Single-ply,SBD,M
Boys,74.84,34,Josh Sult,Stephenville,73.03,92.99,56.7,92.99,242.67,Single-ply,SBD,M
Boys,74.84,DQ,Sam Nemir,Sweetwater,74.84,192.78,115.67,,,Single-ply,SBD,M
Boys,74.84,DQ,Kaegan Dillard,Clifton,73.57,120.2,,142.88,,Single-ply,SBD,M
Boys,82.1,1,Brad Wills,Clyde,80.38,217.72,142.88,215.46,576.06,Single-ply,SBD,M
Boys,82.1,2,Johnny Davis,Clyde,76.02,183.7,120.2,206.38,510.29,Single-ply,SBD,M
Boys,82.1,3,Andrew Santibanez,Sidney,78.74,204.12,102.06,183.7,489.88,Single-ply,SBD,M
Boys,82.1,4,Issac Jiminez,San Saba,81.19,176.9,102.06,204.12,483.08,Single-ply,SBD,M
Boys,82.1,5,Jacob Beckwith,Bangs,81.01,188.24,102.06,181.44,471.74,Single-ply,SBD,M
Boys,82.1,6,Jacob Hodges,Brady,77.66,181.44,83.91,181.44,446.79,Single-ply,SBD,M
Boys,82.1,7,Marcus Saldivar,Stephenville,81.19,172.37,113.4,154.22,439.98,Single-ply,SBD,M
Boys,82.1,8,Ethan Smart,Sidney,81.28,158.76,86.18,183.7,428.64,Single-ply,SBD,M
Boys,82.1,9,Spencer Young,Sweetwater,80.74,127.01,99.79,163.29,390.09,Single-ply,SBD,M
Boys,82.1,10,Brandon Matherne,Glen Rose,77.56,142.88,83.91,147.42,374.21,Single-ply,SBD,M
Boys,89.81,11,Kyle Lambert,Sweetwater,82.19,136.08,77.11,140.61,353.8,Single-ply,SBD,M
Boys,82.1,12,Jimmy Cruz,Stephenville,79.65,113.4,95.25,142.88,351.53,Single-ply,SBD,M
Boys,82.1,13,Logan Douglas,Glen Rose,81.47,113.4,86.18,147.42,347,Single-ply,SBD,M
Boys,82.1,14,Chase Varnado,Stephenville,77.56,117.93,68.04,151.95,337.93,Single-ply,SBD,M
Boys,89.81,1,Sean Willis,Glen Rose,85.91,181.44,117.93,226.8,526.17,Single-ply,SBD,M
Boys,89.81,2,Jose Aleman,Dublin,88.81,181.44,120.2,204.12,505.76,Single-ply,SBD,M
Boys,89.81,3,Christian Bosquez,Bangs,87.09,204.12,104.33,195.04,503.49,Single-ply,SBD,M
Boys,89.81,4,Addison Schmalriede,Crawford,88.63,188.24,97.52,195.04,480.81,Single-ply,SBD,M
Boys,89.81,5,Max Palacio,San Saba,86.27,174.63,97.52,188.24,460.4,Single-ply,SBD,M
Boys,89.81,6,Tanner Fannin,Clyde,83.28,176.9,88.45,188.24,453.59,Single-ply,SBD,M
Boys,89.81,7,David Arizola,Sidney,85.18,172.37,108.86,165.56,446.79,Single-ply,SBD,M
Boys,89.81,8,Jacob McAnally,Brady,89.81,165.56,111.13,154.22,430.91,Single-ply,SBD,M
Boys,89.81,9,Richard Roper,Brady,89.63,181.44,92.99,154.22,428.64,Single-ply,SBD,M
Boys,89.81,10,Shelton Zarate,Coleman,89.45,167.83,97.52,158.76,424.11,Single-ply,SBD,M
Boys,89.81,11,Ty Munro,Crawford,88.18,151.95,92.99,170.1,415.04,Single-ply,SBD,M
Boys,89.81,12,La Villarreal,Brady,89.36,158.76,99.79,154.22,412.77,Single-ply,SBD,M
Boys,89.81,13,Justin Goble,Clyde,83.55,158.76,99.79,142.88,401.43,Single-ply,SBD,M
Boys,89.81,14,Cory Burns,Sweetwater,88.9,136.08,92.99,165.56,394.63,Single-ply,SBD,M
Boys,89.81,15,Joel Elizondo,Comanche,89.63,154.22,99.79,133.81,387.82,Single-ply,SBD,M
Boys,89.81,16,Hunter Johnson,Sweetwater,85.28,136.08,88.45,158.76,383.29,Single-ply,SBD,M
Boys,89.81,17,Shane Sibila,Clifton,86,124.74,81.65,136.08,342.46,Single-ply,SBD,M
Boys,89.81,DQ,Talon Clift,Clifton,85.09,142.88,,170.1,,Single-ply,SBD,M
Boys,89.81,DQ,Colin Lane,Glen Rose,88.63,,106.59,158.76,,Single-ply,SBD,M
Boys,89.81,DQ,Francisco Munoz,Sidney,82.74,,,,,Single-ply,SBD,M
Boys,99.79,1,Jimmy Johnson,Glen Rose,97.7,249.48,149.69,219.99,619.15,Single-ply,SBD,M
Boys,99.79,2,Justin Taylor,Comanche,97.43,188.24,140.61,195.04,523.9,Single-ply,SBD,M
Boys,99.79,3,Dominic Rosales,San Saba,90.08,181.44,111.13,174.63,467.2,Single-ply,SBD,M
Boys,99.79,4,Justin Tabor,Crawford,98.97,181.44,104.33,181.44,467.2,Single-ply,SBD,M
Boys,99.79,5,Chad Easley,Clyde,93.8,170.1,120.2,170.1,460.4,Single-ply,SBD,M
Boys,99.79,6,Gage Lugo,Comanche,97.07,158.76,99.79,179.17,437.72,Single-ply,SBD,M
Boys,99.79,7,Jeremy Dooley,Glen Rose,90.72,149.69,117.93,167.83,435.45,Single-ply,SBD,M
Boys,99.79,8,Carl Cruben,Bangs,99.7,161.03,92.99,165.56,419.57,Single-ply,SBD,M
Boys,99.79,9,Josh Vela,Brady,94.98,183.7,79.38,149.69,412.77,Single-ply,SBD,M
Boys,99.79,10,Taylor Kubacak,Brady,99.7,145.15,83.91,172.37,401.43,Single-ply,SBD,M
Boys,99.79,11,Jose Olivas,San Saba,92.44,136.08,92.99,163.29,392.36,Single-ply,SBD,M
Boys,99.79,12,Dalton Lopez,Clyde,96.62,142.88,106.59,142.88,392.36,Single-ply,SBD,M
Boys,99.79,13,Hector Taboada,Glen Rose,93.35,124.74,97.52,158.76,381.02,Single-ply,SBD,M
Boys,99.79,14,Ben Johns,Clifton,96.07,142.88,83.91,142.88,369.68,Single-ply,SBD,M
Boys,99.79,15,Max Saxon,Clyde,91.08,136.08,90.72,136.08,362.87,Single-ply,SBD,M
Boys,99.79,16,Fidel Olalde,Early,95.44,147.42,79.38,127.01,353.8,Single-ply,SBD,M
Boys,99.79,17,Jacoby Miller-Selem,Stephenville,92.17,142.88,83.91,111.13,337.93,Single-ply,SBD,M
Boys,99.79,18,James Thompson,Hamilton,92.08,129.27,74.84,129.27,333.39,Single-ply,SBD,M
Boys,99.79,19,Brent Rush,Stephenville,94.98,92.99,61.23,124.74,278.96,Single-ply,SBD,M
Boys,99.79,DQ,Eddie Robels,Glen Rose,92.62,120.2,,113.4,,Single-ply,SBD,M
Boys,109.77,1,Alex Aleman,Dublin,107.95,240.4,145.15,219.99,605.55,Single-ply,SBD,M
Boys,109.77,2,Taylor Smith #11,Bangs,105.87,249.48,136.08,217.72,603.28,Single-ply,SBD,M
Boys,109.77,3,Rhett Lawrence,Clyde,101.15,199.58,149.69,206.38,555.65,Single-ply,SBD,M
Boys,109.77,4,Sam Lopez,Bangs,108.23,222.26,133.81,197.31,553.38,Single-ply,SBD,M
Boys,109.77,5,Daniel Montez,Sweetwater,106.96,176.9,136.08,197.31,510.29,Single-ply,SBD,M
Boys,109.77,6,Brett Mosher,Tolar,107.5,195.04,113.4,181.44,489.88,Single-ply,SBD,M
Boys,109.77,7,Mateo Gonzalez,Sweetwater,100.7,181.44,120.2,185.97,487.61,Single-ply,SBD,M
Boys,109.77,8,Jared Thames,Glen Rose,104.33,181.44,104.33,181.44,467.2,Single-ply,SBD,M
Boys,109.77,9,Kale Plumley,Comanche,104.05,167.83,102.06,183.7,453.59,Single-ply,SBD,M
Boys,109.77,10,Wil Sloan,San Saba,105.78,158.76,111.13,170.1,439.98,Single-ply,SBD,M
Boys,109.77,11,Brandon Breedlove,Bangs,105.41,179.17,90.72,165.56,435.45,Single-ply,SBD,M
Boys,109.77,12,Brady Westerfeld,Crawford,107.86,163.29,104.33,163.29,430.91,Single-ply,SBD,M
Boys,109.77,13,Sean Harvey,Clifton,107.95,149.69,106.59,167.83,424.11,Single-ply,SBD,M
Boys,109.77,14,Kirby Massingill,Hamilton,106.5,165.56,86.18,170.1,421.84,Single-ply,SBD,M
Boys,124.74,15,T. Smith,Clifton,109.95,163.29,83.91,147.42,394.63,Single-ply,SBD,M
Boys,109.77,16,Michael McKinnerney,San Saba,102.69,142.88,68.04,151.95,362.87,Single-ply,SBD,M
Boys,109.77,17,Tyler Brown,Brady,109.77,113.4,81.65,138.35,333.39,Single-ply,SBD,M
Boys,109.77,18,Jake Beyer,Stephenville,108.32,117.93,70.31,133.81,322.05,Single-ply,SBD,M
Boys,109.77,19,Nathan Amstead,San Saba,102.6,124.74,49.9,113.4,288.03,Single-ply,SBD,M
Boys,124.74,1,Colt Caffey,Sidney,114.67,222.26,147.42,244.94,614.62,Single-ply,SBD,M
Boys,124.74,2,Marcelino Felipe,Coleman,116.66,249.48,133.81,206.38,589.67,Single-ply,SBD,M
Boys,124.74,3,Jarrett Anderson,Bangs,117.48,229.06,149.69,208.65,587.4,Single-ply,SBD,M
Boys,124.74,4,Jayton May,Brady,111.4,235.87,136.08,183.7,555.65,Single-ply,SBD,M
Boys,124.74,5,Zac Perez,Glen Rose,116.03,199.58,124.74,170.1,494.42,Single-ply,SBD,M
Boys,124.74,6,Tanner Jarrett,Stephenville,114.21,181.44,97.52,156.49,435.45,Single-ply,SBD,M
Boys,124.74,7,Tyler Swenson,Clifton,112.67,147.42,104.33,163.29,415.04,Single-ply,SBD,M
Boys,124.74,8,Dusty Parum,San Saba,113.67,138.35,74.84,140.61,353.8,Single-ply,SBD,M
Boys,124.74,9,Zach Christian,Comanche,118.3,79.38,79.38,111.13,269.89,Single-ply,SBD,M
Boys,124.74+,1,Chance Furniss,Bangs,143.34,272.16,174.63,244.94,691.73,Single-ply,SBD,M
Boys,124.74+,2,Ryan Lidster,Godley,126.55,256.28,176.9,242.67,675.85,Single-ply,SBD,M
Boys,124.74+,3,Tyler McIntosh,San Saba,125.37,251.74,149.69,222.26,623.69,Single-ply,SBD,M
Boys,124.74+,4,Carter Blenden,Crawford,140.16,233.6,124.74,219.99,578.33,Single-ply,SBD,M
Boys,124.74+,5,David Smith,San Saba,195.04,213.19,133.81,181.44,528.44,Single-ply,SBD,M
Boys,124.74+,6,Diega Montoya,San Saba,141.88,195.04,138.35,176.9,510.29,Single-ply,SBD,M
Boys,124.74+,7,Max Meder,Brady,148.96,204.12,102.06,197.31,503.49,Single-ply,SBD,M
Boys,124.74+,8,Manuel Cruz,Coleman,132,147.42,90.72,147.42,385.55,Single-ply,SBD,M
Boys,124.74+,9,Ray Knighton,Clyde,177.9,140.61,90.72,147.42,378.75,Single-ply,SBD,M
