Division,WeightClassKg,Place,Name,Team,BodyweightKg,Best3SquatKg,Best3BenchKg,Best3DeadliftKg,TotalKg,Equipment,Event,Sex
Girls,44.23,1,Ariel Coronado,San Antonio Southside,44,124.74,56.7,115.67,297.1,Single-ply,SBD,F
Girls,44.23,2,Kassidy Colianni,Port Lavaca Calhoun,44.09,113.4,54.43,124.74,292.57,Single-ply,SBD,F
Girls,44.23,3,Odalys Pruneda,Pharr Valley View,44,120.2,47.63,120.2,288.03,Single-ply,SBD,F
Girls,44.23,4,Dani Burget,Weslaco East,43.54,106.59,54.43,120.2,281.23,Single-ply,SBD,F
Girls,44.23,5,Yesenia Pena,Del Rio,43.32,117.93,54.43,97.52,269.89,Single-ply,SBD,F
Girls,44.23,6,Sarah Gonzalez,San Benito,43.73,106.59,52.16,102.06,260.82,Single-ply,SBD,F
Girls,44.23,7,Valerie Moreno,San Benito,42.68,106.59,47.63,102.06,256.28,Single-ply,SBD,F
Girls,44.23,8,Yuliana Gonzalez,Sharyland Pioneer,42.64,97.52,43.09,108.86,249.48,Single-ply,SBD,F
Girls,44.23,9,Odalys Garduno,Victoria West,43.18,102.06,38.56,106.59,247.21,Single-ply,SBD,F
Girls,44.23,10,Anallonci Vera,PSJA North,44.18,88.45,43.09,115.67,247.21,Single-ply,SBD,F
Girls,44.23,11,Beth De Hoyos,PSJA North,41.46,92.99,45.36,104.33,242.67,Single-ply,SBD,F
Girls,44.23,12,Alle Highful,Los Fresnos,44,106.59,38.56,90.72,235.87,Single-ply,SBD,F
Girls,44.23,13,Lauren Aldape,Mercedes,43.41,90.72,40.82,97.52,229.06,Single-ply,SBD,F
Girls,44.23,14,Savannah Arciba,Gregory-Portland,43.36,77.11,36.29,90.72,204.12,Single-ply,SBD,F
Girls,44.23,DQ,Itati Escamilla,Brownsville Pace,44.09,,,,,Single-ply,SBD,F
Girls,47.85,1,Marisol Munoz,San Antonio Southside,47.63,142.88,68.04,142.88,353.8,Single-ply,SBD,F
Girls,47.85,2,Clarissa Molina,Pharr Valley View,47.63,145.15,56.7,136.08,337.93,Single-ply,SBD,F
Girls,47.85,3,Sarah Moraida,Brownsville Pace,46.72,129.27,61.23,136.08,326.59,Single-ply,SBD,F
Girls,47.85,4,Briseida Montoya,San Benito,45.86,131.54,63.5,129.27,324.32,Single-ply,SBD,F
Girls,47.85,5,Sophie Avila,Los Fresnos,47.81,124.74,56.7,140.61,322.05,Single-ply,SBD,F
Girls,47.85,6,Marissa Ruiz,Gregory-Portland,47.45,122.47,58.97,136.08,317.51,Single-ply,SBD,F
Girls,47.85,7,Kirsten Alaniz,Alice,47.76,129.27,72.57,113.4,315.25,Single-ply,SBD,F
Girls,47.85,8,Savannah Romero,Weslaco East,46.72,117.93,52.16,122.47,292.57,Single-ply,SBD,F
Girls,47.85,9,Abril Salinas,Pharr Valley View,47.36,127.01,40.82,113.4,281.23,Single-ply,SBD,F
Girls,47.85,10,Brianna Rugerio,Mission Sharyland,47.26,122.47,47.63,108.86,278.96,Single-ply,SBD,F
Girls,47.85,11,Briseidi Cantu,Rio Grande City,46.49,104.33,47.63,117.93,269.89,Single-ply,SBD,F
Girls,47.85,12,Ericka Knowles,San Antonio East Central,46.58,102.06,45.36,120.2,267.62,Single-ply,SBD,F
Girls,47.85,13,Andrea Botella,Brownsville Lopez,47.63,124.74,45.36,97.52,267.62,Single-ply,SBD,F
Girls,47.85,14,Tammy Idrogo,Laredo United South,47.81,102.06,38.56,115.67,256.28,Single-ply,SBD,F
Girls,47.85,DQ,Mary Lazo,Donna,45.9,131.54,49.9,,,Single-ply,SBD,F
Girls,51.94,1,Alle Elizondo,Los Fresnos,51.89,147.42,74.84,145.15,367.41,Single-ply,SBD,F
Girls,51.94,2,Bianca Rodriguez,Weslaco East,51.07,142.88,58.97,158.76,360.61,Single-ply,SBD,F
Girls,51.94,3,Alexandra Winfree,Sharyland Pioneer,51.35,138.35,63.5,158.76,360.61,Single-ply,SBD,F
Girls,51.94,4,Bianca Alvarez,Alice,51.44,156.49,54.43,149.69,360.61,Single-ply,SBD,F
Girls,51.94,5,Ashley Martinez,Donna,50.71,138.35,65.77,142.88,347,Single-ply,SBD,F
Girls,51.94,6,Lorissa Medina,Pharr Valley View,51.85,136.08,65.77,145.15,347,Single-ply,SBD,F
Girls,51.94,7,Klarissa Gonzalez,San Benito,50.35,138.35,70.31,136.08,344.73,Single-ply,SBD,F
Girls,51.94,8,Jessica Bulnes,Weslaco East,51.17,149.69,61.23,127.01,337.93,Single-ply,SBD,F
Girls,51.94,9,Miranda Smith,Port Lavaca Calhoun,51.39,133.81,61.23,140.61,335.66,Single-ply,SBD,F
Girls,51.94,10,Priscilla Reyna,Mission Sharyland,51.26,127.01,65.77,115.67,308.44,Single-ply,SBD,F
Girls,51.94,11,Janie Ramos,Weslaco East,51.26,129.27,45.36,129.27,303.91,Single-ply,SBD,F
Girls,51.94,12,Danielle Bacon,Port Lavaca Calhoun,49.31,122.47,56.7,120.2,299.37,Single-ply,SBD,F
Girls,51.94,13,Andie Hernandez,Seguin,50.67,122.47,63.5,113.4,299.37,Single-ply,SBD,F
Girls,51.94,14,Linsey Merida,San Benito,50.98,122.47,52.16,124.74,299.37,Single-ply,SBD,F
Girls,51.94,15,Monika Saldivar,Laredo United South,51.66,102.06,61.23,122.47,285.76,Single-ply,SBD,F
Girls,51.94,16,Amanda Rodriguez #3,Mission Sharyland,50.35,113.4,49.9,117.93,281.23,Single-ply,SBD,F
Girls,51.94,17,Destini Thomas,Donna,51.66,113.4,56.7,111.13,281.23,Single-ply,SBD,F
Girls,51.94,18,Joanna Philo,Los Fresnos,51.53,111.13,47.63,117.93,276.69,Single-ply,SBD,F
Girls,51.94,19,Belen Morales,San Antonio Kennedy,51.75,102.06,52.16,122.47,276.69,Single-ply,SBD,F
Girls,51.94,DQ,Nadya Valero,San Antonio Southside,49.44,124.74,,,,Single-ply,SBD,F
Girls,51.94,DQ,Karina Garza,PSJA North,51.89,,,,,Single-ply,SBD,F
Girls,56.02,1,Marissa Martinez,Port Lavaca Calhoun,54.88,156.49,74.84,158.76,390.09,Single-ply,SBD,F
Girls,56.02,2,Gabby Rios,Weslaco East,54.7,158.76,77.11,136.08,371.95,Single-ply,SBD,F
Girls,56.02,3,April Botello,San Antonio Southside,55.61,147.42,72.57,149.69,369.68,Single-ply,SBD,F
Girls,56.02,4,Martha Salaya,Weslaco,55.2,149.69,65.77,151.95,367.41,Single-ply,SBD,F
Girls,56.02,5,Byanka Arreola,Los Fresnos,55.16,147.42,61.23,145.15,353.8,Single-ply,SBD,F
Girls,56.02,6,Carizza Sandell,San Benito,53.71,136.08,65.77,149.69,351.53,Single-ply,SBD,F
Girls,56.02,7,Ravyn Deangel,Donna,55.11,151.95,58.97,124.74,335.66,Single-ply,SBD,F
Girls,56.02,8,Belinda Perez,Port Lavaca Calhoun,55.16,133.81,68.04,129.27,331.12,Single-ply,SBD,F
Girls,56.02,9,Alissa Leija,PSJA North,55.11,127.01,58.97,136.08,322.05,Single-ply,SBD,F
Girls,56.02,10,Daisy Galvan,Weslaco East,53.98,117.93,61.23,136.08,315.25,Single-ply,SBD,F
Girls,56.02,11,Kimberly Kelly,Mission Sharyland,53.89,124.74,54.43,131.54,310.71,Single-ply,SBD,F
Girls,56.02,12,Victoria Olivarez,Mission Veterans Memorial,55.79,113.4,54.43,133.81,301.64,Single-ply,SBD,F
Girls,56.02,13,Myna Martinez,Edcouch-Elsa,54.43,131.54,45.36,117.93,294.84,Single-ply,SBD,F
Girls,56.02,14,Aracely Rodriguez,Pharr Valley View,55.43,124.74,54.43,115.67,294.84,Single-ply,SBD,F
Girls,56.02,15,Whitney Westermann,Corpus Christi Calallen,55.43,113.4,65.77,104.33,283.5,Single-ply,SBD,F
Girls,56.02,16,Jazmine Salinas,Mercedes,54.52,131.54,43.09,106.59,281.23,Single-ply,SBD,F
Girls,56.02,17,Amanda Perez,Laredo Nixon,55.79,102.06,56.7,117.93,276.69,Single-ply,SBD,F
Girls,56.02,DQ,Kelsey Elizondo,PSJA North,55.16,131.54,,,,Single-ply,SBD,F
Girls,56.02,DQ,Juliette Castellanos,Edcouch-Elsa,53.66,136.08,47.63,,,Single-ply,SBD,F
Girls,60.1,1,Doris Gutierrez,Weslaco East,58.69,154.22,77.11,154.22,385.55,Single-ply,SBD,F
Girls,60.1,2,Perla Resendiz,Port Lavaca Calhoun,59.96,158.76,63.5,142.88,365.14,Single-ply,SBD,F
Girls,60.1,3,Brooke Downs,Port Lavaca Calhoun,58.15,131.54,83.91,140.61,356.07,Single-ply,SBD,F
Girls,60.1,4,Azalia Jones,Corpus Christi Tuloso-Midway,59.78,140.61,70.31,142.88,353.8,Single-ply,SBD,F
Girls,60.1,5,Lizette Guerrero,Sharyland Pioneer,59.65,147.42,61.23,140.61,349.27,Single-ply,SBD,F
Girls,60.1,6,Lorena Martinez,Los Fresnos,58.65,142.88,56.7,147.42,347,Single-ply,SBD,F
Girls,60.1,7,Talissa Soto,Corpus Christi Calallen,59.01,131.54,61.23,140.61,333.39,Single-ply,SBD,F
Girls,60.1,8,Estephany Gonzalez,Mission,59.96,140.61,58.97,133.81,333.39,Single-ply,SBD,F
Girls,60.1,9,Allison Rodriguez,Edcouch-Elsa,58.51,136.08,56.7,136.08,328.85,Single-ply,SBD,F
Girls,60.1,10,Brissa Ramirez,Mission Sharyland,57.83,133.81,58.97,131.54,324.32,Single-ply,SBD,F
Girls,60.1,11,Brenda Hernandez,Weslaco East,59.24,124.74,61.23,138.35,324.32,Single-ply,SBD,F
Girls,60.1,12,Priscilla Guerra,Laredo United South,59.19,136.08,63.5,122.47,322.05,Single-ply,SBD,F
Girls,60.1,13,Bea Uribe,Mission Sharyland,58.51,129.27,68.04,117.93,315.25,Single-ply,SBD,F
Girls,60.1,14,Veronica Rodriguez,Laredo Nixon,58.6,136.08,54.43,124.74,315.25,Single-ply,SBD,F
Girls,60.1,DQ,Sophia Cruz,Brownsville Hanna,59.6,138.35,,,,Single-ply,SBD,F
Girls,60.1,DQ,Cecily Gonzalez,Alice,59.06,,,,,Single-ply,SBD,F
Girls,60.1,DQ,Daesha Cano,PSJA North,59.42,142.88,,,,Single-ply,SBD,F
Girls,60.1,DQ,Katie Gonzalez,Sharyland Pioneer,58.2,120.2,,,,Single-ply,SBD,F
Girls,67.36,1,Karina Garcia,San Benito,64.59,170.1,86.18,167.83,424.11,Single-ply,SBD,F
Girls,67.36,2,Zoey Dierlam,Port Lavaca Calhoun,65.59,145.15,79.38,154.22,378.75,Single-ply,SBD,F
Girls,67.36,3,Paola Espinoza,Weslaco East,67.04,156.49,70.31,151.95,378.75,Single-ply,SBD,F
Girls,67.36,4,Abby McFall,Port Lavaca Calhoun,61.96,151.95,70.31,154.22,376.48,Single-ply,SBD,F
Girls,67.36,5,Bryanna Ramirez,Mission Sharyland,64.32,145.15,77.11,151.95,374.21,Single-ply,SBD,F
Girls,67.36,6,Rose Villarreal,Los Fresnos,66.36,145.15,83.91,145.15,374.21,Single-ply,SBD,F
Girls,67.36,7,Valeria Banda,La Joya Juarez-Lincoln,64.41,154.22,65.77,151.95,371.95,Single-ply,SBD,F
Girls,67.36,8,Julissa Torres,Los Fresnos,65.68,149.69,79.38,140.61,369.68,Single-ply,SBD,F
Girls,67.36,9,Charity Acuna,San Antonio Southside,66.32,149.69,79.38,138.35,367.41,Single-ply,SBD,F
Girls,67.36,10,Norma Chapa,Donna North,66.63,136.08,79.38,142.88,358.34,Single-ply,SBD,F
Girls,67.36,11,Ashley DeAnda,Laredo Martin,66.04,142.88,68.04,142.88,353.8,Single-ply,SBD,F
Girls,67.36,12,Denice Acosta,San Benito,64.59,133.81,74.84,142.88,351.53,Single-ply,SBD,F
Girls,67.36,13,Alexandra Chavez,Brownsville Hanna,64.95,142.88,72.57,129.27,344.73,Single-ply,SBD,F
Girls,67.36,14,Alejandra Garcia,Edcouch-Elsa,64.41,149.69,56.7,136.08,342.46,Single-ply,SBD,F
Girls,67.36,15,Natasha Lopez,Brownsville Porter,65.95,136.08,63.5,140.61,340.19,Single-ply,SBD,F
Girls,67.36,16,Bryanna Ramos,Weslaco East,65.95,140.61,72.57,124.74,337.93,Single-ply,SBD,F
Girls,67.36,17,Cassie Nix,Gregory-Portland,66.09,145.15,61.23,131.54,337.93,Single-ply,SBD,F
Girls,67.36,18,Corina Yanez,Donna,63.59,142.88,61.23,129.27,333.39,Single-ply,SBD,F
Girls,67.36,19,Crystal Hernandez,Edcouch-Elsa,63.96,138.35,56.7,138.35,333.39,Single-ply,SBD,F
Girls,67.36,DQ,Alma Hernandez,Weslaco,66.36,,,,,Single-ply,SBD,F
Girls,75.07,1,Olivia Espinoza,Weslaco East,74.12,183.7,104.33,154.22,442.25,Single-ply,SBD,F
Girls,75.07,2,Allison Macias,Alice,73.3,176.9,77.11,165.56,419.57,Single-ply,SBD,F
Girls,75.07,3,Julie Torres,Los Fresnos,73.53,154.22,79.38,165.56,399.16,Single-ply,SBD,F
Girls,75.07,4,Mary Ann Gonzalez,Brownsville Porter,74.16,179.17,79.38,133.81,392.36,Single-ply,SBD,F
Girls,75.07,5,Nora Monie,Sharyland Pioneer,71.94,170.1,68.04,151.95,390.09,Single-ply,SBD,F
Girls,75.07,6,Christa Iglesias,Laredo United South,72.44,158.76,72.57,145.15,376.48,Single-ply,SBD,F
Girls,75.07,7,Elena Zamora,La Joya Juarez-Lincoln,74.89,154.22,72.57,149.69,376.48,Single-ply,SBD,F
Girls,75.07,8,Ashley Garza,Sharyland Pioneer,72.44,145.15,65.77,154.22,365.14,Single-ply,SBD,F
Girls,75.07,9,Karina Garza,Laredo United South,73.21,149.69,61.23,154.22,365.14,Single-ply,SBD,F
Girls,75.07,10,Kelsey Ibarra,PSJA North,74.48,136.08,77.11,151.95,365.14,Single-ply,SBD,F
Girls,75.07,11,LeAnn Ramirez,San Benito,72.67,136.08,72.57,149.69,358.34,Single-ply,SBD,F
Girls,75.07,12,Avery Coronado,Sharyland Pioneer,74.84,136.08,68.04,154.22,358.34,Single-ply,SBD,F
Girls,75.07,13,Lorraine Rodriguez,Floresville,69.9,133.81,56.7,165.56,356.07,Single-ply,SBD,F
Girls,75.07,14,Stephanie Trevino,Los Fresnos,69.08,140.61,74.84,138.35,353.8,Single-ply,SBD,F
Girls,75.07,15,Daniela Alfaro,Sharyland Pioneer,72.89,156.49,58.97,138.35,353.8,Single-ply,SBD,F
Girls,75.07,16,Jackie Cano,Brownsville Pace,73.98,136.08,74.84,138.35,349.27,Single-ply,SBD,F
Girls,75.07,17,Matilda Marquez,Mercedes,72.89,138.35,54.43,151.95,344.73,Single-ply,SBD,F
Girls,75.07,18,Valerie Silva,Weslaco,74.71,131.54,77.11,136.08,344.73,Single-ply,SBD,F
Girls,75.07,19,Mirenda Garcia,Seguin,69.54,136.08,61.23,142.88,340.19,Single-ply,SBD,F
Girls,75.07,20,Alayssa Arguijo,Del Rio,72.35,136.08,56.7,145.15,337.93,Single-ply,SBD,F
Girls,75.07,21,Vanessa Rivera,Brownsville Pace,72.85,149.69,61.23,127.01,337.93,Single-ply,SBD,F
Girls,75.07,22,Victoria Longoria,Donna,74.48,136.08,61.23,140.61,337.93,Single-ply,SBD,F
Girls,75.07,DQ,Destiny Andrade,Castroville Medina Valley,71.85,,,,,Single-ply,SBD,F
Girls,75.07,DQ,Alexis Ortiz #1,Seguin,72.39,156.49,,,,Single-ply,SBD,F
Girls,82.33,1,Sally Ochoa,Mission,78.11,165.56,77.11,176.9,419.57,Single-ply,SBD,F
Girls,82.33,2,Laisha Gardner,Laredo United South,78.56,167.83,79.38,158.76,405.97,Single-ply,SBD,F
Girls,82.33,3,Jased Castro,Los Fresnos,80.01,163.29,90.72,151.95,405.97,Single-ply,SBD,F
Girls,82.33,4,Kylea Nix,Gregory-Portland,77.75,163.29,68.04,172.37,403.7,Single-ply,SBD,F
Girls,82.33,5,Chloe Zapata,Alice,80.56,170.1,79.38,145.15,394.63,Single-ply,SBD,F
Girls,82.33,6,Dyana Morales,Donna,75.11,154.22,79.38,158.76,392.36,Single-ply,SBD,F
Girls,82.33,7,Julie Stanford,Corpus Christi Tuloso-Midway,78.2,176.9,72.57,142.88,392.36,Single-ply,SBD,F
Girls,82.33,8,Monica Garcia,Sharyland Pioneer,80.56,156.49,74.84,151.95,383.29,Single-ply,SBD,F
Girls,82.33,9,Rose Mary Reyna,San Benito,79.06,138.35,83.91,133.81,356.07,Single-ply,SBD,F
Girls,82.33,DQ,Ariana Luna,Donna,81.51,,,,,Single-ply,SBD,F
Girls,82.33,DQ,Crystal Molar,Sharyland Pioneer,81.1,,,,,Single-ply,SBD,F
Girls,90.04,1,Terasita Silva,Los Fresnos,87.27,181.44,102.06,167.83,451.32,Single-ply,SBD,F
Girls,90.04,2,Elizabeth Neitch,Victoria West,87.82,183.7,97.52,163.29,444.52,Single-ply,SBD,F
Girls,90.04,3,Edy Garza,Alice,82.69,181.44,79.38,151.95,412.77,Single-ply,SBD,F
Girls,90.04,4,Vaneliy Guerrero,Mission,87.91,174.63,83.91,151.95,410.5,Single-ply,SBD,F
Girls,90.04,5,Michelle Rodriguez,PSJA North,82.42,185.97,70.31,145.15,401.43,Single-ply,SBD,F
Girls,90.04,6,Carolina De Leon,Weslaco East,88.63,165.56,61.23,147.42,374.21,Single-ply,SBD,F
Girls,90.04,7,Stephanie Urquieta,Corpus Christi Tuloso-Midway,84.46,156.49,70.31,133.81,360.61,Single-ply,SBD,F
Girls,90.04,8,Allison Villarreal,Edcouch-Elsa,84.82,149.69,70.31,140.61,360.61,Single-ply,SBD,F
Girls,90.04,9,Jackie Montejano,Del Rio,88.31,140.61,61.23,158.76,360.61,Single-ply,SBD,F
Girls,90.04,10,Maya Perez,Brownsville Hanna,84.19,149.69,61.23,133.81,344.73,Single-ply,SBD,F
Girls,100.02,1,Alyssa Ybarra,Edcouch-Elsa,96.16,181.44,90.72,161.03,433.18,Single-ply,SBD,F
Girls,100.02,2,Nadia Gomez,Uvalde,90.17,190.51,74.84,154.22,419.57,Single-ply,SBD,F
Girls,100.02,3,Riley Garza,San Benito,90.85,156.49,99.79,158.76,415.04,Single-ply,SBD,F
Girls,100.02,4,Sophia Ortiz,PSJA Memorial,94.3,174.63,74.84,165.56,415.04,Single-ply,SBD,F
Girls,100.02,5,Alexis Delgado #1,Weslaco,100.02,163.29,97.52,154.22,415.04,Single-ply,SBD,F
Girls,100.02,6,Deborah Lugo,Laredo United South,97.16,183.7,74.84,151.95,410.5,Single-ply,SBD,F
Girls,100.02,7,Ashley Tapia,PSJA,97.43,170.1,70.31,163.29,403.7,Single-ply,SBD,F
Girls,100.02,8,Crystal Medrano,Weslaco East,96.16,174.63,81.65,145.15,401.43,Single-ply,SBD,F
Girls,100.02,9,Jazzmyn Moreno,Donna,97.25,183.7,72.57,145.15,401.43,Single-ply,SBD,F
Girls,100.02,10,Corrina Garcia,Corpus Christi Tuloso-Midway,94.98,163.29,79.38,142.88,385.55,Single-ply,SBD,F
Girls,100.02,11,Savannah Valenzuela,Corpus Christi Calallen,96.8,163.29,70.31,145.15,378.75,Single-ply,SBD,F
Girls,100.02,12,Yesenia Gaytan,La Joya Juarez-Lincoln,95.16,156.49,65.77,149.69,371.95,Single-ply,SBD,F
Girls,100.02+,1,Soledad Villarreal,San Benito,108.59,238.14,104.33,172.37,514.83,Single-ply,SBD,F
Girls,100.02+,2,Courtney Delgado,San Antonio East Central,114.44,217.72,92.99,163.29,474,Single-ply,SBD,F
Girls,100.02+,3,Ebony Cortez,Floresville,121.65,183.7,108.86,179.17,471.74,Single-ply,SBD,F
Girls,100.02+,4,Melissa Moralez,Weslaco East,108.41,195.04,102.06,170.1,467.2,Single-ply,SBD,F
Girls,100.02+,5,Charis Pompa,Weslaco,135.53,181.44,104.33,163.29,449.06,Single-ply,SBD,F
Girls,100.02+,6,Jeanette Olachia,Port Lavaca Calhoun,110.95,183.7,86.18,174.63,444.52,Single-ply,SBD,F
Girls,100.02+,7,Lupita Lerma,San Benito,106.32,201.85,79.38,156.49,437.72,Single-ply,SBD,F
Girls,100.02+,8,Mary Chavez,Corpus Christi Tuloso-Midway,135.71,197.31,95.25,138.35,430.91,Single-ply,SBD,F
Girls,100.02+,9,Karina Davalos,Laredo Nixon,118.57,190.51,83.91,151.95,426.38,Single-ply,SBD,F
Girls,100.02+,10,Crystal Hernandez,PSJA North,108.95,158.76,72.57,154.22,385.55,Single-ply,SBD,F
Girls,100.02+,11,Kayla Rojas,Weslaco,123.65,165.56,72.57,147.42,385.55,Single-ply,SBD,F
