Division,WeightClassKg,Place,Name,Team,BodyweightKg,Best3SquatKg,Best3BenchKg,Best3DeadliftKg,TotalKg,Equipment,Event,Sex
Boys,51.71,1,Brian Pafford,Cushing,50.71,145.15,83.91,138.35,367.41,Single-ply,SBD,M
Boys,51.71,2,Johney Phelps,Palestine Westwood,50.53,149.69,77.11,133.81,360.61,Single-ply,SBD,M
Boys,51.71,3,Aaron Johnson,Jefferson,50.89,131.54,79.38,136.08,347,Single-ply,SBD,M
Boys,51.71,4,Matt Reed,Redwater,51.44,120.2,68.04,136.08,324.32,Single-ply,SBD,M
Boys,51.71,5,Will Miller,Dawson,50.8,115.67,61.23,136.08,312.98,Single-ply,SBD,M
Boys,51.71,6,Ethen Hoops,Eustace,50.53,115.67,61.23,106.59,283.5,Single-ply,SBD,M
Boys,51.71,DQ,Jesus Perez,Kemp,51.62,113.4,77.11,,,Single-ply,SBD,M
Boys,51.71,DQ,Martin Lopez,Maypearl,51.71,,,,,Single-ply,SBD,M
Boys,51.71,DQ,Corbin Craver,Mount Vernon,50.71,,,,,Single-ply,SBD,M
Boys,51.71,DQ,Braydon Mason,Troup,50.44,,,,,Single-ply,SBD,M
Boys,59.87,1,Tyler West,Shelbyville,55.97,172.37,111.13,170.1,453.59,Single-ply,SBD,M
Boys,59.87,2,Jaquay Brown,Milford,55.97,156.49,83.91,161.03,401.43,Single-ply,SBD,M
Boys,55.79,3,Blake McCann,Gladewater Sabine,55.61,140.61,79.38,170.1,390.09,Single-ply,SBD,M
Boys,55.79,4,Ezra Zepeda,Red Oak Life,55.16,147.42,77.11,163.29,387.82,Single-ply,SBD,M
Boys,55.79,5,Brock Ryder,Detroit,55.34,142.88,70.31,161.03,374.21,Single-ply,SBD,M
Boys,55.79,6,Austin Peppers,Rice,55.52,149.69,65.77,149.69,365.14,Single-ply,SBD,M
Boys,55.79,7,Jaime Luna,Palmer,53.52,149.69,68.04,131.54,349.27,Single-ply,SBD,M
Boys,55.79,8,Daniel Pafford,Cushing,53.89,138.35,65.77,136.08,340.19,Single-ply,SBD,M
Boys,59.87,9,Caleb Bush,Elysian Fields,56.02,129.27,77.11,131.54,337.93,Single-ply,SBD,M
Boys,59.87,10,Gage Baughman,Winnsboro,55.97,117.93,79.38,129.27,326.59,Single-ply,SBD,M
Boys,55.79,11,Dalton Kassaw,Elkhart,55.7,127.01,63.5,133.81,324.32,Single-ply,SBD,M
Boys,55.79,DQ,Rj Reynolds,Commerce,55.79,,,,,Single-ply,SBD,M
Boys,55.79,DQ,Angel Ross,Quitman,55.79,,,,,Single-ply,SBD,M
Boys,67.13,1,Brandon Jones,Cumby,60.06,170.1,127.01,181.44,478.54,Single-ply,SBD,M
Boys,59.87,2,JarMarkus Boyd,Ore City,59.15,181.44,113.4,176.9,471.74,Single-ply,SBD,M
Boys,59.87,3,Howard Watts,San Augustine,59.69,158.76,102.06,172.37,433.18,Single-ply,SBD,M
Boys,59.87,4,Armando Robles,Joaquin,59.78,165.56,92.99,165.56,424.11,Single-ply,SBD,M
Boys,59.87,5,Dalton Krodle,Commerce,58.51,170.1,86.18,161.03,417.3,Single-ply,SBD,M
Boys,67.13,6,Jalen Burns,Palestine Westwood,60.06,151.95,77.11,179.17,408.23,Single-ply,SBD,M
Boys,59.87,7,Trey Russell,Eustace,58.06,149.69,92.99,163.29,405.97,Single-ply,SBD,M
Boys,59.87,8,Dalton Long,Dawson,59.87,138.35,81.65,163.29,383.29,Single-ply,SBD,M
Boys,59.87,9,Caleb Terrell,Frankston,58.15,113.4,81.65,151.95,347,Single-ply,SBD,M
Boys,67.13,DQ,Ryne Moore,Oakwood,60.1,,,,,Single-ply,SBD,M
Boys,59.87,DQ,Codie Pair,Rice,59.87,,,,,Single-ply,SBD,M
Boys,67.13,1,Cory Davis,Ore City,66.13,231.33,113.4,201.85,546.58,Single-ply,SBD,M
Boys,67.13,2,Tate Hartley,Buffalo,65.32,219.99,104.33,219.99,544.31,Single-ply,SBD,M
Boys,67.13,3,Olice Rogers,Kemp,66.86,204.12,127.01,213.19,544.31,Single-ply,SBD,M
Boys,67.13,4,Cody DeFore,Elkhart,64.77,199.58,115.67,199.58,514.83,Single-ply,SBD,M
Boys,67.13,5,Taylor Young #4,Ore City,66.59,199.58,95.25,204.12,498.95,Single-ply,SBD,M
Boys,67.13,6,Blake Guldjord,Cayuga,66.68,192.78,115.67,185.97,494.42,Single-ply,SBD,M
Boys,67.13,7,Justin Johnson,Mount Enterprise,62.41,188.24,102.06,188.24,478.54,Single-ply,SBD,M
Boys,67.13,8,Devan Harris,Quinlan Boles,66.5,174.63,106.59,192.78,474,Single-ply,SBD,M
Boys,67.13,9,Jared Arey,Teague,65.41,181.44,99.79,176.9,458.13,Single-ply,SBD,M
Boys,67.13,DQ,Josh Boone,Winnsboro,65.59,229.06,113.4,,,Single-ply,SBD,M
Boys,74.84,1,Blake Lehew,Maypearl,73.84,238.14,172.37,215.46,625.96,Single-ply,SBD,M
Boys,74.84,2,Caleb Williams #2,Frankston,74.57,183.7,113.4,251.74,548.85,Single-ply,SBD,M
Boys,74.84,3,JC Garcia,Waskom,72.85,231.33,104.33,210.92,546.58,Single-ply,SBD,M
Boys,74.84,4,Jamie Chan,Palestine Westwood,74.39,204.12,122.47,219.99,546.58,Single-ply,SBD,M
Boys,74.84,5,Ali Bernard,Pattonville Prairiland,72.48,195.04,131.54,208.65,535.24,Single-ply,SBD,M
Boys,74.84,6,Coy Jorden,Teague,74.03,195.04,120.2,213.19,528.44,Single-ply,SBD,M
Boys,74.84,7,Jake Shinn,Quinlan Boles,71.94,181.44,106.59,197.31,485.34,Single-ply,SBD,M
Boys,74.84,8,Matthew Morris,Laird Hill Leveretts Chapel,70.67,195.04,104.33,181.44,480.81,Single-ply,SBD,M
Boys,74.84,9,Cason Fogle,Diana New Diana,74.57,170.1,120.2,190.51,480.81,Single-ply,SBD,M
Boys,74.84,DQ,Jesus Lopez,Buffalo,74.84,,,,,Single-ply,SBD,M
Boys,74.84,DQ,Quade Taliaferro,Gladewater Sabine,70.13,176.9,106.59,,,Single-ply,SBD,M
Boys,74.84,DQ,Chris Atchley,Rice,74.84,,,,,Single-ply,SBD,M
Boys,82.1,1,Jose Dominguez,Buffalo,81.47,263.08,161.03,272.16,696.26,Single-ply,SBD,M
Boys,82.1,2,Brad Meadows,Hooks,77.56,231.33,145.15,215.46,591.94,Single-ply,SBD,M
Boys,82.1,3,Brazos Sepert,Maypearl,78.83,222.26,115.67,249.48,587.4,Single-ply,SBD,M
Boys,82.1,4,Leo Meyers,Linden-Kildare,79.65,210.92,140.61,231.33,582.87,Single-ply,SBD,M
Boys,82.1,5,Felipe Amaro,Laird Hill Leveretts Chapel,78.65,222.26,122.47,188.24,532.97,Single-ply,SBD,M
Boys,82.1,6,Tavion Hall,Kerens,77.56,192.78,129.27,208.65,530.7,Single-ply,SBD,M
Boys,82.1,7,Jeremy Ballard,Corsicana Mildred,78.2,204.12,104.33,222.26,530.7,Single-ply,SBD,M
Boys,82.1,8,Ethan Jordan,Ore City,77.66,201.85,120.2,199.58,521.63,Single-ply,SBD,M
Boys,82.1,9,Carlos Aguinaga,Cayuga,79.47,181.44,129.27,204.12,514.83,Single-ply,SBD,M
Boys,82.1,DQ,Brandon Wesley,Diana New Diana,82.1,,,,,Single-ply,SBD,M
Boys,82.1,DQ,Alex Yancey,Overton,81.47,210.92,131.54,,,Single-ply,SBD,M
Boys,89.81,1,Isaiah Martinez,Commerce,86.91,272.16,156.49,238.14,666.78,Single-ply,SBD,M
Boys,89.81,2,Keenan Allen,Mount Vernon,85.82,235.87,136.08,222.26,594.21,Single-ply,SBD,M
Boys,89.81,3,Rodrick Arceneaux,Elkhart,86.73,242.67,131.54,219.99,594.21,Single-ply,SBD,M
Boys,89.81,4,Michael Martinez,Hughes Springs,87.45,210.92,147.42,215.46,573.79,Single-ply,SBD,M
Boys,89.81,5,Louis Collins,Oakwood,83.55,208.65,142.88,204.12,555.65,Single-ply,SBD,M
Boys,89.81,6,Colton Brown,Shelbyville,87.09,242.67,108.86,204.12,555.65,Single-ply,SBD,M
Boys,89.81,7,Colby Simmons,Elysian Fields,87.63,195.04,133.81,215.46,544.31,Single-ply,SBD,M
Boys,89.81,8,Dillon Brown,Shelbyville,87.72,215.46,106.59,215.46,537.51,Single-ply,SBD,M
Boys,89.81,9,Xavione Davis,Hooks,88.63,190.51,117.93,208.65,517.1,Single-ply,SBD,M
Boys,89.81,10,Dalton White,Redwater,84.55,185.97,122.47,204.12,512.56,Single-ply,SBD,M
Boys,89.81,DQ,Jayson Day,Scurry-Rosser,89.81,,,,,Single-ply,SBD,M
Boys,99.79,1,Kadarrian Chism,Hughes Springs,96.62,226.8,145.15,233.6,605.55,Single-ply,SBD,M
Boys,99.79,2,Peter Calhoun,Palestine Westwood,95.44,226.8,149.69,226.8,603.28,Single-ply,SBD,M
Boys,99.79,3,Averil Royal,Red Oak Life,97.43,260.82,124.74,206.38,591.94,Single-ply,SBD,M
Boys,99.79,4,Brandon Morris,Scurry-Rosser,94.08,233.6,122.47,226.8,582.87,Single-ply,SBD,M
Boys,99.79,5,Ty Tunstall,Cayuga,99.16,219.99,140.61,217.72,578.33,Single-ply,SBD,M
Boys,99.79,6,Ben Dillon,Kemp,91.99,217.72,129.27,213.19,560.19,Single-ply,SBD,M
Boys,99.79,7,Bryan Winburn,Winnsboro,98.79,226.8,129.27,197.31,553.38,Single-ply,SBD,M
Boys,99.79,8,Chris Valencia,Shelbyville,93.62,226.8,106.59,215.46,548.85,Single-ply,SBD,M
Boys,99.79,9,Tad Clark,Diana New Diana,98.97,213.19,117.93,208.65,539.77,Single-ply,SBD,M
Boys,99.79,10,Jeremy Cain,Redwater,92.53,188.24,145.15,199.58,532.97,Single-ply,SBD,M
Boys,99.79,DQ,Tyran Wilson,Commerce,98.07,231.33,,,,Single-ply,SBD,M
Boys,109.77,1,Reggie Scales,New Boston,107.14,299.37,208.65,258.55,766.57,Single-ply,SBD,M
Boys,109.77,2,Kelton Henderson,Teague,109.32,331.12,183.7,238.14,752.96,Single-ply,SBD,M
Boys,109.77,3,Ragan Henderson,Rice,105.05,260.82,170.1,294.84,725.75,Single-ply,SBD,M
Boys,109.77,4,Rj Williams,Hooks,106.78,235.87,154.22,235.87,625.96,Single-ply,SBD,M
Boys,109.77,5,Josh Ashlock,Maypearl,105.14,219.99,140.61,244.94,605.55,Single-ply,SBD,M
Boys,109.77,6,Danny Hanna,Corsicana Mildred,109.13,233.6,149.69,217.72,601.01,Single-ply,SBD,M
Boys,109.77,7,Bryce Stephens,Ore City,102.51,226.8,136.08,204.12,566.99,Single-ply,SBD,M
Boys,109.77,DQ,Colby Spencer,Cushing,106.05,,,,,Single-ply,SBD,M
Boys,109.77,DQ,Alex Moreno,San Augustine,106.05,206.38,154.22,,,Single-ply,SBD,M
Boys,109.77,DQ,Tracy Hightower,Red Oak Life,104.78,,,,,Single-ply,SBD,M
Boys,124.74,1,Cortez Crosby,Commerce,122.92,328.85,154.22,272.16,755.23,Single-ply,SBD,M
Boys,124.74,2,Jones Terry,Elysian Fields,116.12,278.96,176.9,249.48,705.34,Single-ply,SBD,M
Boys,124.74,3,Jose Diaz,Teague,115.85,285.76,131.54,263.08,680.39,Single-ply,SBD,M
Boys,124.74,4,Anthony McGovern,Winnsboro,119.2,303.91,170.1,197.31,671.32,Single-ply,SBD,M
Boys,124.74,5,Dylon Isom,Normangee,124.65,276.69,131.54,260.82,669.05,Single-ply,SBD,M
Boys,124.74,6,Ryan Raney,Wolfe City,124.19,249.48,163.29,244.94,657.71,Single-ply,SBD,M
Boys,124.74,7,Colton Busby,Lone Oak,115.21,254.01,145.15,235.87,635.03,Single-ply,SBD,M
Boys,124.74,8,Daniel Jock,Cayuga,112.22,233.6,179.17,210.92,623.69,Single-ply,SBD,M
Boys,124.74,9,Ryan Mitchell #2,Teague,111.22,240.4,140.61,219.99,601.01,Single-ply,SBD,M
Boys,124.74,DQ,Tristen Walsworth,Troup,111.67,,,,,Single-ply,SBD,M
Boys,124.74+,1,Shakeim Woodberry,Clarksville,133.27,290.3,192.78,265.35,748.43,Single-ply,SBD,M
Boys,124.74+,2,Josh Byrd,Waskom,156.85,317.51,185.97,244.94,748.43,Single-ply,SBD,M
Boys,124.74+,3,Johnathan Seabolt,Blooming Grove,144.42,294.84,151.95,229.06,675.85,Single-ply,SBD,M
Boys,124.74+,4,Alex Ellis #1,Teague,126.01,285.76,131.54,242.67,659.98,Single-ply,SBD,M
Boys,124.74+,5,Kyre Lewis,Hughes Springs,140.98,249.48,161.03,240.4,650.91,Single-ply,SBD,M
Boys,124.74+,6,Rhett Golden,Joaquin,125.83,260.82,158.76,206.38,625.96,Single-ply,SBD,M
Boys,124.74+,7,Raul Torres,Palmer,131.36,222.26,145.15,233.6,601.01,Single-ply,SBD,M
Boys,124.74+,8,Trey Villarreal,Diana New Diana,141.07,235.87,136.08,215.46,587.4,Single-ply,SBD,M
Boys,124.74+,9,Wesley Holmes,New Boston,141.16,240.4,129.27,208.65,578.33,Single-ply,SBD,M
Boys,124.74+,DQ,Lane Allen,Detroit,129.36,,,,,Single-ply,SBD,M
Boys,,NS,Chase Whitaker,Mount Vernon,,,,,,Single-ply,SBD,M
